best on training set at iteration 0:  87
best on training set at iteration 100:  88
best on training set at iteration 200:  89
best on training set at iteration 300:  90
best on training set at iteration 400:  91
best on training set at iteration 500:  91
best on training set at iteration 600:  91
best on training set at iteration 700:  91
best on training set at iteration 800:  91
best on training set at iteration 900:  92
best on training set at iteration 1000:  92
best on training set at iteration 1100:  92
best on training set at iteration 1200:  92
best on training set at iteration 1300:  92
best on training set at iteration 1400:  92
best on training set at iteration 1500:  92
best on training set at iteration 1600:  92
best on training set at iteration 1700:  92
best on training set at iteration 1800:  92
best on training set at iteration 1900:  92
best on training set at iteration 2000:  92
best on training set at iteration 2100:  92
best on training set at iteration 2200:  92
best on training set at iteration 2300:  92
best on training set at iteration 2400:  92
best on training set at iteration 2500:  92
best on training set at iteration 2600:  92
best on training set at iteration 2700:  92
best on training set at iteration 2800:  92
best on training set at iteration 2900:  92
best on training set at iteration 3000:  92
best on training set at iteration 3100:  92
best on training set at iteration 3200:  92
best on training set at iteration 3300:  92
best on training set at iteration 3400:  92
best on training set at iteration 3500:  92
best on training set at iteration 3600:  92
best on training set at iteration 3700:  92
best on training set at iteration 3800:  92
best on training set at iteration 3900:  92
best on training set at iteration 4000:  92
best on training set at iteration 4100:  92
best on training set at iteration 4200:  92
best on training set at iteration 4300:  92
best on training set at iteration 4400:  92
best on training set at iteration 4500:  92
best on training set at iteration 4600:  92
best on training set at iteration 4700:  92
best on training set at iteration 4800:  92
best on training set at iteration 4900:  92
best on training set at iteration 5000:  92
best on training set at iteration 5100:  92
best on training set at iteration 5200:  92
best on training set at iteration 5300:  92
best on training set at iteration 5400:  92
best on training set at iteration 5500:  92
best on training set at iteration 5600:  92
best on training set at iteration 5700:  92
best on training set at iteration 5800:  92
best on training set at iteration 5900:  93
best on training set at iteration 6000:  93
best on training set at iteration 6100:  93
best on training set at iteration 6200:  93
best on training set at iteration 6300:  93
best on training set at iteration 6400:  93
best on training set at iteration 6500:  93
best on training set at iteration 6600:  93
best on training set at iteration 6700:  93
best on training set at iteration 6800:  93
best on training set at iteration 6900:  93
best on training set at iteration 7000:  93
best on training set at iteration 7100:  93
best on training set at iteration 7200:  93
best on training set at iteration 7300:  93
best on training set at iteration 7400:  93
best on training set at iteration 7500:  93
best on training set at iteration 7600:  93
best on training set at iteration 7700:  93
best on training set at iteration 7800:  93
best on training set at iteration 7900:  93
best on training set at iteration 8000:  93
best on training set at iteration 8100:  93
best on training set at iteration 8200:  93
best on training set at iteration 8300:  93
best on training set at iteration 8400:  93
best on training set at iteration 8500:  93
best on training set at iteration 8600:  93
best on training set at iteration 8700:  93
best on training set at iteration 8800:  93
best on training set at iteration 8900:  93
best on training set at iteration 9000:  93
best on training set at iteration 9100:  93
best on training set at iteration 9200:  93
best on training set at iteration 9300:  93
best on training set at iteration 9400:  93
best on training set at iteration 9500:  93
best on training set at iteration 9600:  93
best on training set at iteration 9700:  93
best on training set at iteration 9800:  93
best on training set at iteration 9900:  93

 37-[4  14]  7-[-0  3]  43-[-0  5]  55-[-0  14]  37-[5  10]  12-[8  14]  7-[-0  4] -> 0
 12-[10  13]  19-[0  14]  41-[0  11]  45-[8  16]  10-[5  16]  27-[-0  16]  55-[-0  4] -> 0
 46-[-0  15]  60-[-0  8]  58-[-0  12]  40-[-0  10]  1-[-0  6]  13-[-0  10]  15-[-0  5] -> 0
 15-[-0  4]  62-[-0  7]  43-[-0  9]  30-[-0  2]  12-[-0  4]  62-[-0  10]  24-[-0  6] -> 0
 30-[-0  9]  12-[-0  12]  47-[-0  6]  51-[-0  5]  27-[-0  8]  55-[-0  12]  47-[-0  9] -> 0
 44-[1  10]  47-[-0  2]  55-[-0  4]  46-[2  15]  29-[2  10]  28-[-0  7]  19-[3  12] -> 0
 28-[-0  8]  2-[6  11]  9-[-0  13]  53-[5  15]  21-[4  11]  8-[-0  12]  10-[14  16] -> 0
 50-[7  16]  53-[1  16]  7-[-0  6]  44-[1  10]  29-[1  11]  13-[8  16]  27-[-0  12] -> 0
 6-[-0  3]  51-[2  11]  28-[-0  4]  48-[-0  15]  34-[3  13]  59-[3  16]  49-[0  11] -> 0
 50-[7  14]  12-[11  14]  45-[10  16]  5-[-0  15]  40-[-0  12]  63-[-0  11]  19-[-0  6] -> 0
 1-[-0  7]  55-[-0  6]  41-[3  8]  61-[-0  15]  56-[-0  7]  57-[-0  8]  14-[2  15] -> 0
 39-[-0  16]  22-[1  14]  62-[-0  3]  46-[1  12]  36-[-0  2]  62-[-0  3]  16-[-0  6] -> 0
 30-[1  12]  57-[-0  10]  21-[7  15]  7-[-0  11]  21-[6  15]  50-[5  14]  48-[-0  11] -> 0
 21-[2  16]  4-[6  12]  55-[-0  15]  27-[-0  5]  2-[5  11]  1-[-0  8]  37-[3  10] -> 0
 38-[-0  9]  39-[-0  7]  57-[-0  9]  54-[-0  7]  51-[-0  5]  21-[-0  14]  26-[-0  1] -> 0
 52-[1  9]  17-[2  10]  57-[-0  16]  19-[2  14]  20-[-0  5]  61-[2  11]  56-[-0  11] -> 0
 8-[-0  15]  26-[6  16]  56-[-0  9]  51-[2  15]  36-[-0  13]  35-[-0  9]  38-[2  7] -> 0
 15-[-0  11]  48-[-0  2]  13-[3  12]  32-[-0  2]  53-[8  16]  8-[-0  12]  5-[-0  14] -> 0
 3-[2  16]  58-[8  16]  7-[-0  14]  6-[-0  14]  22-[0  9]  60-[2  16]  15-[-0  6] -> 0
 5-[-0  16]  16-[-0  6]  29-[10  12]  9-[3  16]  51-[3  15]  39-[-0  16]  1-[-0  6] -> 0
 9-[0  3]  56-[-0  16]  33-[1  16]  14-[-0  2]  11-[3  11]  24-[-0  13]  1-[-0  10] -> 0
 58-[2  15]  12-[4  14]  49-[1  6]  10-[12  16]  59-[7  15]  52-[8  16]  60-[1  6] -> 0
 63-[-0  -0]  12-[-0  14]  48-[-0  7]  35-[-0  12]  9-[-0  7]  28-[-0  2]  30-[-0  7] -> 0
 47-[-0  13]  14-[-0  10]  35-[-0  15]  6-[-0  15]  58-[1  6]  15-[-0  12]  7-[-0  14] -> 0
 59-[-0  15]  33-[1  13]  58-[-0  9]  41-[-0  14]  10-[-0  13]  11-[-0  7]  11-[-0  -0] -> 1
 53-[14  16]  32-[-0  14]  58-[-0  11]  49-[-0  13]  23-[-0  16]  31-[-0  14]  4-[11  16] -> 1
 29-[-0  6]  37-[1  14]  9-[-0  3]  3-[12  15]  62-[1  15]  40-[-0  13]  26-[1  12] -> 1
 21-[1  14]  1-[-0  10]  8-[-0  4]  38-[-0  5]  28-[2  16]  8-[-0  2]  34-[3  12] -> 1
 42-[-0  10]  13-[3  16]  55-[-0  9]  25-[3  15]  53-[4  16]  51-[3  16]  4-[11  15] -> 1
 8-[-0  5]  62-[4  15]  22-[-0  10]  6-[2  5]  39-[-0  2]  29-[3  13]  31-[-0  11] -> 1
 35-[3  16]  36-[3  16]  51-[2  16]  14-[-0  1]  45-[1  12]  13-[-0  8]  51-[12  16] -> 1
 57-[-0  11]  40-[-0  5]  29-[10  14]  35-[2  16]  11-[1  16]  14-[-0  12]  58-[1  13] -> 1
 58-[-0  1]  3-[1  3]  35-[8  16]  46-[-0  9]  46-[-0  10]  14-[0  2]  41-[0  9] -> 1
 34-[2  16]  43-[4  7]  38-[-0  16]  47-[-0  14]  10-[-0  8]  30-[-0  15]  28-[2  16] -> 1
 21-[13  16]  37-[5  14]  13-[4  16]  7-[-0  12]  28-[3  16]  13-[12  16]  14-[-0  11] -> 1
 25-[1  14]  31-[-0  4]  2-[-0  15]  57-[-0  15]  37-[8  11]  36-[11  16]  14-[-0  9] -> 1
 28-[9  16]  54-[1  9]  39-[-0  2]  51-[4  15]  20-[12  16]  59-[5  13]  56-[-0  5] -> 1
 15-[-0  5]  37-[3  16]  49-[-0  16]  50-[-0  14]  30-[-0  13]  32-[-0  11]  24-[-0  1] -> 1
 26-[2  12]  28-[4  16]  59-[2  6]  53-[1  11]  33-[2  15]  52-[12  16]  35-[3  14] -> 1
 59-[-0  12]  2-[-0  3]  59-[-0  1]  32-[-0  4]  46-[-0  9]  21-[6  16]  8-[-0  12] -> 1
 36-[4  16]  41-[0  10]  62-[0  11]  10-[-0  9]  2-[-0  9]  21-[4  16]  54-[-0  10] -> 1
 45-[5  12]  57-[-0  3]  43-[2  12]  27-[13  16]  45-[1  15]  32-[-0  3]  7-[-0  6] -> 1
 43-[4  15]  62-[0  15]  28-[10  16]  16-[-0  3]  28-[9  16]  31-[-0  14]  29-[9  13] -> 1
 15-[-0  12]  7-[-0  6]  57-[-0  14]  36-[12  16]  25-[4  14]  16-[-0  13]  28-[9  16] -> 1
 57-[-0  13]  36-[2  16]  36-[6  16]  54-[1  8]  2-[-0  12]  62-[0  1]  1-[-0  3] -> 1
 53-[14  16]  50-[-0  2]  4-[1  15]  29-[11  16]  32-[-0  14]  44-[4  16]  8-[-0  11] -> 1
 41-[-0  5]  3-[6  14]  4-[0  2]  41-[-0  13]  6-[-0  1]  31-[-0  8]  27-[9  16] -> 1
 35-[1  14]  11-[10  16]  23-[-0  1]  30-[1  5]  18-[7  15]  48-[-0  8]  3-[2  15] -> 1
 32-[-0  7]  6-[-0  4]  8-[-0  8]  31-[-0  16]  51-[8  16]  11-[4  12]  47-[-0  15] -> 2
 2-[2  14]  19-[-0  16]  56-[-0  15]  57-[0  9]  13-[1  6]  2-[7  14]  58-[1  15] -> 2
 58-[4  16]  54-[3  8]  54-[2  5]  40-[-0  4]  54-[3  6]  25-[1  8]  54-[3  8] -> 2
 38-[-0  13]  18-[8  14]  49-[-0  15]  47-[-0  12]  50-[5  12]  17-[3  16]  56-[-0  1] -> 2
 20-[10  13]  21-[2  15]  16-[-0  11]  11-[2  13]  43-[2  8]  22-[-0  4]  29-[2  10] -> 2
 38-[-0  2]  28-[2  9]  54-[2  16]  26-[5  9]  38-[-0  4]  23-[-0  7]  60-[5  15] -> 2
 34-[-0  12]  34-[-0  3]  1-[-0  5]  50-[5  15]  28-[2  16]  55-[0  16]  60-[6  13] -> 2
 17-[1  10]  43-[12  15]  42-[-0  16]  31-[-0  14]  20-[1  16]  62-[9  16]  26-[2  11] -> 2
 62-[10  15]  11-[7  16]  18-[7  13]  28-[2  14]  12-[4  14]  40-[-0  13]  56-[-0  11] -> 2
 7-[-0  8]  63-[3  12]  20-[13  16]  30-[-0  8]  15-[-0  6]  1-[0  10]  3-[3  15] -> 2
 10-[6  16]  52-[5  16]  18-[3  16]  61-[2  16]  14-[-0  8]  34-[-0  4]  54-[5  10] -> 2
 27-[-0  12]  22-[-0  3]  41-[-0  3]  28-[3  16]  29-[2  14]  10-[10  16]  8-[-0  4] -> 2
 32-[-0  10]  50-[6  9]  48-[-0  14]  31-[-0  16]  31-[-0  1]  12-[11  16]  53-[2  15] -> 2
 46-[-0  15]  33-[-0  1]  45-[-0  11]  30-[-0  1]  19-[-0  2]  56-[-0  4]  47-[-0  9] -> 2
 55-[-0  14]  13-[1  5]  49-[-0  13]  61-[15  16]  31-[-0  8]  29-[3  11]  28-[4  16] -> 2
 27-[4  15]  9-[1  7]  58-[6  16]  7-[-0  15]  7-[-0  1]  43-[4  15]  50-[8  14] -> 2
 27-[7  16]  40-[-0  5]  45-[-0  3]  62-[2  16]  19-[2  15]  6-[-0  1]  42-[2  9] -> 2
 9-[4  15]  4-[2  11]  32-[-0  6]  56-[-0  1]  5-[-0  6]  51-[3  16]  12-[6  16] -> 2
 6-[-0  5]  61-[2  16]  4-[4  11]  48-[-0  2]  12-[10  16]  8-[-0  16]  38-[-0  1] -> 2
 9-[2  14]  30-[-0  8]  21-[4  16]  55-[-0  3]  56-[-0  13]  16-[-0  5]  43-[2  16] -> 2
 28-[7  15]  30-[-0  9]  45-[-0  7]  37-[-0  2]  59-[3  15]  57-[-0  9]  51-[9  16] -> 2
 37-[3  12]  25-[-0  14]  25-[-0  10]  4-[1  14]  5-[-0  6]  22-[-0  2]  35-[0  10] -> 2
 52-[12  16]  33-[-0  12]  18-[9  16]  60-[3  16]  19-[6  16]  50-[1  16]  18-[11  16] -> 2
 61-[6  15]  46-[-0  8]  45-[-0  9]  42-[0  9]  38-[-0  4]  19-[1  7]  12-[5  15] -> 2
 27-[8  14]  46-[4  15]  3-[4  15]  13-[1  16]  19-[-0  14]  9-[2  14]  20-[8  12] -> 3
 20-[9  16]  45-[6  16]  57-[1  10]  36-[6  16]  59-[8  16]  51-[7  13]  55-[-0  16] -> 3
 50-[12  16]  31-[-0  2]  25-[-0  10]  31-[-0  5]  22-[-0  1]  11-[2  12]  28-[3  16] -> 3
 3-[9  15]  55-[-0  6]  42-[0  11]  27-[13  16]  9-[-0  9]  9-[-0  7]  20-[7  14] -> 3
 63-[-0  7]  38-[6  12]  12-[5  16]  31-[-0  14]  28-[9  16]  59-[10  15]  5-[6  14] -> 3
 45-[7  16]  19-[-0  3]  62-[-0  13]  8-[-0  15]  8-[-0  3]  14-[3  8]  51-[1  8] -> 3
 5-[3  14]  19-[-0  8]  2-[1  9]  17-[0  8]  35-[4  16]  47-[-0  7]  55-[-0  12] -> 3
 56-[-0  12]  13-[2  10]  57-[-0  4]  62-[-0  13]  39-[-0  12]  2-[5  9]  28-[1  16] -> 3
 20-[2  12]  53-[6  11]  49-[-0  2]  61-[-0  2]  42-[-0  16]  54-[-0  11]  5-[2  13] -> 3
 5-[9  16]  13-[11  16]  43-[-0  9]  18-[0  2]  30-[-0  4]  52-[10  16]  46-[4  9] -> 3
 23-[-0  1]  54-[1  12]  60-[4  14]  60-[9  15]  1-[1  11]  24-[-0  1]  51-[0  16] -> 3
 16-[-0  16]  42-[1  15]  7-[-0  7]  25-[-0  13]  28-[1  16]  2-[6  13]  26-[2  14] -> 3
 38-[1  16]  18-[3  8]  58-[3  8]  4-[1  16]  42-[-0  12]  3-[4  14]  20-[9  15] -> 3
 19-[-0  3]  42-[-0  15]  20-[5  16]  11-[1  15]  22-[-0  2]  9-[1  14]  48-[-0  16] -> 3
 10-[8  15]  10-[3  15]  61-[9  12]  34-[2  14]  63-[-0  4]  9-[8  12]  41-[-0  3] -> 3
 19-[-0  13]  27-[4  16]  46-[1  13]  59-[3  13]  15-[-0  14]  57-[-0  12]  63-[-0  13] -> 3
 42-[0  11]  36-[1  12]  4-[5  12]  7-[-0  12]  51-[2  11]  16-[-0  12]  4-[2  15] -> 3
 38-[2  4]  58-[8  12]  25-[-0  12]  27-[11  16]  28-[13  16]  25-[-0  6]  26-[-0  12] -> 3
 62-[-0  1]  11-[6  10]  48-[-0  15]  40-[-0  6]  39-[-0  2]  6-[-0  12]  53-[10  16] -> 3
 6-[-0  14]  28-[6  16]  55-[-0  13]  12-[4  10]  12-[5  10]  59-[9  12]  5-[8  15] -> 3
 49-[-0  12]  60-[9  16]  49-[-0  7]  30-[-0  11]  5-[3  11]  25-[-0  8]  4-[8  13] -> 3
 62-[-0  5]  23-[-0  7]  49-[-0  12]  54-[0  9]  45-[6  16]  16-[-0  16]  7-[-0  13] -> 3
 55-[-0  8]  21-[5  16]  60-[12  15]  28-[1  16]  17-[-0  4]  62-[-0  4]  54-[4  13] -> 3
 60-[8  13]  9-[3  13]  40-[-0  7]  39-[-0  13]  5-[6  14]  13-[3  16]  54-[1  15] -> 3
 11-[12  16]  50-[-0  14]  38-[1  14]  14-[3  14]  38-[1  5]  62-[-0  10]  29-[13  16] -> 4
 58-[-0  11]  7-[-0  5]  18-[9  15]  55-[-0  10]  7-[-0  7]  40-[-0  14]  29-[10  16] -> 4
 46-[1  11]  38-[2  13]  11-[1  15]  39-[-0  7]  58-[-0  4]  20-[3  12]  20-[2  11] -> 4
 16-[-0  16]  19-[9  14]  6-[-0  12]  58-[-0  16]  3-[-0  8]  4-[4  13]  23-[-0  5] -> 4
 16-[-0  8]  37-[13  16]  6-[-0  6]  45-[5  15]  45-[13  15]  19-[9  16]  6-[-0  6] -> 4
 11-[4  7]  19-[10  14]  17-[-0  8]  45-[7  15]  30-[5  8]  47-[-0  16]  20-[2  11] -> 4
 18-[11  14]  6-[-0  6]  63-[-0  10]  12-[5  12]  16-[-0  16]  50-[-0  15]  30-[6  12] -> 4
 63-[-0  4]  3-[1  10]  30-[1  15]  11-[12  16]  51-[1  9]  25-[4  12]  4-[2  16] -> 4
 41-[-0  8]  14-[6  16]  30-[10  16]  12-[4  14]  5-[5  16]  28-[13  16]  12-[6  13] -> 4
 8-[-0  7]  63-[-0  11]  15-[-0  5]  31-[-0  5]  18-[5  9]  55-[-0  9]  16-[-0  10] -> 4
 1-[-0  3]  9-[-0  6]  32-[-0  2]  60-[4  16]  7-[-0  10]  59-[-0  14]  12-[4  16] -> 4
 11-[4  12]  27-[1  12]  17-[-0  -0]  9-[-0  12]  54-[-0  3]  20-[2  15]  46-[1  8] -> 4
 18-[8  15]  42-[-0  5]  20-[0  3]  39-[-0  7]  9-[-0  13]  59-[2  5]  53-[-0  13] -> 4
 47-[-0  16]  24-[-0  6]  41-[0  3]  57-[-0  10]  6-[1  12]  61-[8  11]  16-[-0  9] -> 4
 34-[9  15]  17-[1  3]  11-[5  16]  2-[-0  15]  25-[3  8]  56-[-0  13]  41-[-0  11] -> 4
 52-[5  16]  24-[-0  11]  23-[-0  13]  41-[-0  5]  28-[6  16]  1-[-0  15]  13-[3  5] -> 4
 25-[1  15]  9-[-0  1]  4-[6  14]  12-[12  16]  8-[-0  3]  25-[5  13]  20-[5  13] -> 4
 52-[8  16]  4-[4  16]  57-[-0  1]  52-[8  16]  53-[2  8]  49-[-0  12]  14-[13  15] -> 4
 48-[-0  5]  31-[-0  6]  7-[-0  14]  52-[3  16]  11-[10  16]  40-[-0  3]  19-[1  16] -> 4
 15-[-0  6]  49-[-0  7]  38-[1  14]  27-[5  14]  14-[1  15]  4-[1  16]  16-[-0  15] -> 4
 17-[-0  7]  62-[-0  12]  46-[2  12]  2-[-0  9]  30-[2  13]  40-[-0  11]  37-[11  16] -> 4
 16-[-0  3]  49-[-0  2]  55-[-0  10]  3-[-0  7]  7-[-0  7]  41-[5  13]  38-[2  15] -> 4
 61-[1  11]  18-[12  16]  36-[5  15]  38-[1  7]  19-[5  9]  12-[5  14]  10-[4  6] -> 4
 6-[7  16]  24-[-0  14]  25-[1  10]  25-[2  10]  34-[2  15]  16-[-0  16]  50-[-0  15] -> 4
 55-[-0  3]  20-[1  10]  38-[-0  4]  15-[-0  7]  13-[10  15]  44-[1  8]  5-[1  12] -> 5
 32-[-0  11]  30-[-0  1]  14-[2  10]  60-[4  13]  35-[-0  8]  29-[1  10]  44-[3  16] -> 5
 51-[1  14]  48-[-0  10]  35-[-0  9]  3-[2  16]  11-[2  16]  33-[0  8]  15-[-0  9] -> 5
 32-[-0  2]  48-[-0  16]  23-[-0  2]  29-[8  16]  20-[3  14]  26-[2  16]  40-[-0  14] -> 5
 10-[6  14]  16-[-0  8]  32-[-0  13]  25-[5  11]  4-[1  15]  52-[4  13]  7-[-0  10] -> 5
 50-[1  16]  12-[0  7]  15-[-0  2]  47-[-0  8]  51-[3  12]  50-[4  13]  56-[-0  2] -> 5
 46-[6  11]  40-[-0  4]  23-[-0  10]  2-[9  12]  40-[-0  4]  22-[-0  1]  38-[4  11] -> 5
 1-[-0  16]  43-[-0  2]  58-[2  15]  34-[1  9]  38-[-0  1]  38-[-0  11]  1-[-0  3] -> 5
 4-[13  16]  51-[1  6]  15-[-0  3]  22-[-0  9]  2-[1  11]  50-[9  14]  55-[-0  1] -> 5
 9-[-0  4]  39-[-0  4]  47-[-0  15]  52-[8  16]  47-[-0  10]  45-[10  15]  12-[3  15] -> 5
 25-[6  15]  23-[-0  12]  52-[9  13]  7-[-0  3]  18-[1  15]  60-[4  12]  53-[5  13] -> 5
 40-[-0  13]  20-[1  8]  16-[-0  7]  41-[-0  7]  12-[3  15]  54-[-0  6]  14-[1  13] -> 5
 21-[7  16]  14-[2  14]  46-[-0  7]  45-[1  12]  13-[2  13]  42-[-0  5]  36-[-0  7] -> 5
 3-[2  14]  37-[3  16]  26-[5  13]  6-[2  9]  41-[-0  13]  26-[5  11]  16-[-0  6] -> 5
 52-[9  15]  20-[-0  11]  48-[-0  3]  52-[3  13]  38-[7  13]  19-[-0  15]  42-[-0  10] -> 5
 1-[-0  1]  53-[2  7]  15-[-0  11]  13-[1  7]  25-[2  15]  12-[4  12]  52-[10  16] -> 5
 36-[-0  2]  31-[-0  1]  54-[-0  2]  62-[-0  2]  13-[2  7]  30-[2  14]  16-[-0  5] -> 5
 52-[14  16]  7-[-0  8]  1-[-0  2]  36-[3  8]  22-[-0  7]  2-[6  14]  36-[1  13] -> 5
 40-[-0  10]  38-[-0  10]  38-[-0  2]  3-[5  16]  28-[14  16]  25-[1  6]  20-[4  13] -> 5
 1-[-0  16]  9-[-0  7]  48-[-0  2]  36-[-0  1]  15-[-0  11]  25-[1  9]  24-[-0  1] -> 5
 17-[1  7]  60-[2  11]  22-[-0  16]  45-[2  16]  15-[-0  5]  31-[-0  3]  1-[-0  1] -> 5
 36-[-0  13]  58-[0  6]  7-[-0  11]  59-[9  14]  32-[-0  16]  18-[4  16]  20-[3  16] -> 5
 36-[-0  6]  18-[6  16]  56-[-0  7]  34-[0  9]  48-[-0  15]  32-[-0  3]  44-[4  9] -> 5
 43-[-0  4]  59-[9  16]  18-[8  16]  36-[-0  10]  24-[-0  5]  10-[7  16]  5-[8  16] -> 5
 36-[8  16]  30-[-0  10]  37-[5  16]  18-[8  15]  41-[0  16]  17-[-0  9]  45-[1  8] -> 6
 2-[-0  10]  48-[-0  15]  30-[-0  12]  18-[4  11]  9-[-0  16]  59-[3  16]  19-[8  15] -> 6
 35-[9  15]  7-[-0  7]  61-[2  15]  29-[-0  14]  29-[-0  5]  59-[6  12]  30-[-0  5] -> 6
 30-[-0  2]  54-[7  16]  12-[3  12]  62-[0  11]  43-[4  8]  15-[-0  8]  38-[1  15] -> 6
 35-[6  16]  31-[-0  11]  21-[-0  4]  56-[-0  -0]  49-[-0  16]  8-[-0  1]  25-[2  12] -> 6
 62-[-0  1]  13-[-0  16]  5-[-0  7]  14-[-0  3]  53-[10  15]  54-[7  13]  60-[9  16] -> 6
 18-[9  16]  33-[-0  15]  20-[-0  2]  45-[2  13]  19-[1  11]  18-[7  16]  32-[-0  9] -> 6
 6-[-0  12]  46-[11  16]  47-[0  7]  62-[3  12]  17-[-0  6]  46-[6  16]  10-[2  8] -> 6
 62-[1  15]  63-[-0  3]  35-[1  16]  51-[1  14]  51-[1  13]  25-[4  6]  49-[-0  2] -> 6
 59-[5  16]  21-[-0  7]  37-[14  16]  50-[2  16]  53-[6  16]  33-[1  11]  33-[1  11] -> 6
 11-[7  16]  22-[-0  11]  52-[3  9]  18-[6  16]  48-[-0  14]  20-[-0  9]  41-[1  4] -> 6
 11-[7  11]  16-[-0  7]  18-[9  16]  18-[12  16]  20-[-0  6]  48-[-0  6]  1-[-0  11] -> 6
 2-[2  6]  20-[-0  16]  61-[1  13]  28-[8  11]  13-[-0  7]  10-[11  16]  48-[-0  3] -> 6
 3-[1  16]  11-[12  15]  41-[0  14]  57-[-0  8]  40-[-0  5]  21-[-0  10]  12-[2  12] -> 6
 39-[-0  8]  20-[-0  3]  2-[-0  15]  8-[-0  6]  51-[7  12]  50-[3  14]  37-[6  16] -> 6
 33-[0  12]  21-[-0  7]  61-[7  16]  55-[2  14]  40-[-0  3]  29-[2  12]  43-[9  11] -> 6
 7-[-0  10]  15-[-0  8]  57-[-0  6]  6-[-0  8]  6-[-0  15]  42-[11  16]  4-[3  13] -> 6
 2-[-0  2]  19-[2  7]  45-[2  13]  28-[3  13]  3-[8  16]  21-[-0  14]  18-[10  16] -> 6
 10-[7  15]  11-[12  15]  2-[-0  10]  50-[4  13]  54-[10  16]  5-[-0  7]  15-[-0  7] -> 6
 13-[-0  6]  7-[-0  1]  33-[2  12]  5-[-0  6]  13-[-0  13]  25-[1  5]  10-[6  16] -> 6
 54-[7  12]  12-[-0  5]  9-[-0  9]  17-[1  6]  40-[-0  12]  1-[-0  8]  32-[-0  1] -> 6
 24-[-0  5]  14-[-0  3]  51-[3  15]  14-[-0  15]  61-[1  15]  53-[9  16]  6-[-0  15] -> 6
 16-[-0  15]  28-[3  16]  59-[6  14]  42-[14  16]  58-[0  9]  34-[3  16]  52-[3  6] -> 6
 54-[5  16]  37-[5  15]  41-[1  3]  34-[9  16]  8-[-0  3]  17-[-0  2]  33-[-0  9] -> 6
 42-[1  10]  60-[-0  16]  31-[-0  3]  35-[15  16]  32-[-0  16]  58-[3  14]  14-[-0  8] -> 7
 35-[6  16]  37-[15  16]  56-[-0  15]  37-[11  16]  58-[5  13]  49-[-0  13]  15-[-0  7] -> 7
 37-[12  16]  36-[9  16]  40-[-0  13]  45-[1  6]  4-[4  16]  6-[-0  4]  20-[5  16] -> 7
 14-[0  7]  8-[-0  13]  24-[-0  7]  36-[7  16]  39-[-0  7]  53-[-0  9]  62-[-0  7] -> 7
 27-[3  16]  61-[-0  14]  29-[2  11]  26-[6  10]  25-[0  5]  21-[7  11]  14-[-0  5] -> 7
 5-[13  16]  47-[-0  16]  61-[-0  9]  26-[7  16]  11-[5  16]  35-[2  15]  49-[-0  1] -> 7
 18-[-0  6]  50-[1  16]  3-[9  16]  56-[-0  4]  44-[8  16]  24-[-0  10]  53-[-0  6] -> 7
 19-[1  13]  55-[-0  4]  45-[1  3]  37-[5  14]  27-[1  16]  33-[-0  14]  25-[-0  16] -> 7
 40-[-0  11]  13-[15  16]  55-[-0  11]  23-[-0  3]  54-[-0  4]  59-[2  16]  62-[-0  14] -> 7
 55-[-0  14]  24-[-0  5]  25-[-0  1]  61-[-0  13]  4-[10  16]  23-[-0  8]  31-[-0  4] -> 7
 48-[-0  1]  22-[3  7]  44-[2  15]  37-[9  16]  17-[-0  16]  58-[8  10]  40-[-0  7] -> 7
 29-[10  14]  22-[-0  1]  43-[8  16]  58-[5  15]  50-[5  14]  5-[3  11]  43-[7  16] -> 7
 42-[7  13]  43-[7  16]  20-[13  16]  20-[5  16]  38-[9  14]  44-[1  16]  10-[15  16] -> 7
 36-[10  16]  12-[3  11]  11-[3  13]  48-[-0  5]  56-[-0  5]  15-[-0  10]  24-[-0  5] -> 7
 7-[5  9]  22-[1  12]  45-[-0  12]  15-[1  7]  46-[-0  3]  50-[5  8]  28-[2  16] -> 7
 27-[9  14]  23-[-0  9]  9-[0  8]  24-[-0  8]  47-[-0  3]  63-[-0  2]  63-[-0  14] -> 7
 49-[-0  11]  24-[-0  5]  28-[5  13]  33-[-0  8]  42-[-0  15]  47-[-0  4]  23-[-0  1] -> 7
 43-[4  15]  35-[11  15]  55-[-0  6]  42-[1  14]  10-[10  15]  9-[0  12]  18-[-0  15] -> 7
 40-[-0  9]  11-[3  15]  58-[11  15]  38-[4  11]  56-[-0  9]  31-[-0  4]  12-[2  16] -> 7
 1-[-0  3]  35-[4  12]  45-[-0  11]  63-[-0  14]  54-[-0  9]  10-[2  14]  37-[1  16] -> 7
 36-[1  16]  58-[8  14]  21-[8  16]  41-[-0  12]  63-[-0  10]  17-[-0  6]  38-[3  13] -> 7
 34-[2  12]  60-[0  14]  48-[-0  11]  19-[1  3]  56-[-0  12]  38-[0  3]  52-[1  15] -> 7
 51-[9  16]  32-[-0  4]  62-[-0  4]  59-[3  11]  41-[-0  2]  14-[-0  2]  21-[13  16] -> 7
 62-[-0  9]  40-[-0  16]  9-[-0  1]  40-[-0  7]  34-[4  15]  62-[-0  6]  12-[3  15] -> 7
 63-[-0  6]  41-[-0  12]  16-[-0  12]  62-[-0  14]  12-[0  3]  45-[6  13]  51-[8  14] -> 8
 46-[4  9]  42-[7  10]  6-[-0  16]  28-[12  16]  32-[-0  10]  32-[-0  12]  11-[3  15] -> 8
 49-[-0  2]  48-[-0  6]  25-[0  15]  34-[-0  11]  14-[1  13]  13-[11  15]  24-[-0  2] -> 8
 43-[2  14]  36-[11  16]  46-[3  12]  7-[-0  2]  40-[-0  13]  35-[1  13]  45-[1  16] -> 8
 1-[-0  1]  41-[2  11]  56-[-0  6]  7-[-0  4]  26-[12  16]  22-[1  5]  32-[-0  5] -> 8
 31-[-0  14]  56-[-0  7]  7-[-0  6]  53-[11  16]  33-[-0  5]  58-[1  15]  54-[-0  13] -> 8
 30-[-0  4]  29-[4  7]  18-[5  16]  18-[7  15]  42-[8  16]  23-[-0  6]  33-[1  14] -> 8
 35-[7  16]  23-[-0  6]  35-[4  16]  35-[7  16]  48-[-0  2]  39-[-0  16]  62-[-0  3] -> 8
 26-[4  7]  57-[-0  11]  18-[9  16]  46-[2  10]  42-[2  14]  16-[-0  8]  50-[6  14] -> 8
 8-[-0  3]  4-[8  16]  48-[-0  1]  46-[3  10]  8-[-0  9]  40-[-0  11]  25-[-0  5] -> 8
 46-[2  15]  5-[3  16]  4-[7  16]  50-[5  14]  3-[8  16]  44-[3  13]  31-[-0  9] -> 8
 62-[-0  13]  11-[1  16]  36-[14  16]  61-[8  11]  49-[-0  4]  29-[2  13]  35-[9  15] -> 8
 1-[-0  8]  57-[-0  2]  20-[8  16]  34-[2  15]  63-[-0  4]  17-[6  12]  43-[2  9] -> 8
 32-[-0  8]  37-[8  13]  8-[-0  9]  20-[8  12]  56-[-0  13]  15-[-0  2]  7-[-0  10] -> 8
 24-[-0  14]  55-[-0  2]  22-[-0  6]  39-[-0  2]  36-[6  15]  21-[4  11]  62-[-0  7] -> 8
 20-[1  8]  32-[-0  7]  17-[3  13]  35-[11  14]  50-[6  13]  36-[12  16]  35-[8  13] -> 8
 21-[14  16]  36-[0  6]  41-[-0  12]  63-[-0  5]  54-[-0  8]  52-[3  9]  50-[5  15] -> 8
 38-[-0  4]  18-[12  16]  51-[7  16]  51-[3  15]  16-[-0  8]  38-[-0  7]  57-[-0  14] -> 8
 9-[2  8]  56-[-0  6]  36-[-0  4]  37-[3  13]  3-[4  11]  63-[-0  14]  21-[5  15] -> 8
 33-[-0  15]  19-[3  11]  19-[3  11]  29-[9  14]  41-[-0  6]  52-[8  14]  28-[13  16] -> 8
 8-[-0  5]  18-[5  16]  43-[5  15]  47-[-0  13]  27-[10  16]  5-[1  16]  45-[1  7] -> 8
 23-[-0  14]  50-[3  16]  32-[-0  11]  2-[2  9]  52-[5  15]  7-[-0  6]  18-[6  16] -> 8
 62-[-0  10]  18-[3  16]  58-[1  12]  31-[-0  1]  63-[-0  4]  49-[-0  16]  59-[6  16] -> 8
 8-[-0  6]  46-[-0  14]  12-[4  8]  6-[0  13]  14-[3  9]  61-[4  9]  35-[4  16] -> 8
 58-[-0  14]  9-[0  9]  61-[-0  15]  14-[2  15]  56-[-0  12]  42-[-0  2]  36-[7  16] -> 9
 55-[-0  2]  43-[-0  12]  57-[-0  4]  30-[4  8]  40-[-0  6]  15-[1  11]  45-[11  14] -> 9
 3-[2  12]  29-[13  16]  35-[3  15]  18-[14  16]  29-[15  16]  51-[1  7]  25-[1  9] -> 9
 12-[3  13]  13-[11  16]  58-[5  16]  3-[6  16]  33-[-0  3]  10-[12  15]  63-[-0  6] -> 9
 7-[-0  2]  12-[2  9]  58-[-0  4]  57-[-0  3]  47-[-0  7]  49-[-0  15]  62-[-0  11] -> 9
 37-[1  16]  16-[-0  6]  34-[4  16]  16-[-0  16]  5-[8  16]  7-[-0  3]  5-[12  16] -> 9
 49-[-0  4]  49-[-0  14]  7-[2  7]  33-[0  5]  50-[-0  2]  46-[-0  3]  62-[-0  1] -> 9
 11-[4  9]  26-[4  16]  15-[-0  14]  15-[-0  2]  39-[-0  13]  6-[-0  11]  45-[3  9] -> 9
 53-[-0  15]  13-[3  15]  61-[-0  8]  31-[-0  2]  56-[-0  6]  53-[-0  16]  12-[1  12] -> 9
 2-[-0  13]  56-[-0  11]  50-[-0  7]  55-[-0  6]  23-[-0  12]  46-[-0  10]  23-[-0  16] -> 9
 63-[-0  3]  34-[2  13]  3-[-0  7]  59-[-0  2]  16-[-0  12]  32-[-0  13]  48-[-0  12] -> 9
 45-[3  7]  54-[-0  5]  54-[-0  2]  39-[-0  15]  18-[6  16]  15-[2  6]  26-[12  16] -> 9
 49-[-0  7]  21-[11  15]  34-[1  6]  30-[2  11]  49-[-0  5]  51-[3  15]  11-[7  14] -> 9
 54-[5  13]  36-[0  5]  18-[9  16]  39-[-0  12]  48-[-0  12]  57-[-0  8]  62-[-0  16] -> 9
 40-[-0  11]  24-[-0  10]  40-[-0  6]  40-[-0  5]  13-[3  14]  34-[5  16]  47-[-0  15] -> 9
 12-[4  9]  37-[4  16]  34-[3  14]  50-[-0  4]  4-[5  16]  34-[3  14]  25-[0  9] -> 9
 44-[1  13]  17-[2  8]  4-[10  15]  10-[11  16]  38-[3  15]  18-[2  16]  8-[-0  7] -> 9
 38-[-0  9]  23-[-0  14]  11-[6  11]  7-[-0  4]  55-[-0  10]  35-[3  11]  17-[0  3] -> 9
 35-[3  16]  52-[2  16]  20-[1  12]  22-[12  16]  40-[-0  3]  58-[-0  4]  11-[9  16] -> 9
 2-[0  15]  35-[-0  14]  38-[1  16]  26-[10  13]  49-[-0  2]  56-[-0  6]  59-[0  7] -> 9
 32-[-0  4]  33-[-0  8]  34-[-0  4]  36-[-0  13]  6-[4  9]  61-[1  16]  1-[-0  15] -> 9
 59-[10  15]  34-[5  14]  58-[-0  1]  60-[3  13]  12-[3  15]  55-[-0  10]  46-[-0  12] -> 9
 7-[-0  4]  55-[-0  15]  4-[7  16]  46-[-0  15]  45-[-0  12]  46-[-0  3]  28-[10  16] -> 9
 40-[-0  9]  43-[-0  15]  11-[10  14]  3-[3  10]  59-[2  8]  17-[-0  16]  56-[-0  16] -> 9
ACCURACY on training set 93

TEST ACCURACY 40.957
