best on training set at iteration 0:  95
best on training set at iteration 100:  96
best on training set at iteration 200:  96
best on training set at iteration 300:  96
best on training set at iteration 400:  96
best on training set at iteration 500:  96
best on training set at iteration 600:  96
best on training set at iteration 700:  96
best on training set at iteration 800:  96
best on training set at iteration 900:  96
best on training set at iteration 1000:  96
best on training set at iteration 1100:  96
best on training set at iteration 1200:  97
best on training set at iteration 1300:  97
best on training set at iteration 1400:  97
best on training set at iteration 1500:  97
best on training set at iteration 1600:  97
best on training set at iteration 1700:  97
best on training set at iteration 1800:  97
best on training set at iteration 1900:  97
best on training set at iteration 2000:  97
best on training set at iteration 2100:  97
best on training set at iteration 2200:  97
best on training set at iteration 2300:  97
best on training set at iteration 2400:  97
best on training set at iteration 2500:  97
best on training set at iteration 2600:  97
best on training set at iteration 2700:  97
best on training set at iteration 2800:  97
best on training set at iteration 2900:  98
best on training set at iteration 3000:  98
best on training set at iteration 3100:  98
best on training set at iteration 3200:  98
best on training set at iteration 3300:  98
best on training set at iteration 3400:  98
best on training set at iteration 3500:  98
best on training set at iteration 3600:  98
best on training set at iteration 3700:  98
best on training set at iteration 3800:  98
best on training set at iteration 3900:  98
best on training set at iteration 4000:  98
best on training set at iteration 4100:  99
best on training set at iteration 4200:  99
best on training set at iteration 4300:  99
best on training set at iteration 4400:  99
best on training set at iteration 4500:  99
best on training set at iteration 4600:  99
best on training set at iteration 4700:  99
best on training set at iteration 4800:  99
best on training set at iteration 4900:  99
best on training set at iteration 5000:  99
best on training set at iteration 5100:  99
best on training set at iteration 5200:  99
best on training set at iteration 5300:  99
best on training set at iteration 5400:  99
best on training set at iteration 5500:  99
best on training set at iteration 5600:  99
best on training set at iteration 5700:  99
best on training set at iteration 5800:  99
best on training set at iteration 5900:  99
best on training set at iteration 6000:  99
best on training set at iteration 6100:  99
best on training set at iteration 6200:  99
best on training set at iteration 6300:  99
best on training set at iteration 6400:  99
best on training set at iteration 6500:  99
best on training set at iteration 6600:  99
best on training set at iteration 6700:  99
best on training set at iteration 6800:  99
best on training set at iteration 6900:  99
best on training set at iteration 7000:  99
best on training set at iteration 7100:  99
best on training set at iteration 7200:  99
best on training set at iteration 7300:  99
best on training set at iteration 7400:  99
best on training set at iteration 7500:  99
best on training set at iteration 7600:  99
best on training set at iteration 7700:  99
best on training set at iteration 7800:  99
best on training set at iteration 7900:  99
best on training set at iteration 8000:  99
best on training set at iteration 8100:  99
best on training set at iteration 8200:  99
best on training set at iteration 8300:  99
best on training set at iteration 8400:  99
best on training set at iteration 8500:  99
best on training set at iteration 8600:  99
best on training set at iteration 8700:  99
best on training set at iteration 8800:  99
best on training set at iteration 8900:  99
best on training set at iteration 9000:  99
best on training set at iteration 9100:  99
best on training set at iteration 9200:  99
best on training set at iteration 9300:  99
best on training set at iteration 9400:  99
best on training set at iteration 9500:  99
best on training set at iteration 9600:  99
best on training set at iteration 9700:  99
best on training set at iteration 9800:  99
best on training set at iteration 9900:  99

 32-[-0  15]  30-[6  14]  27-[-0  4]  59-[9  14]  28-[-0  14]  28-[-0  16]  30-[4  12]  12-[2  13]  17-[4  10]  7-[-0  16]  22-[1  6]  9-[0  6]  39-[-0  1]  22-[1  7]  48-[-0  5]  32-[-0  11]  10-[11  16]  23-[-0  5]  59-[11  16]  28-[-0  4]  36-[-0  12]  40-[-0  4] -> 0
 6-[-0  9]  15-[-0  6]  16-[-0  2]  45-[5  11]  28-[-0  7]  8-[-0  12]  28-[-0  3]  56-[-0  1]  59-[7  16]  44-[-0  2]  63-[-0  8]  52-[6  9]  60-[1  16]  35-[-0  15]  15-[-0  13]  26-[1  13]  13-[6  13]  40-[-0  9]  21-[10  16]  40-[-0  11]  27-[-0  9]  39-[-0  5] -> 0
 57-[-0  2]  21-[3  15]  12-[3  15]  58-[-0  1]  34-[2  15]  36-[-0  -0]  7-[-0  12]  10-[3  11]  16-[-0  15]  16-[-0  13]  52-[2  7]  58-[-0  7]  55-[-0  2]  56-[-0  15]  55-[-0  1]  25-[1  6]  4-[3  16]  28-[-0  5]  54-[2  15]  40-[-0  16]  58-[-0  7]  3-[5  9] -> 0
 43-[-0  10]  53-[2  7]  52-[5  16]  7-[-0  10]  46-[1  16]  36-[-0  9]  54-[-0  7]  46-[1  16]  13-[7  14]  57-[-0  9]  60-[5  15]  1-[0  2]  62-[-0  14]  2-[4  11]  6-[-0  10]  36-[-0  3]  3-[1  16]  19-[2  14]  4-[1  10]  41-[1  12]  21-[2  16]  23-[-0  3] -> 0
 38-[1  11]  36-[-0  4]  48-[-0  8]  7-[-0  8]  8-[-0  11]  48-[-0  4]  62-[-0  15]  53-[12  16]  24-[-0  5]  52-[4  14]  31-[-0  9]  5-[-0  12]  48-[-0  11]  32-[-0  5]  14-[-0  3]  44-[-0  15]  27-[-0  9]  4-[6  9]  52-[1  13]  7-[-0  1]  59-[9  16]  1-[-0  8] -> 0
 2-[-0  15]  60-[-0  2]  16-[-0  6]  30-[-0  1]  25-[-0  8]  34-[-0  1]  13-[-0  4]  43-[-0  3]  44-[-0  -0]  26-[-0  16]  44-[-0  16]  28-[-0  13]  18-[-0  10]  19-[-0  4]  11-[-0  13]  1-[-0  10]  40-[-0  11]  36-[-0  10]  20-[-0  16]  6-[-0  16]  13-[-0  6]  60-[-0  14] -> 0
 31-[-0  11]  10-[12  16]  28-[-0  12]  30-[4  13]  8-[-0  3]  44-[5  15]  50-[7  15]  47-[-0  7]  19-[1  15]  14-[-0  15]  42-[8  16]  26-[1  16]  61-[-0  12]  29-[4  16]  23-[-0  12]  59-[13  16]  8-[-0  7]  58-[8  16]  8-[-0  1]  42-[14  16]  26-[4  15]  2-[9  14] -> 0
 50-[4  16]  17-[1  8]  44-[-0  7]  53-[4  16]  61-[3  10]  60-[8  16]  51-[1  12]  58-[2  14]  63-[-0  10]  2-[1  16]  24-[-0  8]  37-[5  9]  42-[12  16]  28-[-0  11]  24-[-0  3]  57-[-0  16]  40-[-0  1]  45-[4  12]  3-[11  16]  50-[6  16]  54-[0  11]  62-[-0  14] -> 0
 11-[6  15]  48-[-0  13]  49-[3  11]  51-[11  15]  47-[-0  6]  9-[-0  15]  22-[5  13]  2-[2  16]  7-[-0  13]  9-[-0  13]  46-[3  7]  6-[1  6]  24-[-0  12]  56-[-0  2]  12-[8  13]  2-[5  16]  2-[13  16]  24-[-0  7]  12-[10  14]  60-[2  9]  29-[1  15]  44-[6  15] -> 0
 56-[-0  4]  56-[-0  5]  40-[-0  9]  37-[3  11]  35-[-0  14]  29-[4  7]  21-[8  13]  28-[-0  3]  10-[1  11]  55-[-0  9]  54-[2  13]  1-[-0  11]  55-[-0  2]  53-[12  15]  48-[-0  14]  20-[-0  15]  57-[-0  15]  49-[-0  3]  62-[0  8]  36-[-0  2]  1-[-0  9]  39-[-0  9] -> 0
 52-[3  16]  2-[6  9]  37-[6  14]  9-[3  7]  31-[-0  10]  23-[-0  1]  40-[-0  8]  49-[-0  16]  4-[4  12]  45-[2  16]  39-[-0  12]  52-[4  16]  54-[-0  11]  53-[4  16]  53-[9  16]  25-[1  9]  7-[-0  5]  22-[-0  1]  55-[-0  4]  55-[-0  7]  45-[12  15]  61-[-0  13] -> 0
 36-[-0  9]  26-[3  14]  63-[-0  2]  52-[4  15]  31-[-0  2]  35-[-0  1]  2-[2  15]  42-[3  15]  26-[8  15]  46-[7  12]  22-[0  9]  23-[-0  12]  43-[-0  15]  20-[-0  11]  3-[4  16]  25-[5  11]  23-[-0  12]  53-[13  14]  38-[3  12]  21-[5  11]  51-[1  15]  13-[3  15] -> 0
 53-[2  15]  51-[3  11]  50-[9  15]  35-[-0  11]  29-[2  8]  8-[-0  4]  59-[3  14]  34-[4  14]  53-[8  16]  2-[-0  8]  40-[-0  6]  53-[2  15]  48-[-0  10]  24-[-0  3]  23-[-0  4]  14-[-0  1]  7-[-0  6]  48-[-0  10]  50-[5  14]  63-[-0  1]  56-[-0  6]  53-[9  16] -> 0
 10-[7  16]  4-[1  12]  15-[-0  9]  6-[-0  5]  2-[7  13]  47-[-0  1]  49-[3  8]  37-[6  15]  10-[1  16]  61-[-0  7]  1-[-0  2]  28-[-0  15]  57-[-0  15]  28-[-0  13]  15-[-0  12]  28-[-0  4]  39-[-0  4]  35-[-0  1]  36-[-0  1]  24-[-0  9]  25-[4  10]  21-[1  16] -> 0
 9-[1  14]  9-[1  16]  14-[-0  11]  63-[-0  11]  17-[9  14]  27-[-0  10]  30-[9  14]  18-[12  16]  43-[0  2]  45-[8  14]  59-[9  16]  49-[-0  4]  33-[7  13]  63-[-0  4]  2-[3  12]  25-[3  14]  19-[-0  7]  34-[11  14]  61-[2  12]  21-[9  16]  18-[9  16]  10-[11  16] -> 0
 10-[1  16]  26-[5  16]  62-[-0  7]  26-[1  14]  4-[8  11]  10-[4  14]  7-[-0  2]  36-[-0  3]  46-[7  13]  25-[4  14]  47-[-0  8]  57-[-0  5]  13-[6  10]  28-[-0  12]  45-[8  16]  32-[-0  13]  46-[3  10]  46-[6  12]  61-[1  12]  26-[1  16]  7-[-0  8]  31-[-0  8] -> 0
 61-[-0  2]  45-[-0  16]  21-[-0  7]  36-[-0  3]  24-[-0  13]  13-[-0  7]  36-[-0  -0]  24-[-0  7]  55-[-0  9]  51-[-0  8]  47-[-0  1]  42-[-0  16]  25-[-0  13]  29-[-0  10]  27-[-0  5]  16-[-0  2]  47-[-0  16]  62-[-0  13]  51-[-0  14]  22-[-0  7]  60-[-0  4]  49-[-0  8] -> 0
 26-[3  15]  24-[-0  5]  1-[-0  15]  24-[-0  7]  32-[-0  8]  53-[4  16]  2-[4  11]  11-[1  16]  17-[1  9]  8-[-0  7]  57-[-0  3]  28-[-0  9]  8-[-0  2]  9-[0  15]  36-[-0  6]  46-[4  8]  10-[7  16]  6-[-0  2]  34-[8  15]  58-[5  9]  23-[-0  5]  59-[7  16] -> 0
 1-[-0  9]  13-[1  7]  2-[5  11]  45-[14  16]  35-[-0  5]  30-[2  11]  5-[-0  13]  8-[-0  5]  51-[6  11]  15-[-0  13]  20-[1  15]  47-[-0  16]  36-[-0  12]  63-[-0  15]  51-[3  15]  3-[10  16]  25-[1  14]  2-[6  9]  35-[-0  16]  25-[3  13]  28-[-0  13]  36-[-0  11] -> 0
 35-[-0  16]  30-[5  14]  38-[6  13]  48-[-0  11]  60-[5  16]  43-[-0  7]  43-[-0  1]  36-[-0  2]  52-[5  13]  22-[0  3]  13-[8  16]  50-[15  16]  12-[6  15]  39-[-0  15]  16-[-0  9]  55-[-0  15]  28-[-0  14]  39-[-0  16]  19-[-0  2]  8-[-0  6]  20-[-0  4]  42-[5  15] -> 0
 29-[2  12]  31-[-0  7]  12-[4  16]  34-[6  16]  13-[1  15]  26-[10  16]  24-[-0  13]  30-[1  12]  29-[1  7]  7-[-0  5]  57-[-0  8]  6-[-0  15]  47-[-0  2]  11-[7  16]  24-[-0  2]  35-[-0  10]  6-[-0  6]  11-[5  15]  24-[-0  6]  59-[13  16]  33-[5  9]  17-[1  12] -> 0
 56-[-0  16]  32-[-0  5]  60-[6  16]  8-[-0  1]  20-[5  6]  31-[-0  7]  45-[9  16]  27-[-0  1]  42-[8  15]  25-[2  15]  45-[5  15]  32-[-0  8]  52-[6  14]  6-[-0  6]  57-[-0  3]  42-[10  16]  2-[2  15]  48-[-0  12]  57-[-0  12]  60-[10  16]  20-[3  8]  32-[-0  3] -> 0
 43-[0  3]  18-[7  16]  11-[1  13]  54-[1  10]  15-[-0  1]  30-[2  13]  6-[-0  2]  14-[-0  9]  48-[-0  7]  36-[-0  10]  29-[6  13]  14-[-0  11]  4-[5  7]  21-[9  15]  21-[9  15]  49-[-0  9]  27-[-0  1]  55-[-0  4]  56-[-0  15]  44-[-0  5]  48-[-0  16]  57-[-0  3] -> 0
 41-[-0  5]  35-[-0  1]  27-[-0  9]  27-[-0  2]  8-[-0  8]  41-[-0  3]  13-[10  14]  6-[-0  16]  10-[5  9]  28-[-0  8]  60-[5  16]  7-[-0  12]  33-[5  9]  32-[-0  3]  26-[10  15]  31-[-0  12]  23-[-0  16]  25-[2  16]  13-[1  13]  45-[2  7]  21-[8  14]  12-[3  15] -> 0
 33-[7  10]  37-[6  8]  41-[0  8]  60-[2  15]  32-[-0  8]  9-[-0  4]  32-[-0  7]  35-[-0  10]  32-[-0  14]  31-[-0  7]  28-[-0  2]  4-[7  16]  12-[4  14]  31-[-0  10]  46-[6  12]  36-[-0  4]  60-[4  16]  6-[-0  2]  54-[0  16]  27-[-0  15]  48-[-0  14]  61-[2  16] -> 0
 51-[4  16]  48-[-0  16]  12-[7  12]  28-[-0  7]  45-[2  11]  29-[2  12]  26-[4  15]  17-[2  10]  54-[2  10]  23-[-0  1]  55-[-0  1]  16-[-0  5]  6-[-0  5]  13-[3  15]  20-[-0  1]  29-[2  8]  13-[6  14]  25-[3  12]  9-[-0  12]  60-[12  15]  25-[3  10]  2-[-0  16] -> 0
 34-[8  13]  10-[12  16]  16-[-0  13]  10-[4  16]  53-[4  15]  16-[-0  15]  42-[10  16]  13-[10  14]  63-[-0  11]  19-[4  14]  19-[5  13]  28-[-0  3]  19-[1  15]  22-[1  15]  26-[2  16]  57-[-0  14]  30-[3  12]  63-[-0  15]  11-[7  16]  46-[2  15]  30-[7  15]  60-[3  8] -> 0
 3-[0  16]  63-[-0  9]  44-[6  16]  14-[-0  7]  44-[10  16]  20-[7  16]  32-[-0  6]  10-[-0  6]  51-[4  11]  9-[-0  9]  15-[-0  2]  40-[-0  6]  8-[-0  16]  30-[-0  16]  14-[-0  14]  7-[-0  3]  23-[-0  12]  9-[-0  8]  45-[5  8]  13-[11  16]  6-[0  10]  49-[-0  10] -> 1
 50-[-0  10]  13-[10  16]  38-[-0  6]  1-[-0  10]  51-[-0  15]  44-[14  16]  16-[-0  9]  31-[-0  6]  32-[-0  4]  35-[4  13]  18-[1  16]  6-[2  4]  47-[-0  15]  25-[7  13]  18-[1  13]  41-[-0  5]  4-[1  16]  26-[5  16]  17-[1  16]  26-[3  16]  19-[10  14]  41-[-0  2] -> 1
 33-[-0  10]  49-[-0  14]  59-[4  16]  41-[-0  15]  63-[-0  12]  41-[-0  3]  37-[-0  8]  31-[-0  8]  19-[4  16]  25-[-0  12]  47-[-0  7]  29-[-0  16]  32-[-0  9]  54-[5  16]  61-[8  16]  39-[-0  8]  31-[-0  9]  3-[2  16]  33-[-0  15]  12-[3  7]  56-[-0  3]  17-[-0  10] -> 1
 32-[-0  9]  10-[0  9]  25-[0  5]  5-[6  13]  34-[13  16]  55-[-0  12]  8-[-0  15]  36-[5  16]  45-[3  16]  35-[7  16]  59-[4  9]  36-[8  16]  21-[12  16]  7-[-0  14]  29-[12  16]  43-[4  15]  42-[-0  13]  10-[0  8]  9-[-0  10]  61-[5  13]  6-[1  6]  46-[-0  6] -> 1
 5-[10  14]  4-[12  14]  3-[2  10]  5-[10  16]  44-[2  16]  36-[6  16]  39-[-0  3]  15-[-0  11]  45-[9  16]  34-[14  16]  38-[-0  9]  61-[3  13]  38-[-0  3]  25-[0  9]  63-[-0  16]  37-[11  16]  51-[1  16]  36-[8  16]  62-[1  13]  17-[-0  14]  26-[9  15]  50-[-0  1] -> 1
 46-[-0  11]  62-[6  16]  16-[-0  3]  57-[-0  7]  24-[-0  10]  7-[-0  9]  56-[-0  9]  37-[1  8]  27-[2  16]  63-[8  13]  11-[9  16]  57-[-0  11]  52-[5  16]  40-[-0  6]  59-[5  16]  43-[0  11]  27-[3  16]  61-[8  14]  49-[-0  13]  55-[5  16]  54-[6  14]  22-[-0  2] -> 1
 13-[11  16]  13-[2  16]  41-[-0  8]  3-[0  4]  11-[3  10]  25-[1  10]  12-[5  16]  39-[-0  14]  31-[-0  14]  30-[-0  6]  37-[1  12]  60-[13  16]  34-[5  16]  17-[-0  7]  48-[-0  13]  57-[-0  11]  48-[-0  1]  21-[3  13]  29-[2  15]  56-[-0  5]  17-[-0  10]  49-[-0  2] -> 1
 5-[-0  5]  24-[-0  14]  52-[8  16]  2-[8  10]  37-[-0  7]  9-[-0  8]  27-[4  16]  9-[-0  9]  34-[6  10]  14-[-0  11]  27-[6  16]  20-[7  11]  21-[-0  2]  58-[2  14]  22-[-0  15]  29-[-0  1]  22-[-0  12]  9-[-0  13]  10-[4  15]  33-[-0  4]  27-[11  16]  19-[1  16] -> 1
 45-[2  16]  6-[0  6]  46-[1  6]  57-[-0  1]  2-[-0  14]  58-[-0  4]  23-[-0  5]  17-[-0  16]  39-[-0  8]  47-[-0  14]  30-[1  6]  29-[8  16]  19-[15  16]  21-[6  16]  4-[10  16]  56-[-0  9]  16-[-0  8]  58-[-0  6]  15-[-0  12]  26-[2  16]  1-[-0  6]  52-[6  16] -> 1
 31-[-0  16]  14-[-0  4]  40-[-0  3]  8-[-0  5]  44-[10  16]  12-[9  16]  4-[2  14]  35-[4  16]  29-[3  16]  60-[2  13]  46-[-0  9]  47-[-0  10]  62-[-0  7]  2-[1  10]  20-[10  16]  26-[8  14]  60-[4  11]  18-[6  14]  58-[2  11]  29-[9  16]  13-[6  16]  49-[-0  6] -> 1
 4-[12  14]  55-[-0  8]  48-[-0  7]  39-[-0  9]  52-[2  16]  6-[1  5]  39-[-0  13]  13-[2  16]  23-[-0  4]  59-[3  8]  40-[-0  13]  53-[6  16]  59-[2  15]  41-[-0  10]  5-[7  13]  27-[12  16]  37-[7  16]  34-[11  16]  37-[3  16]  60-[8  16]  33-[4  15]  54-[2  11] -> 1
 30-[-0  8]  16-[-0  8]  39-[-0  1]  2-[1  10]  9-[-0  15]  5-[2  13]  24-[-0  -0]  3-[5  13]  24-[-0  8]  21-[3  15]  9-[-0  4]  2-[1  13]  59-[6  14]  35-[7  16]  57-[-0  3]  12-[8  16]  33-[-0  9]  58-[3  9]  60-[5  14]  12-[4  16]  36-[5  16]  22-[-0  1] -> 1
 21-[-0  10]  29-[-0  11]  36-[5  16]  31-[-0  15]  13-[-0  16]  2-[2  13]  2-[8  11]  16-[-0  6]  49-[-0  10]  1-[-0  15]  53-[3  14]  59-[4  16]  17-[-0  11]  35-[2  16]  32-[-0  16]  56-[-0  2]  10-[4  11]  30-[-0  5]  15-[-0  7]  50-[1  10]  14-[-0  9]  21-[-0  13] -> 1
 27-[5  16]  60-[14  16]  53-[3  11]  23-[-0  8]  40-[-0  4]  18-[-0  12]  17-[-0  7]  56-[-0  7]  28-[10  16]  27-[15  16]  52-[8  16]  24-[-0  2]  51-[4  16]  55-[-0  7]  22-[-0  6]  20-[9  16]  44-[6  16]  21-[5  14]  6-[0  2]  21-[9  15]  56-[-0  11]  24-[-0  12] -> 1
 55-[1  12]  32-[-0  5]  38-[-0  14]  47-[-0  14]  42-[-0  4]  15-[-0  12]  4-[1  13]  27-[3  16]  50-[4  6]  26-[1  14]  54-[7  14]  25-[-0  3]  53-[11  16]  18-[-0  7]  10-[2  10]  62-[6  13]  19-[4  16]  15-[-0  12]  53-[4  16]  5-[-0  11]  15-[-0  10]  18-[-0  14] -> 1
 61-[12  16]  20-[3  16]  38-[-0  13]  4-[5  15]  28-[10  16]  57-[-0  5]  21-[3  16]  36-[8  16]  54-[-0  6]  35-[7  12]  44-[13  16]  26-[1  13]  33-[2  9]  58-[-0  14]  25-[1  10]  18-[-0  8]  3-[-0  4]  33-[1  13]  29-[2  15]  48-[-0  7]  12-[7  16]  15-[-0  12] -> 1
 1-[-0  7]  5-[5  13]  28-[2  16]  13-[11  16]  45-[9  16]  59-[5  9]  13-[14  16]  45-[7  16]  24-[-0  7]  58-[-0  11]  12-[1  16]  54-[1  5]  9-[-0  8]  1-[-0  5]  6-[1  16]  4-[12  14]  7-[-0  12]  39-[-0  1]  59-[1  8]  61-[4  14]  61-[10  14]  37-[14  16] -> 1
 12-[5  9]  12-[3  7]  46-[-0  10]  10-[4  6]  53-[10  16]  43-[0  5]  22-[-0  4]  12-[3  7]  43-[0  7]  8-[-0  8]  30-[-0  1]  10-[3  13]  59-[2  16]  9-[-0  7]  18-[-0  4]  42-[-0  9]  44-[5  16]  14-[-0  11]  35-[2  15]  10-[2  9]  60-[14  16]  20-[9  12] -> 1
 26-[4  16]  34-[7  14]  23-[-0  8]  40-[-0  15]  38-[-0  7]  36-[13  16]  42-[-0  8]  16-[-0  1]  52-[12  16]  34-[1  16]  6-[-0  3]  13-[2  14]  18-[-0  10]  12-[7  16]  40-[-0  14]  37-[4  9]  35-[2  15]  43-[3  9]  62-[3  11]  61-[3  14]  42-[-0  12]  35-[1  7] -> 1
 58-[-0  13]  58-[-0  13]  22-[1  10]  17-[-0  10]  55-[-0  1]  47-[-0  13]  29-[7  16]  62-[1  10]  47-[-0  6]  62-[1  5]  25-[0  3]  5-[5  13]  30-[1  7]  2-[-0  8]  35-[4  16]  56-[-0  2]  59-[1  12]  19-[15  16]  46-[-0  13]  13-[15  16]  38-[-0  15]  35-[15  16] -> 1
 20-[15  16]  54-[-0  13]  9-[-0  8]  37-[1  14]  27-[11  16]  34-[11  16]  36-[8  16]  21-[9  16]  24-[-0  1]  8-[-0  11]  18-[-0  16]  32-[-0  16]  53-[3  11]  42-[3  11]  8-[-0  9]  42-[2  11]  43-[2  12]  5-[8  15]  10-[-0  16]  9-[-0  15]  32-[-0  14]  41-[0  9] -> 1
 39-[-0  6]  27-[1  16]  49-[-0  2]  38-[-0  7]  59-[2  5]  3-[0  6]  36-[1  16]  33-[4  13]  17-[-0  4]  51-[1  8]  1-[-0  7]  28-[14  16]  63-[-0  4]  62-[0  11]  23-[-0  3]  20-[2  16]  57-[-0  14]  42-[-0  12]  42-[-0  1]  52-[4  16]  3-[0  12]  57-[-0  16] -> 1
 23-[-0  11]  59-[5  16]  46-[-0  16]  22-[-0  7]  60-[4  16]  24-[-0  1]  27-[8  16]  36-[8  15]  62-[6  16]  56-[-0  6]  7-[-0  6]  6-[-0  8]  57-[-0  3]  33-[-0  13]  7-[-0  8]  21-[-0  5]  12-[3  15]  63-[12  16]  6-[-0  16]  54-[2  11]  42-[-0  2]  38-[-0  14] -> 1
 58-[-0  12]  3-[-0  14]  53-[6  15]  9-[-0  2]  54-[-0  8]  20-[13  16]  55-[-0  4]  63-[-0  16]  36-[9  16]  56-[-0  12]  19-[4  10]  1-[-0  1]  49-[-0  1]  12-[3  15]  31-[-0  12]  4-[3  11]  25-[2  12]  27-[15  16]  21-[1  15]  19-[6  14]  3-[-0  4]  11-[-0  16] -> 1
 52-[11  16]  10-[-0  15]  35-[4  14]  50-[-0  14]  11-[4  13]  1-[-0  8]  48-[-0  5]  3-[0  2]  9-[-0  2]  36-[5  16]  2-[-0  6]  50-[-0  4]  25-[1  5]  7-[-0  5]  54-[-0  4]  32-[-0  12]  38-[-0  6]  34-[1  14]  11-[3  13]  29-[9  16]  62-[0  11]  54-[-0  7] -> 1
 48-[-0  10]  21-[7  15]  14-[-0  9]  63-[-0  3]  19-[6  16]  60-[6  16]  4-[13  16]  55-[-0  7]  10-[-0  5]  20-[5  16]  60-[5  14]  16-[-0  3]  37-[3  14]  4-[12  16]  39-[-0  8]  4-[3  16]  48-[-0  16]  31-[-0  10]  52-[2  16]  42-[-0  7]  40-[-0  9]  18-[4  14] -> 1
 12-[2  16]  49-[-0  5]  13-[9  16]  10-[0  11]  55-[-0  11]  31-[-0  10]  23-[-0  13]  43-[6  13]  37-[10  16]  47-[-0  2]  11-[5  16]  40-[-0  4]  19-[1  16]  7-[-0  14]  53-[12  16]  46-[-0  16]  33-[3  8]  27-[6  16]  38-[-0  2]  11-[6  16]  6-[1  11]  34-[7  16] -> 1
 17-[-0  10]  42-[-0  9]  6-[-0  1]  63-[1  8]  19-[2  15]  50-[4  13]  55-[0  7]  50-[4  8]  24-[-0  2]  2-[7  14]  16-[-0  10]  21-[6  11]  25-[-0  1]  22-[-0  2]  36-[13  16]  3-[6  16]  21-[4  10]  6-[-0  10]  8-[-0  8]  13-[1  7]  12-[9  16]  49-[-0  6] -> 2
 2-[3  11]  37-[3  11]  3-[9  16]  37-[1  14]  22-[-0  4]  56-[-0  15]  23-[-0  2]  4-[4  16]  14-[-0  16]  38-[-0  10]  22-[-0  10]  8-[-0  2]  58-[7  13]  39-[-0  3]  34-[-0  14]  61-[1  10]  43-[1  15]  15-[-0  4]  38-[-0  8]  55-[0  15]  50-[2  9]  48-[-0  5] -> 2
 25-[0  15]  24-[-0  11]  31-[-0  3]  18-[13  16]  23-[-0  10]  62-[15  16]  20-[9  15]  58-[6  16]  9-[2  10]  6-[-0  5]  20-[8  16]  35-[-0  8]  27-[4  16]  24-[-0  11]  45-[4  13]  29-[5  15]  63-[3  9]  9-[1  11]  21-[3  16]  35-[-0  11]  48-[-0  3]  7-[-0  11] -> 2
 30-[-0  7]  40-[-0  9]  58-[8  13]  11-[11  15]  43-[3  13]  14-[-0  3]  27-[-0  16]  55-[1  13]  54-[2  12]  25-[1  13]  12-[6  16]  25-[1  12]  40-[-0  15]  9-[1  12]  48-[-0  1]  1-[-0  3]  41-[-0  11]  3-[9  16]  24-[-0  3]  45-[1  6]  55-[1  11]  30-[-0  5] -> 2
 51-[3  16]  56-[-0  10]  59-[9  14]  5-[-0  7]  13-[-0  14]  16-[-0  8]  34-[-0  1]  2-[1  13]  19-[1  3]  27-[-0  16]  20-[8  13]  32-[-0  5]  27-[-0  13]  21-[-0  9]  54-[1  13]  42-[0  4]  29-[-0  10]  31-[-0  15]  34-[-0  1]  35-[-0  12]  37-[-0  3]  63-[-0  13] -> 2
 20-[6  16]  18-[3  14]  38-[-0  10]  23-[-0  13]  7-[-0  15]  59-[5  16]  57-[1  15]  6-[-0  6]  4-[1  7]  6-[-0  13]  6-[-0  3]  38-[-0  13]  33-[-0  5]  56-[-0  10]  18-[1  16]  26-[0  10]  18-[5  13]  30-[-0  1]  18-[3  13]  30-[-0  4]  41-[-0  2]  29-[-0  2] -> 2
 14-[-0  6]  59-[8  14]  39-[-0  13]  60-[7  13]  36-[4  15]  38-[-0  16]  1-[-0  6]  47-[-0  12]  43-[4  16]  58-[1  7]  53-[5  16]  31-[-0  3]  54-[2  11]  8-[-0  7]  28-[9  16]  4-[1  8]  14-[-0  13]  58-[1  12]  55-[-0  11]  6-[-0  16]  24-[-0  15]  40-[-0  5] -> 2
 22-[-0  1]  44-[12  16]  43-[1  8]  55-[2  15]  11-[11  14]  52-[2  16]  44-[13  16]  23-[-0  9]  26-[4  12]  2-[9  16]  60-[7  16]  18-[6  16]  7-[-0  4]  28-[6  15]  13-[0  14]  58-[5  13]  8-[-0  2]  9-[1  12]  61-[4  16]  61-[1  16]  32-[-0  10]  5-[-0  12] -> 2
 40-[-0  2]  39-[-0  2]  1-[-0  6]  37-[2  8]  33-[-0  11]  6-[-0  5]  27-[-0  1]  21-[7  13]  20-[11  14]  5-[-0  -0]  48-[-0  2]  40-[-0  14]  19-[1  15]  37-[2  7]  56-[-0  10]  17-[-0  15]  3-[4  16]  38-[-0  13]  26-[-0  13]  36-[13  16]  8-[-0  12]  57-[-0  9] -> 2
 35-[2  13]  10-[3  16]  63-[-0  3]  31-[-0  7]  46-[-0  14]  40-[-0  4]  37-[0  13]  3-[3  16]  21-[1  6]  61-[10  15]  8-[-0  15]  47-[-0  3]  4-[3  10]  15-[-0  10]  38-[-0  9]  62-[2  8]  38-[-0  1]  16-[-0  12]  26-[-0  8]  37-[0  11]  1-[-0  11]  12-[8  15] -> 2
 34-[-0  1]  53-[6  16]  5-[-0  15]  48-[-0  14]  53-[10  15]  4-[9  12]  15-[-0  16]  13-[1  9]  59-[9  16]  57-[2  10]  25-[-0  6]  12-[9  16]  9-[3  16]  41-[-0  6]  35-[7  10]  30-[-0  3]  7-[-0  15]  61-[8  16]  54-[1  10]  39-[-0  13]  58-[10  16]  3-[2  16] -> 2
 11-[4  11]  26-[-0  6]  17-[1  10]  20-[2  16]  27-[-0  9]  44-[8  15]  49-[0  12]  28-[13  16]  15-[-0  11]  42-[3  11]  39-[-0  4]  28-[14  15]  26-[-0  2]  7-[-0  8]  59-[10  16]  54-[8  11]  42-[2  16]  14-[-0  8]  32-[-0  5]  37-[0  10]  40-[-0  8]  59-[3  16] -> 2
 5-[-0  4]  10-[2  16]  17-[1  12]  58-[2  16]  24-[-0  3]  59-[1  16]  62-[3  16]  63-[1  5]  43-[1  16]  27-[-0  1]  54-[4  10]  55-[0  8]  45-[-0  4]  14-[-0  10]  46-[-0  16]  38-[-0  7]  32-[-0  5]  61-[12  15]  2-[4  14]  38-[-0  1]  34-[-0  7]  46-[-0  5] -> 2
 18-[8  12]  28-[3  5]  15-[-0  6]  47-[-0  16]  38-[-0  11]  56-[-0  14]  52-[5  16]  4-[4  10]  52-[14  16]  44-[11  16]  7-[-0  14]  20-[1  4]  4-[5  13]  16-[-0  12]  15-[-0  15]  62-[1  13]  25-[-0  6]  18-[8  12]  43-[6  13]  47-[-0  16]  10-[5  16]  32-[-0  9] -> 2
 62-[7  14]  10-[3  16]  40-[-0  14]  40-[-0  15]  47-[-0  11]  21-[11  16]  56-[-0  1]  58-[10  16]  62-[7  11]  9-[1  6]  62-[2  16]  43-[4  13]  61-[4  9]  10-[15  16]  42-[-0  10]  34-[-0  2]  57-[-0  11]  14-[-0  15]  49-[-0  12]  23-[-0  2]  37-[2  15]  21-[12  16] -> 2
 16-[-0  2]  18-[13  16]  4-[5  11]  41-[-0  3]  16-[-0  2]  4-[3  13]  60-[3  16]  40-[-0  14]  13-[2  10]  57-[-0  11]  60-[11  16]  50-[1  16]  28-[8  13]  61-[14  16]  44-[11  16]  59-[13  16]  28-[8  12]  5-[0  11]  60-[11  16]  24-[-0  15]  51-[12  16]  20-[1  16] -> 2
 1-[-0  5]  34-[-0  2]  55-[-0  16]  45-[-0  4]  21-[3  15]  44-[3  12]  30-[-0  4]  62-[2  14]  2-[9  13]  5-[-0  5]  19-[-0  10]  10-[2  16]  32-[-0  15]  33-[-0  9]  27-[-0  11]  31-[-0  3]  19-[-0  6]  3-[1  16]  38-[-0  13]  35-[5  16]  55-[-0  15]  51-[6  16] -> 2
 62-[12  16]  57-[-0  3]  16-[-0  10]  50-[1  14]  61-[5  16]  43-[3  6]  29-[3  14]  11-[8  16]  57-[-0  1]  25-[1  3]  19-[1  3]  18-[6  16]  35-[-0  9]  9-[1  11]  33-[-0  4]  17-[1  8]  5-[-0  2]  4-[5  16]  56-[-0  15]  23-[-0  1]  1-[-0  10]  52-[12  16] -> 2
 25-[1  16]  12-[1  16]  3-[13  16]  32-[-0  7]  13-[0  6]  47-[-0  2]  20-[14  16]  35-[-0  5]  44-[12  16]  18-[13  16]  2-[6  13]  40-[-0  14]  3-[12  16]  23-[-0  4]  2-[3  13]  56-[-0  8]  31-[-0  12]  20-[11  16]  38-[-0  11]  36-[6  16]  39-[-0  9]  29-[3  8] -> 2
 51-[5  16]  7-[-0  12]  31-[-0  5]  23-[-0  11]  54-[6  11]  32-[-0  12]  26-[-0  12]  61-[1  16]  21-[1  16]  12-[3  13]  39-[-0  1]  45-[0  7]  33-[-0  3]  62-[3  13]  24-[-0  1]  25-[-0  12]  16-[-0  11]  35-[0  14]  30-[-0  5]  25-[-0  15]  30-[-0  16]  5-[-0  16] -> 2
 43-[2  6]  28-[9  16]  48-[-0  16]  7-[-0  1]  7-[-0  8]  10-[12  16]  42-[-0  12]  5-[-0  7]  39-[-0  15]  31-[-0  9]  21-[5  15]  49-[-0  10]  17-[5  9]  59-[9  16]  37-[2  11]  22-[-0  14]  41-[-0  13]  52-[7  16]  37-[2  9]  59-[14  16]  38-[-0  16]  3-[1  16] -> 2
 59-[8  16]  30-[-0  5]  21-[3  14]  55-[-0  9]  63-[-0  14]  1-[-0  7]  7-[-0  6]  49-[4  11]  29-[1  12]  14-[-0  3]  54-[1  10]  44-[4  13]  19-[-0  8]  53-[2  16]  33-[-0  6]  14-[-0  12]  21-[2  10]  10-[13  16]  56-[-0  13]  59-[8  16]  63-[-0  3]  63-[-0  2] -> 2
 18-[8  14]  25-[1  9]  57-[-0  10]  40-[-0  9]  11-[5  11]  8-[-0  11]  56-[-0  8]  17-[3  12]  52-[7  15]  47-[-0  10]  35-[-0  13]  63-[2  14]  17-[3  16]  20-[1  11]  4-[8  13]  28-[3  11]  37-[1  12]  32-[-0  9]  21-[5  15]  43-[3  10]  30-[-0  1]  44-[12  16] -> 2
 61-[7  16]  8-[-0  5]  48-[-0  6]  12-[12  15]  42-[-0  5]  9-[1  14]  34-[-0  14]  26-[5  14]  57-[-0  1]  11-[3  15]  1-[-0  4]  11-[13  16]  58-[9  15]  37-[4  14]  62-[9  16]  33-[-0  5]  26-[9  15]  23-[-0  10]  28-[5  16]  15-[-0  10]  43-[1  5]  28-[3  16] -> 2
 7-[-0  9]  35-[5  14]  15-[-0  10]  43-[10  16]  18-[9  16]  32-[-0  12]  57-[-0  2]  56-[-0  5]  60-[9  16]  32-[-0  12]  2-[11  16]  22-[-0  7]  61-[5  16]  37-[0  6]  26-[4  16]  34-[-0  11]  33-[-0  3]  2-[8  16]  58-[5  16]  48-[-0  7]  24-[-0  9]  47-[-0  15] -> 2
 18-[7  15]  23-[-0  2]  9-[-0  2]  29-[-0  9]  9-[-0  15]  36-[11  16]  33-[-0  12]  33-[-0  5]  49-[-0  15]  63-[-0  10]  9-[-0  8]  29-[-0  15]  43-[2  9]  60-[4  13]  16-[-0  4]  58-[1  12]  32-[-0  8]  39-[-0  5]  6-[-0  14]  30-[-0  1]  6-[-0  11]  62-[4  15] -> 2
 28-[2  15]  30-[-0  16]  50-[2  16]  63-[-0  14]  49-[-0  11]  63-[-0  13]  17-[5  15]  8-[-0  2]  20-[3  15]  26-[0  14]  26-[0  1]  30-[-0  10]  61-[2  9]  21-[1  10]  41-[-0  15]  44-[10  14]  23-[-0  8]  31-[-0  8]  36-[8  16]  42-[-0  14]  50-[2  16]  39-[-0  9] -> 2
 43-[-0  10]  42-[0  10]  31-[-0  8]  49-[6  9]  63-[-0  14]  27-[13  16]  7-[-0  16]  10-[5  16]  21-[-0  1]  48-[-0  3]  50-[13  16]  50-[9  16]  52-[3  12]  48-[-0  8]  35-[1  7]  17-[-0  4]  51-[4  8]  63-[-0  3]  57-[-0  15]  2-[4  11]  37-[5  16]  63-[-0  1] -> 3
 7-[-0  1]  39-[-0  1]  45-[13  16]  40-[-0  12]  39-[-0  3]  22-[-0  11]  29-[2  12]  7-[-0  4]  29-[2  10]  63-[-0  2]  19-[-0  13]  62-[0  3]  37-[4  16]  17-[1  15]  60-[2  12]  36-[10  16]  17-[1  15]  4-[8  16]  44-[3  14]  56-[-0  14]  22-[-0  8]  14-[-0  7] -> 3
 41-[-0  7]  9-[1  15]  34-[2  16]  54-[6  16]  25-[-0  3]  27-[4  5]  41-[-0  2]  31-[-0  13]  60-[8  13]  3-[1  12]  43-[3  11]  31-[-0  9]  36-[12  16]  31-[-0  7]  23-[-0  8]  57-[-0  14]  27-[4  10]  25-[-0  9]  53-[3  14]  60-[11  13]  48-[-0  7]  46-[4  9] -> 3
 55-[-0  10]  43-[0  11]  20-[11  16]  15-[-0  8]  34-[1  7]  9-[1  13]  62-[-0  11]  11-[1  13]  22-[-0  3]  16-[-0  13]  48-[-0  16]  1-[-0  9]  5-[1  15]  4-[2  16]  56-[-0  2]  49-[-0  14]  8-[-0  9]  61-[2  6]  18-[4  14]  6-[-0  8]  24-[-0  2]  29-[3  15] -> 3
 3-[8  16]  63-[-0  16]  37-[8  16]  9-[1  15]  60-[8  15]  56-[-0  10]  54-[1  14]  63-[-0  8]  47-[-0  2]  62-[-0  4]  56-[-0  5]  59-[6  15]  7-[-0  13]  55-[-0  13]  14-[-0  13]  2-[1  14]  50-[12  16]  37-[12  15]  59-[10  16]  56-[-0  2]  56-[-0  13]  35-[4  16] -> 3
 36-[5  14]  12-[2  9]  13-[10  16]  26-[0  15]  7-[-0  16]  60-[8  15]  4-[14  16]  48-[-0  2]  28-[13  16]  16-[-0  2]  41-[-0  11]  58-[3  7]  59-[13  16]  51-[1  15]  63-[-0  15]  59-[8  16]  58-[1  10]  25-[-0  11]  24-[-0  4]  9-[4  13]  15-[-0  9]  48-[-0  13] -> 3
 47-[-0  2]  62-[-0  16]  35-[1  7]  8-[-0  4]  52-[10  16]  59-[9  15]  51-[5  9]  49-[-0  9]  42-[-0  12]  24-[-0  1]  5-[10  16]  60-[1  10]  29-[9  15]  54-[0  7]  52-[3  15]  32-[-0  1]  10-[4  16]  60-[3  15]  37-[13  15]  32-[-0  10]  24-[-0  3]  34-[-0  6] -> 3
 58-[2  6]  55-[-0  6]  4-[9  16]  9-[1  12]  11-[3  15]  48-[-0  10]  47-[-0  1]  34-[1  3]  13-[14  16]  8-[-0  9]  8-[-0  1]  29-[3  6]  30-[-0  14]  61-[4  14]  8-[-0  -0]  47-[-0  3]  56-[-0  3]  33-[-0  1]  26-[-0  13]  20-[7  14]  18-[1  12]  43-[1  10] -> 3
 54-[0  8]  59-[7  14]  39-[-0  12]  12-[1  9]  28-[5  16]  47-[-0  13]  55-[-0  6]  61-[0  16]  18-[-0  14]  8-[-0  9]  52-[7  16]  43-[-0  12]  29-[7  16]  16-[-0  3]  24-[-0  15]  22-[-0  14]  25-[-0  12]  52-[3  16]  1-[0  15]  53-[2  15]  57-[-0  13]  53-[10  16] -> 3
 6-[-0  15]  21-[-0  13]  8-[-0  10]  5-[1  9]  21-[-0  16]  32-[-0  15]  56-[-0  4]  1-[-0  9]  19-[9  16]  34-[4  9]  9-[-0  4]  59-[4  12]  14-[-0  9]  20-[10  16]  49-[4  13]  58-[3  14]  1-[-0  13]  31-[-0  10]  31-[-0  10]  3-[5  16]  53-[5  16]  51-[4  14] -> 3
 41-[-0  3]  32-[-0  6]  50-[1  15]  43-[-0  8]  57-[-0  10]  24-[-0  13]  63-[-0  4]  46-[5  10]  55-[-0  3]  8-[-0  7]  34-[-0  6]  46-[1  8]  62-[-0  12]  45-[9  15]  26-[-0  14]  10-[6  15]  30-[0  9]  2-[4  14]  16-[-0  12]  39-[-0  13]  57-[-0  14]  8-[-0  5] -> 3
 32-[-0  8]  15-[-0  12]  51-[4  8]  19-[-0  1]  53-[4  9]  19-[-0  9]  23-[-0  2]  45-[5  16]  54-[-0  1]  28-[11  16]  57-[-0  16]  22-[-0  14]  14-[2  6]  37-[15  16]  35-[4  13]  46-[1  16]  45-[14  16]  24-[-0  10]  51-[3  9]  37-[8  16]  19-[-0  3]  26-[-0  8] -> 3
 44-[-0  14]  32-[-0  7]  46-[4  13]  23-[-0  2]  59-[4  16]  2-[2  10]  49-[-0  15]  55-[-0  9]  55-[-0  10]  10-[10  15]  2-[1  16]  54-[7  13]  61-[6  16]  60-[12  16]  50-[0  2]  12-[1  10]  48-[-0  2]  34-[2  16]  45-[7  16]  19-[-0  14]  24-[-0  5]  47-[-0  7] -> 3
 35-[5  12]  36-[5  15]  3-[3  15]  42-[-0  15]  3-[7  16]  43-[-0  13]  58-[10  16]  58-[11  16]  20-[10  14]  14-[1  12]  18-[0  8]  34-[-0  9]  20-[5  14]  2-[1  10]  49-[-0  5]  56-[-0  6]  35-[5  12]  20-[10  13]  21-[3  13]  47-[-0  13]  43-[-0  9]  34-[-0  6] -> 3
 12-[4  14]  32-[-0  6]  56-[-0  4]  16-[-0  15]  50-[4  16]  49-[-0  15]  56-[-0  16]  18-[1  3]  63-[-0  8]  20-[3  13]  52-[5  10]  27-[4  16]  40-[-0  4]  12-[3  12]  4-[1  12]  45-[3  16]  21-[12  15]  56-[-0  4]  31-[-0  10]  23-[-0  4]  28-[9  15]  10-[9  16] -> 3
 3-[5  15]  52-[1  16]  8-[-0  11]  61-[1  6]  11-[4  11]  63-[-0  13]  13-[5  15]  49-[-0  7]  56-[-0  5]  57-[-0  6]  46-[6  12]  14-[-0  9]  44-[-0  2]  27-[9  16]  32-[-0  1]  28-[14  16]  22-[-0  3]  9-[1  12]  11-[7  15]  12-[1  14]  41-[-0  9]  7-[-0  16] -> 3
 31-[-0  13]  55-[-0  14]  56-[-0  4]  25-[-0  3]  31-[-0  6]  29-[4  12]  21-[1  16]  52-[2  15]  46-[1  7]  18-[-0  9]  12-[7  10]  62-[-0  1]  26-[-0  11]  9-[-0  14]  63-[-0  16]  61-[-0  6]  21-[12  16]  62-[-0  9]  3-[10  16]  49-[-0  3]  59-[5  16]  6-[-0  4] -> 3
 21-[3  11]  37-[4  15]  40-[-0  1]  58-[4  10]  29-[2  14]  16-[-0  14]  12-[2  13]  3-[7  14]  21-[3  12]  3-[8  13]  33-[-0  13]  26-[-0  5]  33-[-0  4]  17-[-0  10]  9-[4  10]  40-[-0  9]  52-[7  15]  48-[-0  1]  22-[-0  14]  29-[3  14]  22-[-0  15]  36-[4  15] -> 3
 57-[-0  8]  50-[1  16]  16-[-0  8]  60-[3  15]  21-[7  13]  34-[1  12]  27-[10  16]  18-[-0  16]  29-[2  8]  9-[-0  6]  62-[-0  7]  21-[10  15]  59-[6  16]  45-[4  16]  31-[-0  4]  38-[3  11]  34-[1  3]  33-[-0  11]  32-[-0  6]  16-[-0  9]  43-[-0  16]  2-[7  12] -> 3
 22-[-0  3]  3-[11  14]  9-[3  12]  40-[-0  11]  15-[-0  7]  30-[0  4]  55-[-0  14]  21-[7  16]  63-[-0  14]  15-[-0  8]  34-[2  13]  8-[-0  10]  47-[-0  13]  7-[-0  1]  49-[-0  5]  47-[-0  3]  52-[6  15]  28-[4  16]  50-[3  4]  28-[4  16]  6-[-0  7]  47-[-0  8] -> 3
 54-[0  5]  37-[11  16]  14-[5  8]  20-[5  12]  22-[-0  11]  14-[3  13]  16-[-0  12]  47-[-0  14]  62-[-0  13]  17-[-0  10]  1-[-0  12]  23-[-0  5]  26-[2  16]  32-[-0  4]  7-[-0  7]  5-[4  14]  29-[2  6]  63-[-0  -0]  9-[-0  4]  57-[-0  3]  41-[-0  13]  20-[6  16] -> 3
 34-[3  15]  34-[5  15]  33-[-0  11]  18-[-0  15]  4-[6  15]  37-[2  16]  35-[1  6]  15-[-0  12]  21-[-0  9]  16-[-0  16]  6-[-0  9]  16-[-0  3]  11-[2  10]  55-[-0  10]  1-[-0  16]  59-[2  13]  10-[10  16]  9-[-0  14]  26-[3  15]  63-[-0  10]  43-[-0  13]  5-[2  13] -> 3
 9-[5  13]  19-[0  15]  39-[-0  5]  21-[6  14]  1-[1  9]  26-[-0  5]  36-[13  16]  47-[-0  5]  30-[-0  6]  38-[1  10]  30-[-0  13]  2-[1  15]  46-[5  15]  45-[7  16]  51-[3  10]  4-[5  16]  49-[-0  16]  48-[-0  2]  60-[1  8]  47-[-0  5]  15-[-0  10]  57-[1  16] -> 3
 23-[-0  2]  4-[9  16]  56-[-0  6]  20-[2  15]  23-[-0  11]  56-[-0  12]  26-[4  12]  9-[-0  15]  13-[4  14]  19-[0  3]  55-[-0  11]  45-[6  16]  32-[-0  12]  10-[8  13]  48-[-0  16]  37-[9  16]  51-[7  9]  22-[-0  10]  41-[-0  11]  36-[1  13]  59-[8  16]  45-[8  16] -> 3
 31-[-0  5]  57-[-0  5]  41-[-0  6]  40-[-0  14]  42-[4  13]  33-[0  16]  6-[-0  11]  26-[0  9]  5-[1  11]  24-[-0  14]  30-[-0  8]  54-[8  13]  60-[3  13]  10-[15  16]  39-[-0  2]  61-[2  16]  13-[8  15]  5-[5  7]  31-[-0  9]  33-[0  3]  25-[-0  16]  19-[-0  11] -> 3
 16-[-0  6]  13-[4  9]  43-[-0  7]  32-[-0  15]  6-[-0  9]  16-[-0  15]  26-[7  15]  27-[7  16]  32-[-0  15]  56-[-0  12]  10-[15  16]  61-[5  12]  11-[1  12]  60-[4  14]  42-[0  3]  57-[-0  11]  1-[-0  7]  62-[-0  13]  55-[-0  9]  24-[-0  10]  52-[3  14]  40-[-0  7] -> 3
 63-[-0  2]  30-[0  4]  47-[-0  2]  3-[10  14]  8-[-0  7]  7-[-0  10]  20-[2  13]  58-[2  9]  5-[1  13]  24-[-0  1]  9-[4  16]  42-[-0  3]  24-[-0  13]  45-[9  12]  41-[-0  16]  61-[0  12]  37-[2  16]  3-[10  16]  58-[3  8]  29-[3  15]  32-[-0  1]  9-[3  7] -> 3
 37-[7  16]  54-[-0  1]  55-[-0  2]  14-[3  15]  40-[-0  12]  49-[-0  14]  46-[-0  16]  30-[1  14]  60-[9  16]  10-[1  16]  31-[-0  16]  31-[-0  16]  39-[-0  5]  61-[1  5]  17-[2  11]  60-[13  16]  43-[-0  11]  61-[1  3]  46-[-0  10]  16-[-0  11]  32-[-0  12]  24-[-0  2] -> 4
 50-[-0  13]  1-[-0  6]  1-[-0  6]  2-[-0  8]  5-[5  16]  26-[5  15]  27-[5  10]  30-[1  14]  8-[-0  13]  53-[-0  4]  2-[-0  8]  13-[1  16]  17-[-0  5]  12-[9  15]  51-[3  16]  42-[-0  4]  50-[-0  6]  52-[7  16]  17-[-0  7]  11-[1  14]  21-[15  16]  16-[-0  9] -> 4
 12-[1  12]  44-[6  16]  55-[-0  2]  41-[1  15]  32-[-0  5]  43-[12  14]  18-[9  14]  13-[1  14]  25-[1  12]  63-[-0  13]  18-[10  13]  42-[6  14]  27-[0  5]  35-[3  14]  5-[-0  4]  19-[6  15]  19-[8  14]  12-[5  10]  46-[1  9]  59-[1  15]  12-[4  11]  62-[-0  12] -> 4
 54-[-0  11]  54-[-0  10]  12-[6  14]  29-[8  16]  14-[2  16]  27-[6  16]  35-[2  14]  33-[1  5]  63-[-0  7]  1-[-0  5]  10-[2  5]  38-[1  12]  6-[-0  8]  23-[-0  16]  36-[11  16]  8-[-0  1]  27-[3  14]  55-[-0  15]  25-[2  15]  27-[5  16]  41-[-0  15]  4-[11  16] -> 4
 37-[10  16]  52-[8  15]  46-[-0  15]  34-[7  16]  9-[-0  3]  15-[-0  9]  28-[6  14]  50-[-0  12]  59-[-0  7]  52-[3  14]  16-[-0  10]  59-[-0  7]  32-[-0  1]  7-[-0  10]  52-[5  16]  63-[-0  1]  36-[5  13]  38-[2  6]  10-[-0  9]  33-[1  5]  8-[-0  12]  3-[-0  15] -> 4
 27-[3  16]  33-[-0  14]  28-[6  16]  24-[-0  2]  63-[-0  6]  42-[-0  4]  9-[-0  8]  57-[-0  10]  38-[3  11]  44-[3  16]  41-[-0  10]  51-[-0  6]  56-[-0  4]  8-[-0  2]  13-[6  16]  39-[-0  8]  24-[-0  8]  44-[3  10]  52-[4  12]  4-[2  15]  7-[1  3]  16-[-0  12] -> 4
 12-[5  11]  38-[1  3]  26-[11  16]  25-[3  13]  29-[7  16]  28-[9  14]  22-[13  16]  16-[-0  15]  38-[1  6]  5-[5  16]  35-[3  16]  60-[8  15]  27-[5  12]  57-[-0  12]  6-[-0  9]  27-[9  16]  18-[7  16]  34-[4  15]  44-[3  13]  31-[-0  14]  15-[-0  4]  55-[-0  1] -> 4
 49-[-0  8]  48-[-0  5]  9-[-0  6]  36-[15  16]  7-[-0  9]  50-[-0  5]  45-[3  15]  40-[-0  3]  59-[-0  4]  52-[7  16]  6-[3  8]  47-[-0  11]  26-[11  16]  15-[-0  8]  24-[-0  10]  3-[1  16]  21-[11  16]  61-[2  4]  3-[1  4]  19-[5  16]  9-[-0  4]  3-[1  13] -> 4
 27-[1  10]  10-[-0  14]  21-[3  15]  7-[-0  5]  4-[4  16]  48-[-0  8]  48-[-0  9]  15-[-0  16]  4-[10  11]  39-[-0  8]  41-[1  15]  23-[-0  16]  42-[10  14]  43-[7  14]  18-[1  3]  18-[1  6]  2-[-0  12]  5-[1  4]  62-[-0  5]  15-[-0  6]  32-[-0  2]  58-[-0  4] -> 4
 33-[-0  9]  62-[-0  12]  18-[7  16]  40-[-0  10]  33-[-0  5]  29-[7  16]  56-[-0  10]  56-[-0  1]  13-[1  16]  26-[3  16]  54-[-0  2]  12-[9  15]  32-[-0  13]  38-[2  14]  40-[-0  13]  33-[-0  5]  48-[-0  6]  12-[6  16]  54-[-0  15]  28-[9  16]  44-[2  8]  34-[2  9] -> 4
 32-[-0  2]  13-[4  15]  63-[-0  12]  8-[-0  9]  30-[2  9]  36-[7  14]  8-[-0  6]  38-[3  7]  12-[10  16]  55-[-0  13]  34-[7  10]  51-[-0  15]  42-[-0  1]  49-[-0  9]  6-[1  11]  24-[-0  15]  47-[-0  1]  7-[-0  16]  2-[-0  13]  50-[-0  10]  2-[-0  14]  24-[-0  2] -> 4
 11-[5  16]  59-[3  7]  46-[2  13]  46-[2  14]  45-[2  16]  14-[-0  9]  40-[-0  1]  2-[-0  7]  43-[15  16]  62-[-0  15]  47-[-0  14]  9-[-0  5]  17-[-0  11]  18-[6  15]  30-[7  13]  51-[1  5]  8-[-0  1]  57-[-0  8]  41-[5  14]  26-[1  16]  61-[3  13]  10-[-0  5] -> 4
 2-[-0  6]  5-[-0  7]  22-[3  14]  47-[-0  3]  46-[1  16]  9-[-0  16]  37-[8  16]  3-[1  9]  1-[-0  9]  13-[1  12]  9-[-0  6]  54-[-0  12]  1-[-0  10]  16-[-0  14]  51-[0  15]  6-[-0  6]  20-[-0  16]  31-[-0  4]  45-[6  15]  49-[-0  12]  55-[-0  6]  10-[-0  8] -> 4
 28-[-0  6]  31-[-0  4]  38-[7  11]  3-[1  6]  10-[-0  14]  47-[-0  9]  36-[6  15]  27-[3  11]  18-[1  11]  51-[1  4]  42-[9  16]  17-[-0  2]  15-[-0  8]  30-[6  16]  37-[5  16]  23-[-0  4]  21-[1  3]  26-[14  16]  46-[1  13]  54-[-0  4]  15-[-0  16]  55-[-0  10] -> 4
 24-[-0  7]  56-[-0  15]  21-[2  14]  55-[-0  1]  22-[4  9]  4-[3  15]  44-[2  15]  25-[0  6]  15-[-0  10]  57-[-0  3]  13-[-0  1]  4-[5  14]  20-[1  13]  8-[-0  11]  1-[-0  15]  61-[3  7]  45-[9  16]  1-[-0  3]  20-[2  13]  14-[-0  9]  47-[-0  14]  21-[3  6] -> 4
 1-[-0  6]  23-[-0  8]  4-[2  15]  29-[4  16]  7-[-0  2]  39-[-0  10]  45-[1  12]  46-[-0  11]  21-[7  15]  25-[8  15]  63-[-0  14]  63-[-0  9]  44-[10  16]  42-[-0  4]  55-[-0  2]  41-[-0  3]  49-[-0  9]  21-[14  15]  24-[-0  5]  9-[-0  11]  28-[7  16]  57-[-0  8] -> 4
 38-[3  15]  2-[-0  8]  41-[0  6]  5-[10  16]  39-[-0  9]  13-[10  16]  51-[-0  16]  21-[11  16]  3-[0  5]  8-[-0  7]  37-[2  16]  10-[0  12]  16-[-0  4]  26-[3  16]  26-[13  16]  61-[5  10]  34-[7  16]  50-[-0  9]  57-[-0  2]  56-[-0  3]  28-[4  16]  13-[8  16] -> 4
 60-[10  15]  45-[3  12]  53-[-0  7]  43-[-0  16]  30-[5  14]  18-[7  16]  54-[-0  7]  58-[-0  14]  50-[-0  1]  60-[1  15]  37-[2  15]  7-[-0  4]  33-[0  12]  57-[-0  8]  58-[-0  15]  1-[-0  13]  14-[3  11]  13-[3  14]  21-[4  16]  42-[-0  13]  26-[14  16]  22-[5  13] -> 4
 23-[-0  4]  43-[7  16]  55-[-0  3]  13-[-0  5]  17-[-0  14]  46-[1  14]  6-[-0  9]  39-[-0  3]  50-[-0  5]  47-[-0  7]  63-[-0  14]  12-[6  16]  33-[1  10]  55-[-0  10]  14-[-0  2]  37-[8  16]  26-[10  14]  17-[-0  1]  62-[-0  11]  44-[5  16]  45-[5  16]  48-[-0  6] -> 4
 14-[-0  13]  60-[15  16]  8-[-0  9]  12-[9  15]  37-[7  16]  63-[-0  16]  39-[-0  5]  28-[0  7]  13-[1  9]  40-[-0  16]  20-[4  8]  55-[-0  8]  2-[-0  11]  45-[13  16]  42-[12  16]  47-[-0  13]  20-[3  11]  27-[1  14]  1-[-0  8]  47-[-0  15]  47-[-0  11]  35-[5  14] -> 4
 43-[-0  6]  7-[1  8]  42-[-0  14]  14-[13  16]  11-[12  16]  33-[-0  5]  48-[-0  16]  47-[-0  6]  46-[1  14]  32-[-0  6]  41-[-0  15]  31-[-0  3]  42-[-0  7]  37-[7  16]  7-[1  6]  20-[2  12]  41-[-0  11]  34-[2  8]  37-[7  16]  34-[2  6]  10-[1  6]  54-[-0  15] -> 4
 40-[-0  16]  6-[-0  1]  10-[-0  5]  35-[6  16]  2-[-0  3]  34-[6  16]  38-[3  15]  15-[-0  2]  36-[2  13]  21-[1  16]  43-[5  16]  13-[-0  14]  38-[4  10]  60-[10  16]  27-[3  13]  56-[-0  9]  62-[-0  10]  23-[-0  9]  31-[-0  8]  8-[-0  8]  12-[7  14]  36-[11  13] -> 4
 36-[3  13]  21-[3  10]  49-[-0  3]  50-[-0  8]  7-[-0  2]  62-[-0  7]  27-[4  14]  33-[7  12]  27-[2  16]  3-[-0  7]  11-[6  9]  60-[1  16]  13-[-0  3]  45-[4  14]  5-[1  3]  57-[-0  1]  22-[1  9]  49-[-0  5]  34-[2  16]  62-[-0  6]  19-[6  15]  32-[-0  14] -> 4
 61-[7  11]  45-[5  16]  11-[12  15]  2-[-0  1]  45-[14  16]  10-[-0  3]  43-[1  16]  16-[-0  6]  17-[-0  5]  52-[10  16]  10-[-0  5]  61-[4  13]  1-[-0  5]  63-[-0  8]  13-[1  9]  22-[2  9]  38-[7  14]  14-[-0  9]  34-[1  16]  6-[-0  11]  14-[-0  6]  53-[5  9] -> 4
 32-[-0  5]  10-[4  9]  24-[-0  16]  26-[10  16]  27-[4  16]  54-[-0  9]  43-[-0  13]  50-[-0  10]  1-[-0  6]  45-[2  14]  34-[3  9]  56-[-0  8]  26-[7  16]  8-[-0  16]  59-[0  9]  61-[1  8]  11-[5  16]  16-[-0  14]  56-[-0  12]  3-[1  15]  9-[-0  8]  21-[4  16] -> 4
 46-[1  12]  42-[15  16]  37-[14  16]  55-[-0  10]  61-[7  14]  52-[6  16]  13-[-0  7]  41-[1  16]  22-[1  8]  22-[1  5]  63-[-0  8]  61-[2  9]  21-[1  14]  14-[-0  15]  32-[-0  15]  45-[6  16]  17-[-0  10]  1-[-0  6]  59-[-0  11]  46-[2  9]  6-[-0  2]  11-[4  16] -> 4
 19-[6  16]  46-[1  13]  24-[-0  16]  29-[8  15]  6-[3  6]  20-[6  13]  32-[-0  15]  33-[8  11]  39-[-0  5]  20-[6  11]  30-[-0  14]  16-[-0  6]  41-[0  12]  32-[-0  16]  49-[-0  15]  48-[-0  9]  61-[5  13]  34-[2  16]  38-[1  15]  39-[-0  9]  18-[4  15]  36-[15  16] -> 4
 54-[-0  5]  33-[1  12]  45-[11  16]  46-[0  3]  38-[6  10]  57-[-0  16]  9-[-0  9]  37-[11  15]  13-[-0  13]  28-[10  15]  44-[0  9]  34-[6  16]  28-[10  15]  8-[-0  15]  9-[-0  8]  63-[-0  13]  34-[8  16]  37-[5  16]  34-[6  16]  20-[-0  14]  17-[1  10]  42-[-0  9] -> 5
 39-[-0  4]  54-[-0  14]  56-[-0  1]  17-[6  16]  54-[-0  10]  28-[12  16]  45-[1  16]  17-[3  15]  54-[-0  6]  16-[-0  16]  24-[-0  13]  11-[4  16]  13-[10  16]  39-[-0  8]  37-[5  15]  12-[7  16]  26-[15  16]  25-[4  16]  35-[-0  8]  24-[-0  15]  52-[2  16]  14-[0  14] -> 5
 58-[0  3]  62-[-0  14]  31-[-0  1]  2-[0  15]  16-[-0  5]  58-[0  4]  23-[-0  5]  24-[-0  2]  10-[6  10]  34-[0  8]  59-[8  16]  38-[1  16]  57-[-0  16]  41-[-0  4]  43-[-0  12]  34-[0  11]  13-[3  15]  16-[-0  1]  28-[1  10]  19-[1  16]  45-[8  13]  23-[-0  14] -> 5
 39-[-0  7]  16-[-0  11]  60-[2  15]  28-[2  12]  5-[15  16]  26-[1  14]  21-[6  16]  6-[2  5]  55-[-0  15]  38-[4  11]  24-[-0  1]  29-[13  16]  50-[2  15]  53-[7  15]  61-[-0  6]  3-[5  16]  36-[-0  12]  6-[3  14]  31-[-0  16]  12-[0  11]  31-[-0  2]  24-[-0  13] -> 5
 59-[8  16]  56-[-0  12]  9-[-0  8]  50-[2  13]  62-[-0  4]  6-[-0  14]  16-[-0  4]  10-[4  16]  9-[-0  9]  1-[-0  11]  38-[-0  5]  20-[2  9]  18-[15  16]  47-[-0  6]  29-[1  9]  57-[-0  13]  52-[4  16]  54-[-0  10]  13-[7  15]  59-[9  16]  18-[6  16]  3-[6  16] -> 5
 31-[-0  8]  20-[10  16]  46-[-0  9]  15-[-0  15]  62-[-0  12]  4-[4  16]  33-[0  10]  25-[3  10]  57-[-0  15]  3-[2  12]  41-[-0  15]  26-[2  16]  7-[-0  1]  20-[9  16]  21-[1  16]  32-[-0  12]  20-[14  16]  53-[2  15]  6-[3  12]  4-[10  16]  49-[-0  5]  22-[1  4] -> 5
 13-[9  13]  12-[6  16]  62-[-0  6]  40-[-0  4]  38-[-0  1]  59-[2  16]  53-[1  15]  16-[-0  8]  21-[-0  15]  23-[-0  6]  26-[10  15]  33-[-0  8]  46-[-0  6]  8-[-0  14]  24-[-0  8]  55-[-0  4]  53-[4  11]  48-[-0  10]  39-[-0  10]  56-[-0  10]  20-[2  13]  2-[3  10] -> 5
 15-[-0  16]  61-[-0  2]  52-[4  12]  22-[-0  13]  20-[-0  11]  23-[-0  2]  38-[1  16]  44-[0  10]  61-[-0  9]  13-[-0  13]  40-[-0  5]  6-[1  10]  10-[8  15]  3-[3  15]  35-[10  14]  49-[-0  6]  16-[-0  11]  55-[-0  3]  21-[-0  16]  26-[5  16]  1-[-0  3]  15-[-0  10] -> 5
 62-[-0  12]  59-[7  14]  12-[4  16]  52-[8  16]  10-[7  16]  41-[-0  11]  4-[4  10]  49-[-0  5]  56-[-0  16]  18-[11  16]  13-[2  15]  40-[-0  5]  38-[-0  3]  13-[7  13]  16-[-0  8]  31-[-0  3]  24-[-0  4]  44-[3  6]  42-[-0  16]  53-[3  13]  49-[-0  14]  24-[-0  14] -> 5
 46-[-0  6]  37-[6  13]  38-[-0  10]  57-[-0  11]  33-[0  2]  9-[-0  9]  16-[-0  2]  25-[4  11]  25-[6  16]  9-[-0  3]  39-[-0  1]  33-[0  8]  40-[-0  14]  40-[-0  6]  43-[-0  1]  12-[12  16]  57-[-0  3]  52-[15  16]  15-[-0  7]  37-[7  15]  62-[-0  16]  52-[2  16] -> 5
 42-[-0  14]  53-[5  16]  1-[-0  10]  17-[1  12]  8-[-0  2]  60-[9  13]  5-[13  16]  56-[-0  16]  8-[-0  13]  33-[1  8]  63-[-0  14]  47-[-0  11]  5-[8  16]  45-[13  16]  10-[6  14]  52-[5  12]  54-[-0  11]  32-[-0  9]  7-[-0  14]  61-[-0  5]  56-[-0  1]  35-[3  14] -> 5
 32-[-0  11]  18-[11  16]  16-[-0  2]  47-[-0  14]  63-[-0  6]  20-[10  14]  15-[-0  7]  6-[3  15]  25-[1  4]  40-[-0  3]  20-[8  13]  37-[4  14]  55-[-0  15]  44-[-0  1]  48-[-0  4]  47-[-0  6]  29-[6  16]  10-[6  15]  18-[12  16]  34-[-0  4]  27-[4  13]  38-[2  11] -> 5
 31-[-0  11]  45-[12  16]  5-[11  16]  49-[-0  7]  55-[-0  5]  17-[1  9]  22-[-0  9]  32-[-0  -0]  37-[4  15]  6-[3  8]  12-[0  4]  55-[-0  4]  10-[13  15]  48-[-0  7]  52-[4  14]  11-[3  16]  55-[-0  13]  33-[-0  16]  11-[7  11]  44-[-0  10]  16-[-0  4]  51-[2  14] -> 5
 57-[-0  10]  32-[-0  6]  55-[-0  9]  61-[-0  7]  43-[-0  9]  51-[1  11]  58-[0  4]  30-[5  13]  39-[-0  5]  63-[-0  1]  12-[5  11]  59-[9  14]  62-[-0  14]  33-[0  9]  30-[3  15]  56-[-0  13]  45-[9  16]  30-[5  8]  45-[2  12]  52-[2  16]  37-[7  15]  55-[-0  13] -> 5
 44-[1  16]  21-[2  16]  13-[1  14]  19-[11  16]  42-[-0  11]  49-[-0  6]  63-[-0  15]  3-[6  12]  5-[8  14]  37-[5  14]  12-[5  16]  1-[-0  10]  18-[12  16]  49-[-0  12]  39-[-0  4]  26-[15  16]  61-[-0  4]  31-[-0  10]  59-[6  14]  1-[-0  11]  44-[3  11]  13-[2  11] -> 5
 13-[3  7]  53-[1  4]  43-[-0  16]  18-[12  16]  3-[4  11]  54-[-0  4]  17-[-0  15]  60-[3  16]  26-[7  16]  21-[3  15]  30-[5  8]  40-[-0  7]  31-[-0  7]  30-[1  15]  14-[1  9]  51-[3  11]  24-[-0  15]  62-[-0  7]  61-[-0  1]  23-[-0  9]  44-[1  14]  53-[2  6] -> 5
 63-[-0  11]  37-[1  13]  2-[0  6]  24-[-0  12]  12-[2  10]  49-[-0  13]  53-[2  12]  19-[3  15]  26-[7  16]  34-[0  5]  31-[-0  11]  60-[1  11]  40-[-0  12]  59-[10  16]  54-[-0  7]  34-[0  6]  48-[-0  15]  38-[1  5]  62-[-0  14]  19-[10  13]  4-[5  16]  36-[-0  9] -> 5
 53-[2  6]  6-[4  16]  31-[-0  2]  50-[-0  15]  5-[3  14]  59-[12  16]  37-[3  11]  27-[5  14]  57-[-0  13]  59-[3  15]  30-[1  8]  22-[1  14]  58-[0  8]  54-[-0  14]  37-[4  12]  12-[2  9]  28-[3  7]  53-[1  5]  37-[1  14]  25-[3  7]  26-[8  16]  39-[-0  9] -> 5
 19-[-0  9]  57-[-0  12]  54-[-0  2]  55-[-0  9]  4-[8  15]  51-[1  10]  45-[7  16]  40-[-0  5]  38-[6  16]  29-[11  16]  21-[-0  14]  43-[-0  12]  13-[-0  6]  59-[1  15]  13-[-0  15]  60-[9  11]  45-[11  15]  19-[-0  5]  35-[1  16]  43-[-0  5]  31-[-0  8]  35-[2  15] -> 5
 43-[-0  13]  60-[4  16]  34-[11  16]  6-[2  8]  26-[8  12]  50-[0  13]  32-[-0  16]  14-[-0  9]  57-[-0  12]  34-[3  16]  4-[1  14]  26-[3  15]  13-[-0  1]  29-[11  15]  60-[1  15]  19-[-0  15]  20-[-0  12]  5-[4  16]  62-[-0  4]  19-[-0  6]  12-[1  9]  26-[7  12] -> 5
 29-[5  10]  15-[-0  11]  46-[-0  3]  42-[-0  11]  51-[2  14]  19-[3  15]  26-[3  15]  43-[-0  3]  6-[1  15]  40-[-0  10]  25-[4  15]  42-[-0  12]  24-[-0  12]  61-[-0  5]  29-[4  14]  31-[-0  7]  47-[-0  5]  40-[-0  5]  24-[-0  3]  51-[5  14]  31-[-0  11]  46-[-0  15] -> 5
 47-[-0  3]  59-[4  14]  59-[7  16]  10-[10  15]  29-[4  16]  37-[2  10]  47-[-0  13]  32-[-0  14]  2-[9  16]  55-[-0  16]  31-[-0  13]  37-[2  10]  53-[11  14]  37-[1  16]  18-[8  16]  31-[-0  13]  27-[6  15]  55-[-0  9]  51-[1  6]  50-[8  12]  42-[-0  7]  22-[-0  14] -> 5
 56-[-0  3]  14-[-0  9]  60-[2  13]  59-[1  14]  12-[0  12]  14-[-0  11]  13-[0  12]  63-[-0  7]  50-[7  12]  3-[11  16]  38-[5  11]  6-[2  14]  14-[-0  16]  37-[4  6]  48-[-0  7]  44-[-0  4]  43-[-0  4]  47-[-0  3]  59-[2  16]  37-[2  10]  21-[3  13]  22-[-0  4] -> 5
 45-[1  13]  43-[-0  16]  36-[1  16]  1-[-0  3]  30-[-0  4]  5-[3  15]  28-[11  16]  14-[1  6]  45-[1  15]  47-[-0  8]  24-[-0  13]  57-[-0  11]  61-[-0  12]  44-[3  7]  57-[-0  12]  17-[3  12]  31-[-0  10]  38-[-0  16]  41-[-0  3]  28-[6  16]  22-[-0  8]  36-[1  8] -> 5
 41-[-0  2]  31-[-0  8]  33-[-0  14]  37-[6  15]  23-[-0  10]  12-[3  15]  3-[2  12]  60-[1  12]  2-[6  10]  63-[-0  16]  40-[-0  9]  5-[1  10]  14-[3  6]  22-[-0  12]  17-[5  12]  28-[10  16]  38-[-0  6]  29-[5  11]  49-[-0  9]  26-[13  16]  22-[-0  3]  23-[-0  11] -> 5
 12-[10  16]  41-[-0  1]  45-[8  15]  2-[3  12]  50-[5  9]  22-[-0  16]  6-[1  8]  25-[3  15]  22-[-0  13]  15-[-0  13]  8-[-0  12]  31-[-0  9]  43-[-0  9]  41-[-0  10]  24-[-0  9]  23-[-0  14]  45-[4  14]  17-[4  8]  29-[6  13]  4-[7  14]  13-[5  16]  2-[7  14] -> 5
 62-[-0  9]  27-[5  14]  36-[-0  16]  54-[-0  12]  27-[3  14]  22-[-0  2]  40-[-0  15]  61-[-0  1]  60-[2  15]  41-[-0  2]  23-[-0  11]  3-[12  16]  61-[-0  3]  15-[-0  14]  41-[-0  13]  35-[-0  8]  24-[-0  11]  3-[11  16]  49-[-0  7]  16-[-0  15]  33-[-0  5]  22-[-0  13] -> 5
 17-[2  10]  53-[2  10]  44-[-0  9]  1-[-0  1]  1-[-0  8]  10-[3  15]  24-[-0  1]  63-[-0  16]  7-[-0  15]  18-[5  15]  26-[8  16]  51-[4  12]  22-[-0  16]  50-[2  15]  20-[-0  4]  1-[-0  2]  25-[3  10]  6-[-0  5]  49-[-0  13]  58-[0  9]  14-[-0  11]  53-[3  10] -> 6
 11-[2  16]  51-[9  15]  15-[-0  2]  32-[-0  12]  14-[-0  10]  56-[-0  8]  57-[-0  10]  11-[4  16]  5-[-0  1]  38-[1  14]  2-[-0  14]  1-[-0  11]  33-[0  3]  13-[-0  10]  20-[-0  9]  48-[-0  16]  57-[-0  3]  47-[0  6]  36-[9  15]  19-[2  15]  7-[-0  6]  48-[-0  4] -> 6
 35-[6  12]  43-[2  9]  44-[-0  16]  7-[-0  3]  46-[4  16]  53-[3  16]  42-[8  16]  40-[-0  11]  25-[1  11]  43-[3  7]  5-[-0  10]  56-[-0  16]  32-[-0  3]  18-[14  16]  59-[8  16]  1-[-0  10]  3-[3  14]  32-[-0  5]  17-[0  15]  42-[8  16]  26-[4  16]  2-[1  7] -> 6
 35-[5  16]  12-[-0  7]  50-[8  11]  56-[-0  7]  58-[2  16]  31-[-0  15]  60-[1  16]  25-[1  5]  26-[12  16]  31-[-0  4]  46-[3  16]  37-[6  16]  42-[8  16]  61-[1  13]  31-[-0  2]  1-[-0  3]  43-[2  5]  61-[7  10]  19-[1  8]  44-[-0  8]  41-[-0  6]  46-[2  13] -> 6
 53-[1  15]  60-[3  15]  12-[5  9]  26-[10  16]  2-[1  15]  39-[-0  4]  9-[-0  11]  9-[-0  15]  19-[4  11]  52-[1  6]  3-[3  16]  28-[-0  14]  47-[-0  9]  63-[-0  7]  53-[9  15]  43-[10  14]  60-[6  16]  36-[3  16]  43-[10  15]  15-[-0  1]  13-[-0  11]  51-[7  16] -> 6
 57-[-0  7]  50-[3  16]  29-[2  5]  17-[-0  15]  6-[-0  14]  27-[5  11]  44-[-0  2]  19-[8  14]  6-[-0  9]  11-[14  16]  17-[-0  1]  59-[3  11]  39-[-0  11]  1-[-0  8]  35-[6  16]  20-[-0  16]  39-[-0  16]  30-[-0  6]  47-[0  8]  4-[1  13]  40-[-0  2]  8-[-0  7] -> 6
 52-[2  14]  44-[-0  9]  9-[-0  12]  14-[-0  7]  62-[0  4]  31-[-0  8]  2-[-0  2]  15-[-0  6]  21-[-0  9]  32-[-0  15]  60-[1  15]  35-[12  16]  62-[0  7]  15-[-0  2]  13-[-0  9]  53-[4  15]  46-[8  16]  27-[1  3]  60-[10  15]  27-[1  7]  46-[11  16]  14-[-0  10] -> 6
 45-[2  12]  37-[11  13]  48-[-0  8]  5-[-0  12]  49-[-0  10]  11-[6  15]  58-[1  9]  24-[-0  12]  19-[2  9]  31-[-0  5]  19-[2  7]  40-[-0  3]  44-[2  4]  42-[12  16]  30-[-0  11]  61-[7  16]  34-[11  15]  11-[11  15]  20-[-0  13]  20-[-0  16]  54-[10  15]  33-[-0  8] -> 6
 50-[1  13]  40-[-0  2]  13-[1  5]  63-[-0  13]  61-[2  16]  27-[-0  5]  26-[8  15]  30-[-0  10]  38-[1  13]  57-[-0  15]  40-[-0  1]  48-[-0  15]  35-[4  16]  36-[5  16]  4-[9  16]  17-[1  15]  52-[1  7]  12-[3  12]  36-[10  16]  57-[-0  5]  33-[3  7]  17-[1  11] -> 6
 9-[-0  16]  54-[6  15]  52-[1  13]  60-[7  16]  26-[2  16]  39-[-0  11]  23-[-0  15]  44-[-0  11]  6-[-0  6]  40-[-0  8]  37-[7  16]  16-[-0  3]  49-[-0  6]  61-[1  12]  48-[-0  14]  58-[1  14]  28-[7  16]  34-[3  16]  54-[7  13]  27-[-0  9]  25-[5  11]  22-[-0  16] -> 6
 40-[-0  14]  53-[5  14]  45-[3  11]  49-[-0  7]  24-[-0  14]  58-[3  8]  31-[-0  1]  45-[2  8]  12-[-0  11]  44-[-0  2]  42-[5  16]  25-[2  10]  46-[3  15]  13-[-0  10]  14-[-0  10]  56-[-0  11]  12-[-0  8]  12-[-0  8]  41-[-0  16]  57-[-0  16]  5-[-0  8]  26-[2  16] -> 6
 14-[-0  12]  4-[4  16]  3-[5  12]  21-[-0  5]  25-[-0  13]  43-[9  15]  3-[4  11]  32-[-0  5]  31-[-0  2]  56-[-0  5]  61-[5  16]  30-[-0  6]  38-[1  6]  22-[-0  12]  32-[-0  10]  25-[-0  12]  14-[-0  11]  29-[2  11]  43-[3  14]  13-[-0  3]  13-[-0  15]  20-[-0  15] -> 6
 37-[5  14]  6-[-0  13]  63-[-0  12]  18-[12  15]  32-[-0  -0]  34-[1  16]  6-[-0  11]  2-[2  14]  42-[11  16]  56-[-0  1]  54-[11  14]  3-[13  16]  49-[-0  16]  31-[-0  2]  45-[1  12]  37-[7  12]  37-[9  15]  45-[2  16]  32-[-0  15]  39-[-0  15]  54-[7  14]  54-[8  16] -> 6
 35-[7  16]  18-[14  16]  27-[2  15]  18-[11  15]  61-[1  13]  46-[8  14]  35-[9  16]  48-[-0  10]  41-[1  9]  5-[-0  1]  6-[-0  12]  32-[-0  3]  54-[10  16]  61-[5  15]  5-[-0  4]  55-[-0  16]  62-[3  13]  27-[1  7]  31-[-0  2]  37-[5  16]  46-[3  11]  51-[2  15] -> 6
 53-[4  16]  32-[-0  11]  41-[0  7]  40-[-0  4]  36-[1  15]  42-[4  16]  7-[-0  10]  37-[10  16]  7-[-0  10]  31-[-0  9]  52-[2  13]  54-[3  15]  48-[-0  3]  32-[-0  5]  52-[3  6]  26-[3  16]  29-[1  8]  27-[1  16]  11-[11  16]  38-[4  6]  52-[1  11]  58-[0  8] -> 6
 35-[14  16]  63-[-0  14]  46-[7  16]  16-[-0  15]  5-[-0  6]  46-[1  14]  42-[14  16]  49-[-0  11]  12-[3  10]  53-[2  16]  23-[-0  5]  42-[14  16]  5-[-0  14]  15-[-0  5]  2-[-0  12]  58-[0  13]  33-[0  2]  39-[-0  13]  62-[3  13]  50-[7  16]  51-[9  16]  15-[-0  1] -> 6
 27-[-0  15]  63-[-0  14]  1-[-0  15]  14-[-0  5]  6-[-0  8]  57-[-0  9]  20-[-0  2]  39-[-0  6]  18-[11  16]  28-[-0  9]  16-[-0  5]  26-[9  12]  15-[-0  15]  6-[-0  5]  23-[-0  8]  2-[1  4]  19-[0  6]  15-[-0  5]  3-[3  15]  4-[1  13]  31-[-0  9]  37-[6  16] -> 6
 47-[0  2]  28-[1  10]  21-[-0  14]  17-[-0  5]  1-[-0  6]  17-[-0  6]  18-[6  11]  21-[-0  12]  19-[7  16]  47-[0  15]  19-[4  15]  9-[-0  7]  42-[9  16]  27-[2  11]  22-[-0  16]  41-[0  11]  1-[-0  9]  20-[-0  4]  33-[0  4]  29-[1  6]  12-[5  14]  56-[-0  7] -> 6
 56-[-0  5]  29-[-0  16]  27-[-0  16]  28-[-0  9]  4-[4  16]  53-[1  14]  28-[-0  4]  43-[9  15]  41-[1  8]  27-[-0  16]  30-[-0  8]  12-[4  13]  62-[2  13]  1-[-0  7]  61-[8  15]  7-[-0  1]  62-[1  4]  28-[-0  15]  46-[7  15]  46-[10  13]  42-[5  16]  10-[6  16] -> 6
 39-[-0  5]  29-[1  16]  61-[7  16]  26-[5  16]  42-[5  16]  60-[8  16]  63-[-0  8]  11-[7  16]  9-[-0  7]  7-[-0  9]  1-[-0  11]  9-[-0  15]  11-[4  16]  40-[-0  8]  49-[-0  5]  53-[3  10]  20-[-0  7]  43-[6  15]  7-[-0  7]  29-[2  5]  27-[4  12]  34-[4  16] -> 6
 36-[1  13]  43-[1  6]  37-[2  16]  6-[-0  10]  12-[-0  6]  4-[2  16]  29-[1  12]  36-[1  14]  56-[-0  11]  20-[-0  8]  57-[-0  12]  10-[4  12]  15-[-0  11]  29-[1  11]  25-[1  9]  19-[1  15]  20-[-0  5]  33-[2  15]  55-[-0  13]  4-[1  8]  42-[10  16]  17-[0  2] -> 6
 2-[2  13]  33-[3  16]  51-[2  10]  62-[-0  9]  22-[-0  4]  39-[-0  13]  29-[1  12]  57-[-0  5]  53-[5  16]  1-[-0  16]  1-[-0  9]  33-[3  16]  41-[-0  5]  60-[1  15]  20-[-0  8]  8-[-0  7]  1-[-0  8]  10-[6  14]  47-[-0  1]  57-[-0  6]  30-[-0  14]  10-[4  16] -> 6
 60-[4  16]  50-[8  16]  55-[-0  4]  40-[-0  7]  36-[4  15]  33-[1  13]  62-[0  7]  51-[9  16]  11-[5  16]  28-[4  13]  26-[9  16]  24-[-0  2]  9-[-0  16]  26-[5  16]  22-[-0  12]  54-[12  15]  6-[-0  7]  51-[5  13]  24-[-0  16]  28-[2  16]  39-[-0  7]  21-[-0  9] -> 6
 16-[-0  11]  58-[3  7]  45-[3  12]  53-[10  12]  2-[2  7]  32-[-0  12]  58-[2  14]  30-[-0  9]  44-[-0  8]  6-[-0  11]  2-[3  15]  38-[1  3]  40-[-0  8]  13-[-0  14]  48-[-0  12]  30-[-0  3]  28-[2  12]  48-[-0  2]  13-[-0  12]  60-[11  15]  46-[4  16]  35-[2  11] -> 6
 52-[1  12]  44-[-0  4]  39-[-0  13]  57-[-0  15]  29-[1  15]  9-[-0  15]  61-[6  8]  46-[5  16]  56-[-0  14]  48-[-0  9]  7-[-0  6]  51-[5  16]  17-[1  16]  4-[1  14]  17-[1  13]  26-[12  16]  30-[-0  5]  51-[6  9]  49-[-0  3]  3-[12  16]  14-[-0  7]  42-[2  15] -> 6
 39-[-0  5]  19-[3  10]  17-[1  15]  18-[9  16]  21-[-0  2]  13-[1  13]  30-[-0  2]  9-[-0  13]  19-[1  15]  17-[1  14]  30-[-0  6]  4-[8  14]  4-[1  14]  36-[11  15]  21-[-0  2]  2-[-0  9]  53-[8  16]  59-[5  16]  16-[-0  2]  36-[10  16]  54-[5  16]  19-[1  12] -> 6
 41-[0  10]  62-[2  16]  41-[0  7]  61-[6  13]  14-[-0  12]  62-[1  9]  56-[-0  10]  3-[10  13]  48-[-0  8]  15-[-0  9]  20-[-0  15]  15-[-0  16]  34-[5  16]  59-[8  15]  14-[-0  13]  17-[0  7]  51-[6  16]  33-[1  4]  16-[-0  2]  26-[7  16]  28-[1  13]  11-[7  15] -> 6
 55-[-0  6]  51-[5  16]  55-[-0  7]  36-[6  16]  47-[-0  16]  63-[-0  3]  47-[-0  15]  12-[3  16]  26-[8  13]  35-[11  16]  20-[8  15]  56-[-0  14]  23-[-0  14]  44-[3  15]  17-[-0  6]  61-[-0  8]  33-[-0  2]  9-[0  4]  31-[-0  6]  48-[-0  11]  46-[-0  16]  6-[-0  2] -> 7
 62-[-0  1]  7-[-0  14]  29-[4  13]  36-[11  16]  32-[-0  8]  42-[11  16]  14-[-0  16]  3-[5  16]  3-[8  16]  60-[-0  11]  12-[11  16]  42-[10  15]  33-[3  16]  47-[-0  9]  62-[-0  12]  42-[4  15]  31-[-0  7]  40-[-0  6]  45-[1  9]  36-[4  16]  11-[10  16]  19-[-0  10] -> 7
 38-[4  13]  5-[13  16]  56-[-0  11]  53-[-0  7]  3-[9  13]  58-[3  9]  13-[12  16]  37-[4  16]  6-[3  6]  10-[15  16]  17-[-0  6]  25-[-0  16]  50-[-0  5]  38-[8  16]  38-[10  14]  38-[3  12]  24-[-0  1]  44-[11  16]  26-[0  14]  58-[2  15]  47-[-0  3]  61-[-0  9] -> 7
 11-[3  12]  5-[7  15]  6-[-0  9]  25-[-0  7]  4-[6  16]  31-[-0  15]  32-[-0  5]  6-[-0  8]  31-[-0  12]  58-[8  13]  34-[9  16]  47-[-0  16]  37-[1  16]  8-[-0  15]  28-[9  16]  54-[-0  11]  33-[0  14]  48-[-0  10]  41-[1  10]  30-[1  11]  40-[-0  2]  3-[5  16] -> 7
 35-[9  14]  54-[-0  12]  12-[4  5]  26-[9  16]  28-[10  15]  46-[-0  16]  47-[-0  11]  46-[-0  11]  8-[-0  16]  50-[1  11]  49-[-0  9]  29-[9  12]  27-[7  14]  56-[-0  2]  15-[-0  6]  47-[-0  3]  31-[-0  9]  51-[8  14]  50-[3  8]  51-[1  16]  37-[12  16]  59-[4  16] -> 7
 15-[-0  11]  19-[-0  2]  17-[-0  2]  53-[-0  2]  50-[1  11]  60-[-0  2]  39-[-0  10]  2-[1  16]  49-[-0  5]  45-[-0  5]  21-[12  16]  50-[2  10]  41-[-0  12]  45-[-0  9]  42-[-0  5]  47-[-0  3]  3-[3  13]  3-[5  13]  27-[11  14]  22-[4  15]  19-[-0  4]  59-[2  16] -> 7
 51-[10  16]  21-[3  16]  7-[-0  9]  20-[4  15]  5-[1  14]  13-[8  16]  39-[-0  13]  26-[1  16]  53-[-0  11]  3-[4  15]  43-[7  16]  51-[13  16]  7-[-0  7]  17-[-0  6]  5-[2  12]  46-[-0  12]  35-[10  14]  4-[6  16]  54-[-0  11]  35-[4  16]  42-[1  5]  26-[9  16] -> 7
 49-[-0  4]  30-[-0  10]  32-[-0  3]  1-[-0  7]  16-[-0  3]  21-[10  15]  29-[4  12]  58-[1  14]  40-[-0  11]  63-[-0  13]  13-[1  16]  5-[11  14]  32-[-0  2]  19-[-0  11]  49-[-0  3]  45-[-0  14]  4-[1  16]  56-[-0  8]  56-[-0  11]  40-[-0  1]  22-[-0  15]  57-[-0  12] -> 7
 45-[-0  3]  37-[3  16]  56-[-0  6]  1-[-0  5]  58-[4  15]  47-[-0  7]  8-[-0  14]  55-[-0  8]  46-[-0  9]  29-[2  16]  34-[5  16]  8-[-0  4]  46-[-0  13]  24-[-0  6]  48-[-0  4]  9-[0  14]  18-[-0  8]  46-[-0  15]  29-[5  15]  28-[7  16]  15-[-0  10]  40-[-0  13] -> 7
 15-[-0  2]  44-[6  14]  33-[0  11]  57-[-0  3]  35-[9  16]  62-[-0  4]  42-[1  13]  57-[-0  5]  9-[0  11]  1-[-0  13]  33-[0  12]  48-[-0  14]  43-[13  16]  50-[1  10]  9-[0  9]  29-[1  14]  55-[-0  4]  25-[1  6]  28-[11  16]  15-[-0  1]  54-[-0  11]  24-[-0  5] -> 7
 30-[1  6]  60-[-0  6]  35-[13  16]  61-[-0  1]  17-[-0  6]  60-[-0  16]  49-[-0  11]  7-[-0  12]  29-[8  16]  46-[-0  5]  34-[4  15]  15-[-0  9]  44-[1  10]  45-[-0  9]  22-[-0  15]  19-[-0  13]  39-[-0  3]  20-[5  15]  38-[3  5]  49-[-0  13]  37-[5  16]  6-[-0  2] -> 7
 30-[4  12]  59-[10  16]  63-[-0  13]  24-[-0  5]  4-[7  15]  22-[2  16]  36-[7  15]  29-[6  15]  28-[5  13]  13-[2  15]  39-[-0  3]  29-[12  16]  23-[-0  15]  16-[-0  14]  21-[1  11]  32-[-0  12]  2-[0  9]  28-[9  15]  58-[0  9]  12-[3  12]  20-[-0  1]  20-[-0  10] -> 7
 55-[-0  10]  47-[-0  3]  18-[-0  5]  10-[2  16]  24-[-0  13]  2-[0  14]  32-[-0  9]  51-[5  14]  54-[-0  3]  8-[-0  14]  30-[7  11]  18-[-0  13]  30-[2  16]  31-[-0  12]  1-[-0  11]  55-[-0  15]  39-[-0  6]  6-[3  7]  37-[3  16]  36-[11  16]  56-[-0  8]  3-[6  11] -> 7
 19-[-0  1]  14-[-0  2]  53-[-0  4]  19-[-0  1]  16-[-0  12]  6-[-0  1]  60-[-0  14]  15-[-0  8]  60-[-0  1]  4-[1  16]  39-[-0  9]  25-[1  16]  29-[5  15]  29-[11  16]  2-[1  16]  37-[3  13]  53-[-0  1]  6-[-0  6]  15-[-0  14]  7-[-0  6]  58-[10  13]  52-[-0  3] -> 7
 42-[4  16]  48-[-0  1]  23-[-0  12]  22-[-0  8]  59-[4  14]  35-[9  16]  9-[4  8]  25-[0  14]  31-[-0  12]  51-[8  16]  30-[0  7]  7-[-0  13]  34-[2  16]  35-[3  16]  57-[-0  7]  30-[0  15]  25-[0  12]  55-[-0  13]  27-[8  15]  11-[4  14]  34-[9  16]  39-[-0  9] -> 7
 15-[1  6]  10-[3  12]  42-[-0  9]  8-[-0  7]  25-[0  10]  32-[-0  9]  11-[3  15]  25-[0  8]  46-[-0  11]  2-[4  7]  39-[-0  11]  21-[8  16]  21-[8  16]  7-[1  16]  3-[11  15]  11-[5  15]  13-[9  12]  26-[12  16]  57-[-0  5]  29-[13  16]  53-[-0  16]  10-[2  8] -> 7
 62-[-0  16]  28-[1  15]  10-[5  15]  17-[-0  16]  60-[-0  14]  46-[-0  9]  33-[1  4]  61-[-0  7]  6-[5  14]  17-[-0  13]  61-[-0  12]  21-[1  16]  3-[7  12]  27-[1  15]  6-[4  12]  32-[-0  13]  36-[14  16]  57-[-0  3]  41-[-0  2]  9-[-0  15]  31-[-0  7]  50-[1  11] -> 7
 40-[-0  2]  42-[-0  2]  27-[9  16]  11-[7  15]  57-[-0  1]  3-[11  14]  60-[-0  16]  46-[-0  6]  11-[7  15]  59-[1  15]  15-[-0  12]  55-[-0  3]  7-[-0  12]  13-[2  16]  53-[-0  12]  42-[-0  10]  31-[-0  2]  55-[-0  13]  34-[-0  2]  54-[-0  13]  11-[8  13]  41-[-0  4] -> 7
 41-[-0  13]  47-[-0  11]  34-[10  16]  53-[-0  4]  59-[6  13]  3-[1  15]  7-[-0  6]  49-[-0  1]  51-[8  16]  49-[-0  16]  21-[6  10]  60-[-0  2]  27-[3  14]  12-[3  16]  60-[-0  13]  35-[11  16]  23-[-0  15]  42-[9  14]  8-[-0  6]  19-[-0  12]  39-[-0  1]  56-[-0  10] -> 7
 26-[0  11]  2-[3  6]  43-[2  15]  18-[2  11]  25-[-0  9]  6-[4  8]  20-[2  10]  42-[5  15]  28-[2  16]  22-[1  3]  54-[-0  7]  4-[9  15]  37-[2  16]  20-[1  10]  29-[7  14]  12-[9  14]  12-[9  16]  21-[11  16]  9-[3  13]  24-[-0  10]  50-[-0  7]  61-[-0  13] -> 7
 44-[2  16]  24-[-0  13]  30-[7  15]  47-[-0  1]  47-[-0  11]  22-[5  8]  12-[3  12]  60-[0  5]  28-[1  16]  21-[2  16]  63-[-0  15]  58-[5  11]  26-[7  13]  51-[3  15]  7-[-0  4]  7-[-0  12]  31-[-0  2]  40-[-0  6]  31-[-0  10]  44-[10  16]  14-[3  15]  15-[-0  5] -> 7
 22-[2  8]  47-[-0  16]  35-[3  5]  56-[-0  1]  19-[1  8]  44-[9  16]  31-[-0  7]  49-[-0  16]  14-[6  12]  18-[-0  15]  18-[-0  7]  50-[2  12]  5-[10  16]  44-[8  16]  31-[-0  12]  50-[1  11]  46-[-0  4]  34-[2  15]  37-[9  15]  63-[-0  5]  29-[1  16]  27-[10  16] -> 7
 9-[5  12]  1-[0  13]  36-[11  16]  38-[2  13]  61-[-0  3]  28-[11  16]  26-[2  11]  6-[-0  7]  22-[-0  7]  15-[-0  10]  20-[8  16]  40-[-0  8]  18-[1  13]  8-[-0  11]  10-[3  16]  34-[1  16]  46-[1  5]  10-[9  16]  22-[-0  12]  63-[-0  5]  41-[-0  1]  30-[0  15] -> 7
 16-[-0  10]  55-[-0  13]  46-[-0  1]  8-[-0  14]  28-[4  16]  46-[-0  14]  59-[5  14]  34-[13  16]  10-[8  16]  56-[-0  5]  48-[-0  16]  4-[6  16]  31-[-0  4]  62-[-0  5]  37-[12  14]  39-[-0  2]  10-[9  15]  24-[-0  15]  16-[-0  7]  49-[-0  12]  46-[-0  10]  8-[-0  14] -> 7
 4-[6  16]  32-[-0  3]  56-[-0  4]  37-[13  16]  48-[-0  4]  44-[3  13]  57-[-0  14]  59-[4  15]  14-[1  16]  24-[-0  2]  52-[0  10]  18-[-0  12]  1-[-0  4]  17-[-0  13]  17-[-0  2]  62-[-0  15]  32-[-0  14]  57-[-0  12]  10-[1  7]  36-[14  16]  43-[11  15]  14-[4  9] -> 7
 6-[2  13]  39-[-0  9]  62-[-0  1]  14-[4  16]  37-[6  11]  22-[4  9]  21-[9  16]  37-[9  15]  53-[-0  12]  22-[3  11]  32-[-0  14]  3-[1  13]  35-[2  15]  8-[-0  12]  36-[6  16]  14-[1  13]  45-[-0  2]  55-[-0  14]  25-[1  15]  8-[-0  6]  44-[3  8]  48-[-0  6] -> 7
 8-[-0  1]  62-[-0  13]  17-[-0  15]  47-[-0  12]  41-[-0  12]  19-[-0  8]  36-[5  16]  14-[3  15]  33-[-0  13]  43-[2  11]  26-[11  15]  36-[6  15]  48-[-0  4]  14-[11  14]  38-[0  15]  33-[-0  7]  29-[12  16]  16-[-0  11]  42-[-0  12]  24-[-0  6]  60-[1  12]  10-[2  4] -> 7
 2-[3  12]  32-[-0  11]  55-[-0  4]  30-[-0  11]  42-[11  14]  34-[6  14]  21-[10  12]  15-[-0  3]  13-[6  16]  47-[-0  16]  16-[-0  12]  30-[-0  8]  48-[-0  2]  39-[-0  12]  4-[10  16]  12-[11  16]  46-[-0  15]  60-[12  15]  8-[-0  8]  55-[-0  1]  61-[3  9]  54-[-0  11] -> 8
 17-[3  11]  42-[10  16]  58-[5  14]  23-[-0  2]  15-[-0  9]  4-[9  15]  34-[13  16]  37-[8  15]  19-[3  13]  29-[1  12]  48-[-0  10]  49-[1  16]  17-[4  16]  43-[-0  15]  63-[-0  7]  1-[-0  4]  9-[4  13]  32-[-0  14]  27-[9  16]  31-[-0  8]  17-[6  9]  9-[3  10] -> 8
 14-[2  9]  9-[1  5]  11-[4  14]  32-[-0  16]  19-[1  11]  43-[3  13]  19-[2  11]  63-[-0  13]  51-[5  12]  34-[12  14]  43-[4  10]  9-[2  7]  62-[-0  5]  44-[-0  12]  45-[4  13]  56-[-0  4]  50-[4  10]  18-[9  15]  51-[5  12]  25-[2  15]  47-[-0  6]  6-[1  7] -> 8
 34-[1  13]  20-[1  13]  52-[2  10]  19-[3  9]  45-[5  16]  59-[11  16]  46-[6  14]  15-[-0  2]  11-[3  14]  7-[-0  3]  6-[0  9]  55-[-0  9]  63-[-0  9]  41-[-0  11]  3-[6  12]  32-[-0  6]  51-[5  15]  39-[-0  15]  62-[-0  14]  56-[-0  13]  24-[-0  7]  48-[-0  4] -> 8
 22-[1  13]  22-[1  13]  23-[-0  4]  51-[3  5]  63-[-0  15]  33-[1  7]  18-[2  16]  35-[3  8]  27-[4  16]  42-[4  16]  34-[2  16]  54-[1  14]  31-[-0  2]  36-[0  3]  28-[7  16]  28-[1  16]  34-[3  16]  28-[10  16]  57-[-0  14]  18-[13  16]  13-[1  15]  19-[4  7] -> 8
 54-[2  6]  15-[-0  10]  62-[-0  8]  5-[0  7]  32-[-0  16]  52-[2  13]  42-[12  16]  40-[-0  12]  48-[-0  13]  63-[-0  11]  17-[6  13]  55-[-0  6]  37-[3  12]  3-[4  15]  26-[9  16]  5-[0  9]  45-[1  6]  4-[10  12]  6-[-0  6]  33-[1  11]  40-[-0  5]  56-[-0  11] -> 8
 28-[7  16]  36-[6  16]  53-[6  16]  43-[5  14]  15-[-0  1]  11-[4  15]  4-[15  16]  47-[-0  7]  21-[2  16]  8-[-0  2]  20-[1  12]  42-[2  16]  56-[-0  9]  46-[2  9]  27-[10  16]  27-[2  16]  37-[3  8]  11-[4  16]  31-[-0  8]  61-[8  13]  62-[-0  15]  24-[-0  7] -> 8
 37-[10  15]  20-[9  16]  32-[-0  12]  7-[-0  14]  41-[-0  6]  23-[-0  14]  10-[15  16]  56-[-0  5]  10-[3  16]  25-[6  13]  11-[3  15]  24-[-0  1]  20-[11  16]  31-[-0  12]  10-[6  16]  44-[-0  1]  42-[4  15]  50-[10  16]  7-[-0  13]  19-[8  15]  26-[9  16]  45-[1  10] -> 8
 55-[-0  15]  55-[-0  16]  8-[-0  13]  4-[6  15]  20-[6  16]  48-[-0  3]  14-[6  11]  17-[3  8]  63-[-0  6]  10-[11  15]  60-[6  14]  58-[4  7]  26-[4  16]  11-[3  15]  20-[1  10]  57-[-0  14]  28-[14  16]  50-[1  15]  60-[2  16]  45-[4  12]  9-[1  7]  40-[-0  6] -> 8
 24-[-0  14]  8-[-0  15]  35-[4  13]  58-[0  8]  29-[3  16]  13-[8  13]  18-[12  15]  42-[4  13]  5-[5  14]  39-[-0  12]  58-[0  9]  63-[-0  1]  19-[1  8]  52-[3  16]  43-[3  8]  53-[12  16]  48-[-0  13]  37-[7  14]  39-[-0  7]  55-[-0  9]  12-[0  8]  11-[1  14] -> 8
 6-[1  5]  17-[2  11]  52-[1  13]  33-[1  7]  37-[4  14]  22-[1  7]  11-[2  16]  9-[3  9]  11-[6  14]  21-[9  16]  28-[13  16]  16-[-0  15]  60-[2  13]  61-[0  15]  47-[-0  16]  10-[11  16]  18-[1  14]  19-[4  6]  38-[1  6]  10-[3  16]  55-[-0  4]  26-[7  16] -> 8
 29-[10  13]  4-[7  13]  51-[3  12]  47-[-0  7]  33-[-0  8]  63-[-0  8]  38-[-0  6]  43-[6  16]  54-[2  9]  33-[-0  15]  61-[3  15]  26-[4  16]  31-[-0  7]  21-[4  16]  12-[1  16]  24-[-0  11]  47-[-0  10]  4-[1  13]  31-[-0  3]  22-[1  13]  57-[-0  7]  25-[2  15] -> 8
 38-[4  16]  50-[3  8]  60-[8  15]  4-[7  14]  58-[0  12]  28-[11  15]  13-[6  16]  22-[-0  3]  27-[1  16]  54-[1  8]  10-[13  16]  48-[-0  16]  7-[-0  4]  2-[0  9]  17-[3  11]  35-[7  16]  22-[-0  13]  21-[6  14]  5-[7  15]  4-[3  14]  28-[8  14]  2-[0  15] -> 8
 53-[2  15]  3-[4  10]  46-[3  12]  3-[2  9]  7-[-0  3]  38-[4  6]  63-[-0  5]  48-[-0  2]  53-[3  14]  17-[3  15]  7-[-0  10]  59-[3  15]  11-[5  10]  41-[3  13]  27-[8  16]  43-[-0  14]  38-[1  14]  50-[15  16]  53-[12  14]  45-[7  15]  43-[-0  6]  34-[7  16] -> 8
 19-[7  14]  33-[0  13]  10-[3  16]  19-[11  14]  30-[-0  4]  11-[7  15]  41-[-0  16]  60-[9  15]  4-[2  16]  17-[7  10]  60-[3  12]  60-[7  16]  30-[-0  3]  63-[-0  10]  10-[6  16]  49-[-0  14]  43-[3  15]  3-[7  14]  53-[6  14]  28-[5  16]  10-[9  16]  43-[6  16] -> 8
 2-[2  15]  38-[-0  6]  50-[5  14]  12-[3  16]  56-[-0  9]  4-[14  16]  32-[-0  15]  2-[2  9]  5-[3  16]  43-[8  13]  33-[-0  15]  43-[3  14]  7-[-0  16]  8-[-0  12]  53-[8  13]  34-[8  15]  31-[-0  16]  25-[1  12]  47-[-0  7]  20-[7  15]  61-[3  12]  54-[-0  2] -> 8
 35-[4  14]  22-[-0  2]  19-[0  6]  8-[-0  6]  34-[2  16]  20-[3  15]  34-[4  16]  12-[6  8]  10-[10  16]  63-[-0  16]  15-[-0  8]  52-[4  6]  51-[1  4]  34-[3  16]  38-[5  12]  54-[2  8]  51-[1  7]  55-[-0  6]  6-[-0  10]  18-[1  13]  38-[1  15]  22-[-0  3] -> 8
 58-[6  14]  23-[-0  14]  30-[-0  13]  38-[1  12]  17-[4  14]  17-[5  13]  30-[-0  1]  6-[-0  15]  9-[2  10]  50-[8  16]  5-[0  5]  29-[5  15]  44-[-0  6]  40-[-0  3]  27-[8  16]  43-[-0  11]  5-[0  5]  59-[4  16]  22-[-0  11]  40-[-0  2]  20-[5  16]  59-[1  16] -> 8
 30-[-0  1]  56-[-0  2]  24-[-0  16]  28-[11  16]  24-[-0  14]  57-[-0  13]  24-[-0  1]  53-[11  15]  48-[-0  5]  9-[1  9]  46-[5  16]  20-[5  16]  51-[1  10]  19-[0  4]  44-[-0  8]  18-[5  16]  62-[-0  2]  6-[-0  9]  9-[6  16]  18-[6  16]  11-[1  6]  52-[2  13] -> 8
 41-[-0  7]  24-[-0  15]  47-[-0  10]  54-[1  3]  37-[9  16]  35-[6  14]  36-[-0  6]  40-[-0  3]  62-[-0  13]  16-[-0  6]  47-[-0  6]  9-[2  13]  59-[11  15]  9-[2  8]  18-[11  16]  28-[8  15]  43-[4  8]  16-[-0  15]  20-[6  11]  25-[1  9]  53-[8  15]  50-[5  8] -> 8
 23-[-0  2]  30-[-0  13]  56-[-0  6]  35-[5  15]  31-[-0  10]  20-[8  12]  58-[0  3]  15-[-0  9]  18-[9  14]  25-[2  7]  45-[1  16]  55-[-0  6]  38-[4  8]  25-[1  8]  49-[-0  16]  14-[3  10]  62-[-0  6]  52-[3  8]  12-[0  11]  9-[2  11]  22-[-0  7]  8-[-0  6] -> 8
 42-[9  12]  63-[-0  9]  59-[10  16]  11-[7  16]  43-[1  11]  2-[0  14]  61-[3  8]  22-[-0  3]  29-[4  16]  27-[2  15]  25-[2  7]  45-[6  14]  9-[2  8]  63-[-0  16]  60-[7  15]  54-[1  3]  21-[8  15]  30-[-0  8]  14-[1  10]  31-[-0  1]  58-[0  7]  22-[-0  3] -> 8
 3-[9  16]  15-[-0  2]  63-[-0  5]  31-[-0  1]  3-[7  16]  56-[-0  11]  49-[-0  3]  53-[15  16]  6-[0  14]  19-[0  6]  35-[5  15]  17-[5  8]  49-[-0  8]  30-[-0  5]  32-[-0  4]  63-[-0  13]  57-[-0  3]  28-[6  15]  5-[5  14]  28-[4  15]  7-[-0  9]  8-[-0  5] -> 8
 56-[-0  11]  1-[-0  2]  37-[11  15]  61-[1  12]  21-[7  16]  3-[1  15]  1-[-0  13]  27-[10  14]  23-[-0  1]  7-[-0  14]  60-[12  15]  61-[3  9]  27-[7  16]  46-[2  14]  39-[-0  11]  44-[-0  6]  6-[-0  12]  58-[1  13]  1-[-0  7]  62-[-0  13]  18-[6  16]  63-[-0  13] -> 8
 54-[4  7]  9-[0  13]  32-[-0  4]  26-[4  16]  4-[10  14]  25-[2  14]  34-[1  11]  34-[2  12]  21-[8  16]  26-[13  16]  49-[-0  12]  22-[6  10]  29-[7  13]  62-[-0  13]  57-[-0  10]  21-[13  16]  26-[7  16]  1-[-0  6]  1-[-0  8]  49-[-0  3]  24-[-0  1]  21-[9  16] -> 8
 61-[2  10]  20-[1  6]  50-[2  13]  34-[2  15]  39-[-0  3]  52-[4  11]  22-[2  10]  18-[6  16]  11-[3  15]  10-[8  12]  54-[3  10]  40-[-0  3]  46-[2  10]  35-[9  16]  21-[8  16]  60-[10  16]  30-[-0  6]  36-[7  16]  6-[-0  3]  38-[-0  6]  21-[1  16]  45-[9  16] -> 8
 41-[-0  8]  3-[3  10]  7-[-0  10]  41-[-0  3]  35-[1  11]  59-[3  16]  45-[8  16]  19-[1  4]  18-[2  15]  8-[-0  12]  32-[-0  7]  51-[3  13]  51-[3  12]  22-[-0  3]  37-[9  16]  26-[4  16]  34-[5  14]  55-[-0  11]  32-[-0  7]  16-[-0  16]  47-[-0  8]  9-[2  10] -> 8
 46-[-0  6]  4-[9  11]  63-[-0  9]  47-[-0  5]  59-[1  12]  18-[12  16]  60-[4  14]  50-[-0  14]  19-[1  11]  50-[-0  8]  45-[9  13]  51-[-0  11]  12-[2  8]  17-[-0  6]  42-[-0  4]  11-[1  16]  16-[-0  4]  38-[1  7]  1-[-0  6]  44-[2  14]  50-[-0  15]  29-[5  16] -> 9
 62-[-0  4]  7-[2  16]  2-[-0  12]  48-[-0  9]  34-[3  14]  38-[-0  8]  63-[-0  11]  49-[-0  13]  29-[12  16]  37-[7  16]  17-[5  13]  53-[3  7]  17-[3  11]  54-[-0  9]  29-[9  16]  62-[-0  10]  50-[-0  3]  4-[10  16]  27-[2  15]  14-[14  16]  56-[-0  10]  13-[3  15] -> 9
 60-[5  15]  32-[-0  5]  25-[1  14]  14-[11  16]  41-[-0  10]  30-[3  9]  43-[0  8]  23-[-0  1]  27-[9  16]  58-[-0  7]  14-[9  13]  51-[3  15]  63-[-0  7]  23-[-0  14]  42-[-0  8]  50-[-0  12]  14-[4  13]  55-[-0  4]  34-[2  15]  42-[-0  7]  3-[4  15]  53-[-0  7] -> 9
 34-[7  9]  13-[3  13]  9-[-0  16]  35-[6  8]  59-[1  7]  23-[-0  16]  54-[-0  16]  59-[2  10]  19-[2  10]  19-[2  10]  7-[1  8]  27-[3  15]  42-[-0  1]  61-[3  13]  23-[-0  13]  38-[-0  11]  13-[10  16]  20-[2  8]  32-[-0  8]  37-[10  16]  37-[10  16]  32-[-0  2] -> 9
 4-[3  16]  13-[14  16]  62-[-0  9]  57-[-0  1]  21-[7  13]  3-[3  4]  15-[-0  9]  54-[-0  7]  41-[-0  10]  56-[-0  4]  11-[9  16]  45-[8  16]  1-[-0  6]  8-[-0  11]  54-[-0  8]  61-[2  6]  53-[7  16]  58-[-0  6]  53-[7  14]  53-[8  15]  20-[13  15]  12-[6  15] -> 9
 7-[-0  13]  61-[1  16]  11-[3  16]  46-[1  10]  35-[-0  3]  59-[0  9]  45-[12  16]  6-[5  14]  46-[1  16]  3-[3  15]  24-[-0  11]  62-[-0  15]  60-[1  16]  56-[-0  6]  22-[-0  10]  4-[1  15]  18-[2  15]  38-[1  10]  48-[-0  3]  30-[0  11]  33-[-0  13]  53-[10  16] -> 9
 58-[-0  12]  50-[-0  13]  42-[-0  5]  39-[-0  4]  53-[2  7]  41-[-0  3]  63-[-0  4]  20-[2  13]  3-[1  13]  32-[-0  14]  25-[1  13]  27-[10  15]  56-[-0  6]  58-[-0  1]  53-[3  13]  15-[2  5]  23-[-0  7]  4-[6  15]  37-[5  16]  44-[1  15]  35-[3  10]  23-[-0  1] -> 9
 26-[4  15]  61-[2  10]  55-[-0  13]  10-[3  16]  20-[-0  13]  41-[-0  1]  46-[-0  16]  48-[-0  4]  48-[-0  13]  46-[-0  6]  47-[-0  10]  52-[5  16]  62-[-0  1]  51-[-0  13]  47-[-0  8]  16-[-0  12]  15-[1  5]  38-[0  3]  13-[5  14]  29-[6  16]  14-[7  16]  9-[-0  7] -> 9
 19-[1  11]  41-[-0  12]  16-[-0  15]  30-[1  14]  51-[3  12]  18-[13  16]  13-[12  16]  49-[-0  16]  47-[-0  14]  45-[1  12]  4-[8  16]  34-[6  16]  44-[15  16]  60-[9  15]  25-[5  11]  16-[-0  16]  3-[5  14]  23-[-0  13]  24-[-0  15]  3-[3  16]  15-[-0  1]  41-[-0  9] -> 9
 47-[-0  3]  62-[-0  14]  4-[1  10]  62-[-0  16]  7-[-0  4]  52-[4  14]  35-[1  16]  61-[5  10]  58-[-0  12]  45-[10  12]  45-[7  12]  43-[-0  8]  19-[2  12]  23-[-0  1]  55-[-0  8]  3-[-0  3]  52-[4  9]  48-[-0  7]  48-[-0  10]  41-[-0  11]  40-[-0  12]  45-[3  12] -> 9
 8-[-0  8]  17-[0  4]  26-[14  16]  60-[1  11]  13-[3  12]  10-[2  15]  63-[-0  15]  42-[-0  13]  59-[2  16]  53-[-0  13]  51-[8  15]  61-[-0  6]  28-[10  16]  24-[-0  16]  28-[3  16]  28-[14  16]  44-[4  16]  2-[2  12]  13-[1  14]  27-[4  16]  54-[-0  16]  54-[-0  14] -> 9
 39-[-0  7]  10-[1  14]  57-[-0  8]  58-[5  9]  51-[6  16]  62-[-0  4]  1-[-0  12]  49-[-0  10]  2-[1  15]  54-[-0  5]  25-[6  16]  42-[-0  6]  35-[7  12]  46-[-0  13]  56-[-0  15]  55-[-0  3]  11-[6  11]  1-[-0  13]  2-[2  7]  48-[-0  14]  19-[4  16]  22-[9  13] -> 9
 43-[-0  6]  45-[15  16]  4-[7  14]  51-[-0  4]  39-[-0  11]  29-[3  16]  6-[6  8]  34-[-0  9]  23-[-0  14]  15-[-0  11]  30-[0  13]  41-[-0  14]  54-[-0  11]  15-[-0  14]  34-[-0  16]  14-[4  12]  29-[2  16]  16-[-0  6]  11-[3  13]  30-[0  3]  46-[2  8]  3-[2  14] -> 9
 5-[7  13]  30-[0  9]  27-[9  13]  11-[3  11]  52-[4  10]  62-[-0  3]  4-[4  15]  5-[2  15]  41-[-0  3]  33-[-0  7]  17-[6  11]  36-[9  16]  33-[-0  16]  15-[-0  2]  21-[6  14]  24-[-0  3]  9-[1  14]  36-[2  15]  34-[0  2]  53-[-0  14]  56-[-0  1]  8-[-0  4] -> 9
 50-[-0  8]  15-[2  9]  56-[-0  6]  50-[-0  10]  19-[4  12]  18-[15  16]  56-[-0  11]  37-[6  16]  51-[-0  13]  28-[8  16]  33-[5  14]  31-[-0  1]  29-[8  16]  46-[-0  8]  9-[-0  14]  59-[0  4]  58-[-0  6]  16-[-0  8]  13-[8  14]  39-[-0  3]  53-[7  16]  55-[-0  11] -> 9
 35-[-0  7]  41-[-0  16]  29-[3  16]  48-[-0  11]  12-[5  11]  20-[7  16]  61-[1  15]  51-[-0  13]  14-[2  12]  28-[1  16]  4-[3  16]  14-[1  16]  34-[-0  9]  44-[2  5]  62-[-0  16]  45-[9  16]  20-[5  15]  44-[2  10]  57-[-0  1]  52-[2  13]  23-[-0  12]  19-[3  15] -> 9
 24-[-0  10]  14-[13  16]  15-[1  3]  47-[-0  10]  41-[-0  15]  59-[0  3]  49-[-0  7]  46-[-0  4]  25-[5  11]  45-[2  15]  58-[-0  2]  34-[7  16]  56-[-0  12]  33-[5  9]  27-[1  12]  1-[-0  3]  24-[-0  15]  8-[-0  3]  52-[6  16]  60-[3  16]  35-[4  16]  47-[-0  9] -> 9
 61-[9  15]  51-[2  6]  7-[-0  12]  1-[-0  4]  49-[-0  5]  13-[6  16]  29-[3  16]  52-[-0  16]  48-[-0  14]  5-[1  8]  21-[15  16]  58-[1  14]  52-[-0  1]  59-[4  16]  50-[4  16]  57-[-0  16]  15-[-0  12]  60-[3  16]  29-[5  16]  11-[4  7]  32-[-0  6]  30-[1  9] -> 9
 4-[3  16]  47-[-0  14]  13-[2  13]  38-[-0  8]  30-[1  15]  50-[-0  8]  37-[3  16]  3-[-0  13]  50-[-0  9]  59-[-0  3]  6-[4  13]  26-[10  16]  55-[-0  10]  12-[8  15]  28-[2  16]  61-[5  16]  2-[-0  6]  44-[2  7]  15-[0  15]  49-[-0  8]  63-[-0  6]  56-[-0  4] -> 9
 29-[15  16]  7-[-0  14]  32-[-0  10]  10-[7  16]  13-[7  15]  23-[-0  13]  27-[9  16]  3-[6  14]  24-[-0  16]  15-[-0  14]  38-[-0  8]  39-[-0  5]  52-[7  16]  25-[5  8]  49-[-0  11]  4-[10  13]  2-[0  9]  5-[10  12]  4-[7  15]  51-[4  9]  55-[-0  16]  19-[0  12] -> 9
 19-[1  8]  20-[1  5]  33-[-0  14]  42-[-0  10]  20-[3  11]  29-[7  15]  54-[-0  13]  11-[5  14]  22-[2  13]  28-[5  16]  7-[-0  6]  29-[11  16]  37-[2  15]  37-[10  16]  62-[-0  16]  2-[-0  2]  4-[8  16]  10-[1  8]  41-[-0  2]  51-[-0  1]  7-[-0  10]  48-[-0  5] -> 9
 45-[1  10]  8-[-0  13]  51-[2  5]  55-[-0  2]  29-[9  16]  44-[-0  16]  22-[1  7]  57-[-0  8]  23-[-0  5]  52-[-0  13]  24-[-0  -0]  56-[-0  4]  23-[-0  1]  56-[-0  2]  40-[-0  12]  52-[-0  6]  52-[-0  13]  61-[3  14]  18-[3  16]  10-[11  16]  15-[-0  15]  63-[-0  15] -> 9
 57-[-0  3]  49-[-0  8]  16-[-0  1]  13-[1  16]  46-[1  4]  22-[3  13]  33-[-0  6]  20-[12  15]  43-[-0  6]  22-[-0  16]  24-[-0  8]  18-[3  15]  23-[-0  12]  63-[-0  15]  60-[11  15]  2-[0  4]  22-[-0  5]  7-[-0  1]  10-[4  15]  22-[-0  6]  53-[5  12]  17-[3  15] -> 9
 7-[-0  16]  4-[6  13]  42-[-0  8]  39-[-0  13]  40-[-0  1]  48-[-0  11]  19-[-0  4]  41-[-0  6]  53-[8  12]  46-[11  13]  37-[6  12]  1-[-0  1]  21-[5  16]  33-[-0  6]  8-[-0  2]  3-[4  15]  9-[1  4]  45-[4  10]  25-[-0  8]  48-[-0  11]  12-[1  13]  34-[-0  2] -> 9
 61-[1  9]  33-[7  13]  40-[-0  5]  55-[-0  9]  39-[-0  4]  22-[4  15]  44-[7  14]  47-[-0  14]  14-[9  16]  20-[-0  6]  28-[2  14]  63-[-0  7]  50-[-0  14]  53-[3  14]  52-[3  16]  58-[-0  1]  53-[2  13]  40-[-0  12]  20-[-0  4]  38-[0  13]  15-[2  6]  58-[-0  10] -> 9
 52-[2  7]  24-[-0  15]  22-[5  9]  24-[-0  11]  29-[13  16]  34-[0  7]  35-[3  9]  4-[12  14]  41-[-0  2]  4-[5  14]  30-[0  3]  7-[-0  7]  36-[5  15]  53-[-0  15]  62-[-0  9]  48-[-0  14]  35-[3  7]  2-[2  9]  19-[-0  9]  26-[6  16]  44-[8  16]  31-[-0  12] -> 9
 11-[2  6]  24-[-0  8]  25-[-0  2]  13-[9  14]  35-[4  14]  7-[-0  16]  43-[-0  16]  30-[5  13]  14-[-0  15]  22-[3  13]  11-[1  8]  54-[3  15]  18-[8  16]  32-[-0  12]  61-[2  16]  13-[12  14]  6-[-0  13]  50-[7  13]  34-[-0  4]  11-[1  12]  62-[-0  14]  49-[-0  6] -> 9
ACCURACY on training set 99

TEST ACCURACY 16.543
