best on training set at iteration 0:  45.9
best on training set at iteration 100:  47.1
best on training set at iteration 200:  48
best on training set at iteration 300:  49.4
best on training set at iteration 400:  50.2
best on training set at iteration 500:  51.5
best on training set at iteration 600:  52.6
best on training set at iteration 700:  54.5
best on training set at iteration 800:  55.9
best on training set at iteration 900:  56.5
best on training set at iteration 1000:  56.8
best on training set at iteration 1100:  57.8
best on training set at iteration 1200:  59.4
best on training set at iteration 1300:  60.6
best on training set at iteration 1400:  61.8
best on training set at iteration 1500:  62.2
best on training set at iteration 1600:  62.8
best on training set at iteration 1700:  64
best on training set at iteration 1800:  64.4
best on training set at iteration 1900:  65.2
best on training set at iteration 2000:  65.9
best on training set at iteration 2100:  66.3
best on training set at iteration 2200:  67.1
best on training set at iteration 2300:  67.9
best on training set at iteration 2400:  68.8
best on training set at iteration 2500:  69.8
best on training set at iteration 2600:  71
best on training set at iteration 2700:  71.4
best on training set at iteration 2800:  71.7
best on training set at iteration 2900:  71.9
best on training set at iteration 3000:  72.2
best on training set at iteration 3100:  72.4
best on training set at iteration 3200:  73.1
best on training set at iteration 3300:  73.9
best on training set at iteration 3400:  74.1
best on training set at iteration 3500:  74.6
best on training set at iteration 3600:  75.2
best on training set at iteration 3700:  75.5
best on training set at iteration 3800:  75.7
best on training set at iteration 3900:  76.1
best on training set at iteration 4000:  76.3
best on training set at iteration 4100:  76.6
best on training set at iteration 4200:  76.9
best on training set at iteration 4300:  77.2
best on training set at iteration 4400:  77.5
best on training set at iteration 4500:  77.8
best on training set at iteration 4600:  78.2
best on training set at iteration 4700:  78.4
best on training set at iteration 4800:  78.4
best on training set at iteration 4900:  78.7
best on training set at iteration 5000:  78.9
best on training set at iteration 5100:  78.9
best on training set at iteration 5200:  79.1
best on training set at iteration 5300:  79.3
best on training set at iteration 5400:  79.5
best on training set at iteration 5500:  80
best on training set at iteration 5600:  80.3
best on training set at iteration 5700:  80.4
best on training set at iteration 5800:  80.6
best on training set at iteration 5900:  80.6
best on training set at iteration 6000:  80.6
best on training set at iteration 6100:  80.8
best on training set at iteration 6200:  80.9
best on training set at iteration 6300:  81.1
best on training set at iteration 6400:  81.1
best on training set at iteration 6500:  81.2
best on training set at iteration 6600:  81.4
best on training set at iteration 6700:  81.4
best on training set at iteration 6800:  81.5
best on training set at iteration 6900:  81.6
best on training set at iteration 7000:  81.7
best on training set at iteration 7100:  81.7
best on training set at iteration 7200:  81.8
best on training set at iteration 7300:  82
best on training set at iteration 7400:  82
best on training set at iteration 7500:  82.5
best on training set at iteration 7600:  82.6
best on training set at iteration 7700:  82.6
best on training set at iteration 7800:  82.8
best on training set at iteration 7900:  83
best on training set at iteration 8000:  83.1
best on training set at iteration 8100:  83.2
best on training set at iteration 8200:  83.3
best on training set at iteration 8300:  83.5
best on training set at iteration 8400:  83.5
best on training set at iteration 8500:  83.6
best on training set at iteration 8600:  83.6
best on training set at iteration 8700:  83.7
best on training set at iteration 8800:  83.8
best on training set at iteration 8900:  83.8
best on training set at iteration 9000:  83.9
best on training set at iteration 9100:  84
best on training set at iteration 9200:  84.1
best on training set at iteration 9300:  84.1
best on training set at iteration 9400:  84.3
best on training set at iteration 9500:  84.3
best on training set at iteration 9600:  84.3
best on training set at iteration 9700:  84.4
best on training set at iteration 9800:  84.6
best on training set at iteration 9900:  84.8

 3-[5  10]  45-[3  7]  54-[2  7]  59-[11  15]  56-[-0  9]  23-[-0  5]  20-[1  5] -> 0
 34-[8  16]  38-[2  12]  41-[1  10]  63-[-0  12]  24-[-0  16]  57-[-0  8]  2-[1  11] -> 0
 9-[-0  5]  24-[-0  6]  17-[1  3]  58-[3  14]  17-[1  13]  3-[-0  5]  8-[-0  16] -> 0
 50-[11  15]  45-[7  16]  28-[-0  3]  12-[5  13]  52-[7  14]  24-[-0  13]  20-[1  12] -> 0
 59-[2  14]  58-[-0  9]  35-[5  13]  40-[-0  4]  6-[-0  3]  9-[1  9]  21-[4  14] -> 0
 15-[-0  9]  6-[-0  10]  27-[-0  9]  61-[-0  12]  5-[-0  12]  42-[1  16]  36-[-0  10] -> 0
 41-[0  9]  31-[-0  14]  15-[-0  14]  7-[-0  12]  1-[-0  1]  35-[-0  2]  34-[8  16] -> 0
 34-[6  9]  29-[3  15]  6-[-0  14]  53-[2  11]  42-[5  15]  41-[1  13]  59-[13  16] -> 0
 11-[3  15]  31-[-0  2]  20-[0  14]  49-[-0  16]  53-[5  16]  46-[3  13]  17-[1  7] -> 0
 1-[-0  4]  33-[4  10]  3-[7  16]  52-[9  16]  51-[6  16]  52-[1  13]  7-[-0  15] -> 0
 25-[2  13]  44-[7  12]  41-[4  7]  52-[3  13]  50-[1  14]  33-[4  15]  7-[-0  2] -> 0
 21-[4  15]  48-[-0  12]  8-[-0  14]  36-[-0  2]  20-[-0  14]  34-[4  16]  7-[-0  12] -> 0
 60-[3  16]  37-[2  14]  29-[2  10]  34-[5  13]  53-[3  16]  24-[-0  2]  17-[-0  16] -> 0
 24-[-0  14]  23-[-0  16]  62-[-0  7]  26-[4  16]  36-[-0  8]  42-[4  16]  39-[-0  10] -> 0
 3-[9  16]  63-[-0  2]  29-[5  13]  34-[2  14]  1-[-0  13]  45-[3  15]  51-[2  14] -> 0
 12-[5  16]  61-[4  13]  9-[-0  9]  25-[1  9]  1-[-0  15]  48-[-0  13]  29-[8  15] -> 1
 13-[4  15]  50-[-0  12]  12-[8  16]  39-[-0  7]  60-[7  13]  39-[-0  10]  42-[5  13] -> 1
 45-[6  13]  52-[6  9]  14-[-0  3]  33-[-0  15]  29-[2  13]  17-[-0  7]  4-[11  14] -> 1
 39-[-0  15]  19-[11  16]  59-[3  16]  63-[-0  10]  17-[6  14]  9-[-0  8]  8-[-0  13] -> 1
 30-[-0  6]  27-[4  15]  5-[2  8]  21-[10  16]  35-[11  14]  30-[-0  4]  44-[15  16] -> 1
 34-[6  12]  14-[-0  12]  23-[-0  10]  16-[-0  15]  42-[-0  10]  12-[1  16]  10-[-0  5] -> 1
 2-[0  8]  12-[14  16]  13-[4  16]  31-[-0  9]  32-[-0  8]  7-[-0  8]  13-[8  16] -> 1
 34-[-0  3]  11-[12  16]  4-[3  16]  20-[13  16]  9-[-0  9]  40-[-0  15]  58-[-0  3] -> 1
 47-[-0  11]  9-[-0  14]  19-[12  16]  59-[4  13]  49-[-0  2]  12-[9  16]  19-[14  16] -> 1
 49-[-0  1]  54-[-0  12]  4-[6  15]  20-[13  16]  41-[-0  8]  48-[-0  9]  24-[-0  15] -> 1
 28-[6  16]  30-[-0  13]  2-[-0  6]  58-[-0  8]  10-[-0  -0]  8-[-0  8]  3-[-0  5] -> 1
 3-[13  16]  49-[-0  -0]  26-[10  15]  18-[2  7]  7-[-0  5]  25-[-0  6]  59-[1  16] -> 1
 11-[5  16]  50-[0  10]  2-[1  5]  14-[-0  8]  61-[-0  6]  34-[0  12]  53-[9  16] -> 1
 26-[5  16]  39-[-0  13]  56-[-0  5]  49-[-0  11]  27-[15  16]  30-[-0  6]  58-[-0  11] -> 1
 13-[0  13]  19-[1  16]  22-[-0  3]  46-[-0  6]  19-[11  16]  23-[-0  14]  55-[-0  12] -> 1
 13-[-0  10]  2-[10  16]  5-[-0  15]  38-[-0  14]  7-[-0  3]  51-[3  16]  24-[-0  11] -> 2
 16-[-0  3]  19-[4  10]  8-[-0  14]  2-[5  14]  37-[6  16]  22-[-0  8]  7-[-0  16] -> 2
 35-[2  14]  39-[-0  7]  1-[-0  10]  33-[-0  2]  55-[0  4]  26-[-0  5]  6-[-0  4] -> 2
 45-[2  13]  1-[-0  16]  47-[-0  15]  35-[2  16]  47-[-0  16]  35-[6  13]  13-[-0  5] -> 2
 45-[-0  4]  11-[1  16]  47-[-0  10]  41-[0  7]  61-[1  16]  48-[-0  11]  32-[-0  15] -> 2
 60-[8  15]  39-[-0  6]  56-[-0  9]  52-[15  16]  60-[8  16]  20-[5  13]  30-[-0  1] -> 2
 17-[7  15]  61-[9  16]  52-[9  16]  53-[5  14]  49-[6  9]  12-[10  16]  52-[3  11] -> 2
 59-[10  16]  19-[-0  12]  41-[-0  14]  33-[-0  14]  28-[13  16]  53-[4  9]  40-[-0  7] -> 2
 9-[7  13]  39-[-0  4]  25-[-0  15]  25-[-0  12]  28-[1  15]  46-[-0  9]  61-[8  16] -> 2
 8-[-0  4]  14-[-0  13]  38-[-0  2]  61-[11  16]  45-[-0  16]  42-[-0  1]  6-[-0  7] -> 2
 18-[2  10]  6-[-0  2]  33-[-0  1]  48-[-0  3]  48-[-0  6]  34-[-0  6]  13-[-0  2] -> 2
 8-[-0  15]  7-[-0  3]  62-[2  16]  55-[0  10]  52-[2  16]  27-[-0  4]  31-[-0  6] -> 2
 53-[3  11]  32-[-0  16]  47-[-0  15]  14-[-0  6]  37-[-0  7]  45-[-0  5]  26-[1  5] -> 2
 32-[-0  2]  60-[2  10]  52-[1  16]  37-[-0  10]  37-[-0  6]  14-[-0  13]  20-[9  13] -> 2
 58-[12  16]  1-[0  12]  30-[-0  5]  23-[-0  8]  45-[-0  7]  26-[-0  9]  14-[-0  4] -> 2
 44-[2  14]  51-[2  13]  47-[-0  13]  8-[-0  3]  53-[5  16]  30-[-0  3]  16-[-0  9] -> 3
 60-[4  15]  61-[3  9]  51-[-0  4]  5-[-0  8]  49-[-0  2]  44-[-0  2]  44-[-0  11] -> 3
 10-[5  13]  22-[0  9]  17-[-0  13]  58-[5  12]  28-[6  16]  43-[-0  1]  18-[1  4] -> 3
 27-[4  16]  34-[-0  15]  36-[1  16]  11-[8  10]  21-[4  16]  16-[-0  7]  54-[-0  2] -> 3
 35-[12  16]  53-[9  16]  21-[2  12]  35-[9  16]  16-[-0  16]  38-[1  14]  22-[-0  2] -> 3
 61-[2  12]  48-[-0  15]  36-[8  11]  11-[6  15]  18-[2  15]  3-[6  16]  54-[2  14] -> 3
 3-[9  16]  19-[-0  1]  21-[8  13]  5-[6  16]  12-[6  16]  25-[-0  13]  28-[15  16] -> 3
 20-[9  16]  23-[-0  7]  60-[8  16]  14-[-0  6]  62-[0  9]  31-[-0  3]  62-[-0  6] -> 3
 3-[10  15]  36-[6  16]  2-[4  14]  47-[-0  3]  41-[-0  2]  63-[-0  16]  24-[-0  11] -> 3
 29-[1  11]  16-[-0  16]  59-[13  16]  27-[15  16]  7-[-0  11]  53-[14  16]  43-[-0  5] -> 3
 49-[-0  6]  25-[-0  15]  47-[-0  13]  51-[2  14]  34-[-0  7]  7-[-0  16]  36-[7  16] -> 3
 34-[9  15]  23-[-0  1]  19-[4  9]  63-[-0  8]  27-[2  16]  22-[-0  9]  8-[-0  14] -> 3
 3-[8  11]  8-[-0  7]  12-[6  15]  26-[-0  7]  60-[8  14]  27-[2  3]  25-[-0  12] -> 3
 50-[-0  13]  63-[-0  7]  26-[-0  4]  62-[-0  12]  37-[3  16]  41-[-0  2]  35-[-0  10] -> 3
 60-[8  16]  7-[-0  3]  46-[5  13]  18-[-0  14]  35-[1  14]  57-[-0  15]  34-[-0  2] -> 3
 13-[4  10]  6-[-0  14]  54-[-0  16]  34-[7  14]  41-[4  15]  18-[8  16]  20-[-0  11] -> 4
 5-[1  15]  50-[-0  10]  38-[5  12]  34-[6  16]  36-[10  16]  59-[2  11]  32-[-0  15] -> 4
 23-[-0  15]  31-[-0  6]  25-[6  16]  47-[-0  3]  7-[-0  9]  26-[4  16]  53-[-0  5] -> 4
 9-[-0  11]  6-[-0  7]  43-[8  15]  19-[2  16]  8-[-0  14]  1-[-0  9]  11-[7  14] -> 4
 7-[-0  12]  15-[-0  15]  44-[4  15]  41-[-0  11]  16-[-0  10]  20-[1  14]  25-[6  14] -> 4
 48-[-0  2]  58-[-0  7]  13-[-0  10]  47-[-0  7]  46-[-0  14]  55-[-0  7]  29-[1  16] -> 4
 44-[7  16]  14-[-0  8]  63-[-0  6]  41-[2  12]  15-[-0  10]  2-[-0  7]  54-[-0  6] -> 4
 26-[7  16]  21-[5  12]  11-[6  10]  45-[-0  6]  15-[1  11]  26-[11  16]  46-[-0  12] -> 4
 7-[-0  5]  53-[8  15]  26-[7  16]  7-[-0  2]  25-[-0  5]  42-[15  16]  24-[-0  13] -> 4
 37-[10  16]  59-[4  13]  21-[10  14]  5-[1  15]  45-[3  16]  48-[-0  7]  12-[4  16] -> 4
 60-[1  11]  37-[2  14]  26-[13  16]  38-[-0  13]  58-[-0  9]  39-[-0  1]  50-[-0  2] -> 4
 29-[4  16]  42-[10  16]  46-[-0  14]  4-[5  16]  29-[1  15]  61-[-0  2]  10-[-0  7] -> 4
 2-[-0  7]  49-[-0  14]  20-[-0  12]  40-[-0  11]  22-[2  12]  9-[-0  16]  7-[-0  10] -> 4
 55-[-0  3]  52-[12  16]  15-[-0  14]  53-[-0  8]  9-[-0  2]  46-[-0  10]  26-[10  16] -> 4
 41-[4  13]  42-[2  16]  41-[2  12]  62-[-0  14]  24-[-0  10]  48-[-0  6]  60-[5  16] -> 4
 45-[3  15]  15-[-0  3]  30-[-0  13]  56-[-0  13]  14-[-0  8]  21-[-0  15]  58-[2  7] -> 5
 63-[-0  3]  11-[3  16]  21-[-0  2]  60-[1  15]  4-[13  16]  38-[-0  16]  2-[1  12] -> 5
 63-[-0  5]  10-[4  16]  46-[-0  5]  36-[5  15]  52-[6  16]  22-[-0  6]  40-[-0  9] -> 5
 9-[-0  15]  52-[3  15]  28-[1  16]  19-[4  11]  26-[11  16]  56-[-0  8]  57-[-0  13] -> 5
 18-[5  16]  21-[-0  7]  42-[-0  12]  35-[-0  13]  6-[-0  10]  48-[-0  6]  62-[-0  8] -> 5
 8-[-0  15]  24-[-0  3]  28-[1  11]  30-[2  12]  40-[-0  11]  12-[1  6]  28-[3  14] -> 5
 34-[-0  5]  12-[9  15]  47-[-0  8]  20-[1  7]  54-[-0  12]  2-[9  16]  63-[-0  4] -> 5
 14-[1  7]  61-[-0  16]  40-[-0  1]  18-[4  16]  55-[-0  2]  21-[-0  15]  30-[0  3] -> 5
 50-[0  6]  54-[-0  16]  48-[-0  16]  44-[4  15]  58-[4  14]  26-[11  16]  19-[2  13] -> 5
 33-[-0  11]  20-[4  15]  16-[-0  4]  54-[1  5]  36-[-0  16]  22-[-0  1]  28-[1  9] -> 5
 36-[7  12]  44-[5  14]  21-[-0  4]  32-[-0  9]  20-[-0  15]  2-[5  12]  29-[-0  3] -> 5
 32-[-0  16]  14-[1  11]  15-[-0  5]  60-[1  13]  15-[-0  9]  26-[4  16]  33-[-0  8] -> 5
 48-[-0  8]  4-[8  16]  2-[7  13]  5-[6  16]  4-[1  16]  41-[-0  9]  24-[-0  4] -> 5
 54-[-0  15]  51-[7  11]  26-[7  16]  24-[-0  6]  56-[-0  15]  57-[-0  16]  41-[-0  9] -> 5
 5-[7  16]  62-[-0  13]  49-[-0  7]  13-[0  15]  48-[-0  5]  51-[6  15]  61-[-0  3] -> 5
 33-[2  9]  17-[1  4]  13-[-0  3]  5-[-0  8]  14-[-0  7]  60-[1  16]  35-[1  11] -> 6
 15-[-0  7]  61-[9  16]  2-[-0  7]  28-[-0  8]  8-[-0  11]  23-[-0  8]  15-[-0  16] -> 6
 28-[2  12]  15-[-0  8]  13-[5  15]  8-[-0  2]  3-[1  13]  3-[9  13]  49-[-0  6] -> 6
 24-[-0  13]  12-[1  10]  37-[8  12]  40-[-0  5]  41-[2  6]  34-[1  9]  46-[1  16] -> 6
 6-[-0  10]  41-[-0  6]  20-[-0  3]  23-[-0  10]  22-[-0  12]  21-[-0  11]  14-[-0  7] -> 6
 15-[-0  13]  53-[6  14]  36-[2  9]  50-[8  16]  51-[9  16]  3-[2  16]  5-[-0  1] -> 6
 13-[2  11]  18-[-0  14]  23-[-0  13]  21-[-0  8]  28-[5  16]  50-[7  12]  24-[-0  10] -> 6
 13-[1  16]  6-[-0  8]  55-[-0  5]  58-[0  4]  2-[0  11]  51-[4  15]  44-[7  11] -> 6
 22-[-0  4]  48-[-0  9]  32-[-0  8]  51-[3  16]  14-[-0  12]  30-[-0  2]  42-[7  16] -> 6
 3-[2  10]  13-[-0  8]  54-[11  16]  45-[4  16]  48-[-0  3]  47-[-0  5]  40-[-0  6] -> 6
 58-[-0  7]  53-[4  12]  9-[-0  8]  17-[4  10]  27-[1  5]  28-[-0  8]  61-[8  16] -> 6
 62-[3  12]  43-[8  16]  51-[4  16]  1-[-0  2]  45-[2  16]  30-[-0  2]  30-[-0  11] -> 6
 24-[-0  2]  21-[-0  4]  36-[15  16]  47-[-0  3]  6-[-0  5]  34-[15  16]  14-[-0  2] -> 6
 42-[11  16]  1-[-0  5]  48-[-0  2]  56-[-0  15]  17-[-0  7]  14-[-0  8]  20-[-0  9] -> 6
 52-[4  6]  24-[-0  11]  23-[-0  6]  51-[9  15]  49-[-0  11]  45-[5  10]  19-[5  14] -> 6
 10-[9  14]  2-[1  8]  48-[-0  4]  59-[11  13]  8-[-0  16]  10-[-0  14]  42-[2  12] -> 7
 45-[4  6]  49-[-0  6]  24-[-0  2]  19-[-0  7]  35-[14  16]  25-[0  2]  56-[-0  14] -> 7
 55-[-0  13]  9-[-0  2]  53-[-0  16]  59-[9  16]  37-[13  16]  54-[-0  1]  35-[10  16] -> 7
 13-[1  13]  22-[9  16]  49-[-0  1]  30-[3  16]  35-[6  15]  53-[-0  15]  21-[4  11] -> 7
 44-[9  16]  33-[2  8]  1-[-0  11]  11-[3  16]  46-[-0  12]  1-[-0  16]  4-[15  16] -> 7
 36-[10  16]  8-[-0  11]  23-[-0  12]  45-[-0  3]  53-[-0  15]  18-[-0  4]  49-[-0  13] -> 7
 19-[-0  11]  49-[-0  1]  51-[11  16]  33-[-0  15]  31-[-0  10]  16-[-0  12]  41-[0  5] -> 7
 10-[4  16]  14-[1  16]  37-[10  16]  54-[-0  5]  19-[-0  14]  54-[-0  9]  13-[2  16] -> 7
 56-[-0  2]  27-[10  14]  7-[-0  10]  34-[4  9]  22-[3  7]  8-[-0  6]  5-[10  16] -> 7
 29-[1  16]  20-[14  16]  5-[-0  5]  40-[-0  11]  62-[-0  7]  63-[-0  16]  62-[-0  12] -> 7
 8-[-0  16]  40-[-0  12]  59-[10  16]  42-[8  11]  5-[2  13]  28-[6  15]  22-[5  16] -> 7
 36-[12  16]  4-[7  16]  59-[3  16]  18-[-0  6]  10-[8  16]  49-[-0  11]  63-[-0  13] -> 7
 15-[-0  2]  37-[2  16]  26-[2  12]  19-[-0  8]  18-[-0  5]  23-[-0  3]  12-[1  10] -> 7
 44-[3  13]  43-[7  16]  2-[1  16]  5-[1  16]  28-[2  16]  3-[2  14]  22-[4  16] -> 7
 43-[10  14]  61-[-0  10]  36-[15  16]  30-[-0  12]  41-[1  10]  6-[1  8]  37-[2  16] -> 7
 53-[3  12]  2-[-0  -0]  36-[12  16]  59-[3  16]  59-[6  16]  16-[-0  1]  20-[-0  8] -> 8
 15-[-0  5]  58-[0  11]  11-[9  10]  2-[0  11]  43-[1  16]  63-[-0  8]  17-[4  13] -> 8
 15-[-0  12]  31-[-0  14]  48-[-0  5]  6-[-0  2]  35-[4  16]  44-[-0  14]  50-[14  16] -> 8
 47-[-0  12]  35-[9  16]  23-[-0  1]  29-[5  15]  21-[9  16]  22-[1  15]  58-[2  10] -> 8
 34-[2  14]  13-[12  16]  13-[2  16]  8-[-0  12]  53-[6  16]  31-[-0  1]  35-[5  16] -> 8
 53-[2  15]  45-[1  16]  58-[-0  14]  42-[4  15]  60-[7  16]  23-[-0  11]  13-[2  16] -> 8
 47-[-0  13]  10-[7  16]  4-[13  16]  43-[4  16]  16-[-0  6]  46-[-0  4]  13-[5  16] -> 8
 5-[-0  3]  57-[-0  16]  7-[-0  4]  39-[-0  5]  52-[1  9]  20-[10  13]  19-[-0  11] -> 8
 38-[-0  14]  8-[-0  14]  9-[-0  6]  46-[5  12]  29-[4  13]  31-[-0  4]  7-[-0  9] -> 8
 62-[-0  16]  57-[-0  10]  1-[-0  2]  3-[2  16]  45-[10  16]  41-[0  15]  1-[-0  5] -> 8
 6-[-0  3]  53-[4  16]  14-[-0  15]  63-[1  6]  34-[1  16]  25-[-0  6]  26-[1  13] -> 8
 37-[0  5]  54-[-0  8]  21-[10  16]  32-[-0  5]  1-[-0  7]  15-[-0  7]  54-[-0  14] -> 8
 4-[1  8]  50-[9  15]  11-[6  16]  24-[-0  8]  55-[-0  1]  28-[3  16]  15-[-0  9] -> 8
 10-[12  16]  48-[-0  1]  12-[3  10]  43-[4  8]  24-[-0  7]  33-[-0  8]  57-[-0  5] -> 8
 19-[2  7]  19-[2  15]  5-[6  9]  31-[-0  9]  10-[15  16]  63-[-0  16]  21-[8  16] -> 8
 41-[-0  15]  26-[5  13]  49-[-0  1]  31-[-0  1]  24-[-0  16]  36-[-0  15]  23-[-0  4] -> 9
 51-[0  15]  26-[2  13]  3-[2  14]  15-[7  14]  35-[-0  13]  11-[1  16]  5-[1  14] -> 9
 8-[-0  3]  42-[-0  4]  31-[-0  1]  10-[6  16]  3-[4  16]  24-[-0  14]  29-[5  16] -> 9
 44-[-0  7]  15-[-0  6]  52-[2  15]  21-[13  16]  29-[4  16]  33-[-0  12]  59-[5  16] -> 9
 19-[1  8]  62-[6  9]  54-[7  14]  7-[-0  14]  20-[1  8]  55-[-0  1]  36-[-0  11] -> 9
 17-[1  15]  56-[-0  5]  29-[10  16]  20-[4  6]  58-[6  11]  21-[12  16]  14-[4  15] -> 9
 36-[-0  6]  42-[-0  12]  33-[-0  9]  10-[3  16]  4-[9  14]  62-[-0  10]  18-[10  16] -> 9
 51-[8  10]  49-[-0  8]  55-[-0  9]  48-[-0  13]  4-[14  16]  30-[3  13]  39-[-0  13] -> 9
 26-[-0  10]  53-[8  16]  54-[-0  8]  54-[-0  3]  2-[7  16]  11-[14  16]  62-[0  8] -> 9
 56-[-0  13]  44-[2  9]  49-[-0  13]  59-[7  16]  51-[4  11]  56-[-0  3]  6-[-0  8] -> 9
 63-[-0  5]  30-[11  15]  20-[1  14]  21-[1  16]  60-[4  16]  35-[4  16]  33-[-0  6] -> 9
 62-[0  11]  9-[-0  14]  44-[-0  5]  47-[-0  4]  32-[-0  15]  21-[10  16]  13-[1  16] -> 9
 58-[4  10]  20-[7  15]  27-[8  16]  51-[3  15]  7-[-0  13]  6-[-0  5]  12-[11  16] -> 9
 17-[1  12]  27-[2  16]  16-[-0  4]  27-[7  16]  51-[2  16]  28-[1  16]  39-[-0  7] -> 9
 19-[4  7]  62-[2  16]  58-[7  16]  52-[8  15]  61-[1  6]  43-[-0  11]  62-[1  7] -> 9
ACCURACY on training set 84.9

TEST ACCURACY 69.7393
