best on training set at iteration 0:  40.5
best on training set at iteration 100:  41.1
best on training set at iteration 200:  41.2
best on training set at iteration 300:  41.5
best on training set at iteration 400:  42.4
best on training set at iteration 500:  42.5
best on training set at iteration 600:  42.6
best on training set at iteration 700:  43.7
best on training set at iteration 800:  43.9
best on training set at iteration 900:  44.2
best on training set at iteration 1000:  44.4
best on training set at iteration 1100:  44.8
best on training set at iteration 1200:  45.2
best on training set at iteration 1300:  45.4
best on training set at iteration 1400:  45.5
best on training set at iteration 1500:  46.2
best on training set at iteration 1600:  46.6
best on training set at iteration 1700:  46.7
best on training set at iteration 1800:  47.4
best on training set at iteration 1900:  47.5
best on training set at iteration 2000:  47.7
best on training set at iteration 2100:  47.7
best on training set at iteration 2200:  48.4
best on training set at iteration 2300:  48.5
best on training set at iteration 2400:  48.6
best on training set at iteration 2500:  49.3
best on training set at iteration 2600:  49.7
best on training set at iteration 2700:  49.8
best on training set at iteration 2800:  49.9
best on training set at iteration 2900:  50.2
best on training set at iteration 3000:  50.4
best on training set at iteration 3100:  51.2
best on training set at iteration 3200:  51.2
best on training set at iteration 3300:  51.3
best on training set at iteration 3400:  51.5
best on training set at iteration 3500:  52
best on training set at iteration 3600:  52
best on training set at iteration 3700:  52
best on training set at iteration 3800:  52.3
best on training set at iteration 3900:  52.4
best on training set at iteration 4000:  52.5
best on training set at iteration 4100:  52.8
best on training set at iteration 4200:  52.8
best on training set at iteration 4300:  53
best on training set at iteration 4400:  53.8
best on training set at iteration 4500:  53.8
best on training set at iteration 4600:  54
best on training set at iteration 4700:  54.2
best on training set at iteration 4800:  54.8
best on training set at iteration 4900:  55
best on training set at iteration 5000:  55.8
best on training set at iteration 5100:  55.9
best on training set at iteration 5200:  56
best on training set at iteration 5300:  56.2
best on training set at iteration 5400:  56.3
best on training set at iteration 5500:  56.7
best on training set at iteration 5600:  56.7
best on training set at iteration 5700:  56.7
best on training set at iteration 5800:  56.7
best on training set at iteration 5900:  56.8
best on training set at iteration 6000:  56.9
best on training set at iteration 6100:  57.1
best on training set at iteration 6200:  57.1
best on training set at iteration 6300:  57.2
best on training set at iteration 6400:  57.2
best on training set at iteration 6500:  57.5
best on training set at iteration 6600:  57.7
best on training set at iteration 6700:  57.8
best on training set at iteration 6800:  58.1
best on training set at iteration 6900:  58.2
best on training set at iteration 7000:  58.7
best on training set at iteration 7100:  58.7
best on training set at iteration 7200:  58.8
best on training set at iteration 7300:  58.8
best on training set at iteration 7400:  58.9
best on training set at iteration 7500:  59.1
best on training set at iteration 7600:  59.4
best on training set at iteration 7700:  59.4
best on training set at iteration 7800:  59.7
best on training set at iteration 7900:  59.7
best on training set at iteration 8000:  59.8
best on training set at iteration 8100:  60.4
best on training set at iteration 8200:  60.8
best on training set at iteration 8300:  60.9
best on training set at iteration 8400:  60.9
best on training set at iteration 8500:  61
best on training set at iteration 8600:  61
best on training set at iteration 8700:  61.7
best on training set at iteration 8800:  62.1
best on training set at iteration 8900:  62.8
best on training set at iteration 9000:  62.8
best on training set at iteration 9100:  62.9
best on training set at iteration 9200:  63.2
best on training set at iteration 9300:  63.5
best on training set at iteration 9400:  63.5
best on training set at iteration 9500:  63.6
best on training set at iteration 9600:  63.6
best on training set at iteration 9700:  63.7
best on training set at iteration 9800:  63.7
best on training set at iteration 9900:  63.9

 41-[4  15]  10-[13  16]  53-[1  10]  6-[-0  5]  62-[-0  14]  3-[8  15]  8-[-0  2]  40-[-0  4]  54-[-0  10]  43-[-0  6]  11-[4  16]  62-[-0  12]  26-[3  13]  22-[3  9]  26-[8  13]  3-[4  12]  31-[-0  16]  59-[10  14]  25-[1  15]  12-[12  15]  16-[-0  15]  7-[-0  3] -> 0
 16-[-0  12]  4-[1  11]  55-[-0  2]  36-[-0  7]  16-[-0  16]  12-[2  16]  55-[-0  6]  33-[-0  8]  27-[3  15]  18-[2  16]  2-[-0  5]  53-[7  16]  4-[6  13]  38-[6  16]  34-[3  9]  2-[-0  12]  30-[2  16]  42-[6  13]  56-[-0  6]  6-[-0  12]  38-[5  14]  52-[5  16] -> 0
 30-[1  12]  11-[3  11]  45-[6  16]  9-[2  15]  17-[1  15]  14-[-0  14]  42-[9  16]  14-[-0  14]  31-[-0  16]  29-[3  16]  24-[-0  14]  13-[5  13]  53-[1  10]  34-[5  13]  57-[-0  16]  46-[1  16]  29-[3  15]  39-[-0  16]  5-[0  8]  2-[8  12]  52-[11  16]  57-[-0  8] -> 0
 21-[5  11]  59-[9  14]  27-[-0  14]  38-[6  9]  47-[-0  7]  49-[-0  3]  28-[-0  6]  44-[-0  11]  59-[3  15]  4-[11  15]  59-[5  16]  25-[2  9]  45-[4  13]  39-[-0  7]  48-[-0  5]  8-[-0  1]  60-[9  12]  10-[10  13]  33-[0  15]  9-[-0  11]  7-[-0  10]  2-[1  12] -> 0
 15-[-0  5]  10-[6  16]  28-[-0  6]  60-[2  16]  51-[3  14]  8-[-0  6]  55-[-0  6]  3-[1  15]  13-[3  16]  9-[-0  3]  11-[6  16]  7-[-0  1]  24-[-0  12]  55-[-0  6]  28-[-0  6]  51-[1  16]  7-[-0  9]  63-[-0  11]  35-[-0  8]  51-[6  15]  34-[5  14]  21-[5  14] -> 0
 59-[5  15]  12-[7  16]  63-[-0  15]  36-[-0  11]  14-[5  10]  31-[-0  6]  36-[-0  13]  29-[2  11]  27-[4  6]  44-[11  16]  36-[-0  5]  14-[1  11]  52-[12  16]  39-[-0  7]  39-[-0  -0]  40-[-0  12]  63-[-0  3]  39-[-0  2]  61-[2  5]  3-[2  10]  20-[1  14]  62-[-0  2] -> 0
 9-[-0  14]  47-[-0  4]  40-[-0  9]  62-[-0  15]  5-[1  5]  38-[7  16]  40-[-0  5]  23-[-0  3]  46-[3  14]  53-[4  16]  3-[4  16]  13-[9  16]  21-[8  16]  34-[2  14]  44-[-0  4]  39-[-0  5]  23-[-0  4]  32-[-0  16]  39-[-0  9]  23-[-0  3]  52-[1  16]  1-[-0  8] -> 0
 35-[-0  7]  61-[4  16]  16-[-0  5]  45-[6  13]  19-[4  16]  33-[3  16]  37-[7  10]  31-[-0  2]  2-[1  8]  60-[9  16]  51-[5  13]  17-[2  10]  31-[-0  7]  42-[13  15]  23-[-0  16]  21-[11  16]  13-[4  9]  50-[13  14]  9-[-0  12]  55-[-0  12]  16-[-0  2]  2-[2  6] -> 0
 20-[-0  7]  14-[-0  1]  26-[5  16]  15-[-0  4]  18-[6  16]  59-[4  13]  54-[3  10]  11-[5  16]  9-[-0  1]  40-[-0  6]  16-[-0  10]  30-[7  16]  15-[-0  10]  33-[6  11]  34-[3  16]  18-[3  16]  49-[-0  4]  6-[-0  11]  24-[-0  12]  60-[11  16]  32-[-0  6]  27-[1  15] -> 0
 12-[2  16]  49-[0  11]  32-[-0  2]  32-[-0  9]  63-[-0  16]  50-[2  16]  55-[-0  10]  2-[2  12]  30-[1  9]  15-[-0  8]  16-[-0  8]  32-[-0  2]  47-[-0  15]  43-[-0  15]  34-[2  16]  5-[-0  10]  57-[-0  16]  46-[4  14]  57-[-0  4]  23-[-0  14]  56-[-0  8]  33-[1  14] -> 0
 30-[2  9]  15-[-0  8]  44-[1  13]  19-[2  5]  19-[1  6]  52-[10  13]  2-[3  8]  26-[2  16]  14-[-0  1]  6-[-0  7]  22-[0  16]  16-[-0  15]  17-[1  5]  48-[-0  13]  59-[5  14]  4-[1  12]  20-[0  7]  45-[5  16]  29-[2  13]  54-[-0  9]  12-[13  15]  11-[2  16] -> 0
 59-[2  16]  8-[-0  11]  58-[1  12]  17-[-0  6]  7-[-0  2]  48-[-0  5]  24-[-0  16]  54-[-0  12]  47-[-0  13]  15-[-0  5]  21-[6  13]  39-[-0  4]  63-[-0  1]  49-[-0  2]  56-[-0  10]  5-[3  15]  49-[-0  11]  62-[-0  6]  10-[3  15]  28-[-0  1]  20-[-0  9]  49-[-0  16] -> 0
 48-[-0  2]  23-[-0  3]  14-[-0  3]  49-[1  4]  6-[-0  10]  11-[8  12]  3-[9  14]  46-[2  8]  20-[0  2]  14-[-0  5]  17-[-0  16]  26-[4  10]  41-[3  7]  4-[8  15]  43-[-0  14]  13-[2  12]  9-[-0  3]  52-[4  16]  23-[-0  8]  5-[0  6]  47-[-0  14]  62-[-0  8] -> 0
 57-[-0  11]  19-[4  13]  19-[1  12]  53-[2  16]  4-[10  16]  59-[3  16]  55-[-0  4]  33-[2  8]  37-[2  9]  54-[3  13]  63-[-0  11]  57-[-0  1]  55-[-0  12]  9-[-0  1]  34-[6  10]  48-[-0  14]  5-[0  7]  6-[-0  3]  8-[-0  4]  2-[1  9]  51-[11  16]  17-[5  11] -> 0
 26-[12  16]  9-[-0  3]  6-[0  8]  13-[6  16]  4-[6  16]  5-[3  12]  59-[12  16]  5-[4  10]  58-[2  9]  26-[1  16]  59-[3  16]  43-[-0  2]  3-[7  15]  54-[-0  14]  60-[6  15]  40-[-0  7]  53-[5  16]  20-[6  15]  20-[4  13]  49-[1  12]  11-[2  16]  62-[-0  15] -> 0
 22-[4  15]  4-[3  11]  6-[-0  10]  63-[-0  16]  27-[-0  15]  61-[1  5]  35-[-0  12]  50-[10  15]  6-[-0  4]  8-[-0  10]  30-[6  9]  3-[7  15]  57-[-0  12]  19-[2  10]  21-[1  13]  19-[1  15]  48-[-0  11]  53-[12  15]  23-[-0  1]  11-[6  16]  31-[-0  14]  35-[-0  12] -> 0
 31-[-0  1]  7-[-0  11]  10-[6  16]  4-[3  13]  7-[-0  10]  45-[8  14]  29-[2  13]  40-[-0  8]  49-[-0  14]  22-[-0  7]  44-[-0  1]  24-[-0  5]  54-[0  3]  13-[3  7]  12-[6  16]  13-[1  8]  16-[-0  16]  15-[-0  14]  29-[8  14]  4-[1  14]  51-[9  15]  51-[2  14] -> 0
 16-[-0  13]  38-[3  10]  57-[-0  15]  26-[4  16]  53-[9  16]  24-[-0  10]  13-[7  14]  12-[3  9]  29-[9  16]  40-[-0  3]  23-[-0  3]  46-[1  4]  55-[-0  7]  18-[12  16]  24-[-0  5]  6-[-0  3]  58-[0  7]  47-[-0  5]  38-[1  12]  5-[0  10]  35-[-0  16]  52-[2  12] -> 0
 51-[6  12]  22-[2  5]  45-[5  14]  8-[-0  5]  47-[-0  7]  49-[-0  16]  3-[13  16]  52-[4  15]  17-[1  3]  62-[-0  5]  49-[-0  14]  39-[-0  6]  18-[3  15]  4-[1  15]  58-[1  9]  9-[-0  4]  32-[-0  16]  55-[-0  10]  12-[7  16]  31-[-0  14]  31-[-0  4]  18-[11  16] -> 0
 42-[6  13]  57-[-0  5]  51-[5  16]  35-[3  7]  36-[-0  1]  44-[-0  6]  51-[6  16]  39-[-0  7]  26-[11  16]  25-[0  13]  50-[1  16]  43-[5  15]  60-[10  15]  9-[-0  11]  14-[1  3]  4-[5  16]  47-[-0  16]  15-[-0  8]  25-[0  9]  12-[9  14]  40-[-0  7]  28-[-0  9] -> 0
 45-[15  16]  34-[2  16]  63-[-0  9]  47-[-0  2]  9-[-0  2]  36-[-0  1]  7-[-0  13]  41-[0  7]  19-[1  14]  36-[-0  13]  56-[-0  10]  60-[2  16]  38-[7  15]  38-[1  15]  61-[1  10]  13-[6  13]  16-[-0  13]  34-[15  16]  19-[6  13]  50-[3  15]  48-[-0  12]  25-[-0  5] -> 0
 43-[-0  16]  29-[1  13]  31-[-0  7]  32-[-0  10]  23-[-0  3]  16-[-0  6]  31-[-0  11]  32-[-0  16]  21-[9  14]  56-[-0  14]  24-[-0  6]  53-[9  16]  57-[-0  14]  34-[5  16]  19-[1  4]  59-[5  15]  63-[-0  1]  3-[4  15]  58-[1  5]  30-[5  12]  38-[2  12]  40-[-0  8] -> 0
 11-[3  14]  6-[-0  1]  59-[7  15]  58-[1  12]  53-[4  11]  58-[1  10]  27-[1  15]  62-[-0  8]  51-[7  14]  14-[-0  13]  18-[11  16]  40-[-0  2]  55-[-0  6]  11-[3  16]  6-[-0  16]  6-[-0  2]  13-[1  13]  4-[3  15]  60-[1  14]  19-[1  9]  42-[7  15]  50-[3  16] -> 0
 35-[-0  14]  37-[8  11]  42-[11  15]  1-[-0  14]  57-[-0  4]  40-[-0  10]  19-[-0  3]  22-[1  2]  4-[10  16]  49-[-0  3]  24-[-0  7]  20-[-0  10]  18-[2  8]  12-[3  14]  14-[-0  9]  26-[12  16]  57-[-0  13]  39-[-0  12]  7-[-0  10]  12-[3  13]  61-[2  11]  14-[-0  8] -> 0
 9-[-0  16]  51-[3  6]  38-[2  7]  25-[2  13]  40-[-0  1]  37-[14  16]  24-[-0  16]  61-[0  14]  36-[-0  11]  35-[-0  9]  17-[2  10]  37-[12  16]  9-[-0  1]  34-[3  12]  52-[3  16]  55-[-0  4]  42-[1  16]  31-[-0  15]  62-[-0  11]  14-[-0  1]  32-[-0  1]  51-[1  9] -> 0
 33-[3  6]  28-[-0  3]  40-[-0  8]  11-[12  16]  22-[2  14]  13-[1  11]  62-[-0  12]  44-[-0  9]  28-[-0  3]  9-[3  9]  14-[-0  9]  55-[-0  8]  29-[9  16]  18-[7  16]  47-[-0  16]  23-[-0  1]  34-[11  15]  19-[1  7]  39-[-0  4]  29-[1  15]  31-[-0  5]  53-[7  16] -> 0
 60-[4  9]  44-[0  12]  16-[-0  13]  38-[1  7]  43-[-0  6]  39-[-0  4]  34-[3  12]  8-[-0  15]  53-[4  16]  59-[5  16]  21-[11  15]  40-[-0  11]  7-[-0  4]  53-[9  16]  25-[4  8]  3-[8  14]  3-[3  14]  57-[-0  5]  8-[-0  14]  17-[2  7]  18-[12  14]  19-[-0  13] -> 0
 3-[11  16]  29-[1  16]  21-[13  15]  9-[-0  2]  7-[-0  15]  15-[-0  12]  51-[8  16]  32-[-0  15]  15-[-0  13]  29-[10  16]  42-[-0  10]  40-[-0  11]  15-[-0  8]  20-[9  16]  11-[7  16]  38-[1  7]  49-[-0  8]  42-[-0  14]  36-[9  16]  41-[-0  4]  55-[-0  3]  56-[-0  7] -> 1
 35-[12  16]  29-[3  15]  42-[3  16]  12-[5  16]  29-[7  14]  54-[-0  5]  1-[-0  9]  31-[-0  8]  52-[2  16]  59-[6  16]  28-[9  16]  1-[-0  3]  11-[3  15]  33-[-0  5]  28-[11  16]  21-[7  16]  32-[-0  11]  62-[-0  6]  43-[3  16]  45-[5  8]  51-[6  16]  51-[9  12] -> 1
 57-[-0  14]  18-[3  13]  58-[-0  13]  2-[-0  7]  31-[-0  2]  19-[2  15]  46-[1  14]  17-[-0  14]  30-[2  11]  10-[-0  16]  49-[-0  8]  14-[8  14]  25-[1  11]  32-[-0  3]  25-[2  9]  10-[-0  14]  56-[-0  7]  55-[-0  12]  15-[-0  2]  10-[-0  14]  31-[-0  1]  57-[-0  6] -> 1
 15-[-0  6]  3-[0  5]  51-[3  8]  2-[-0  10]  6-[-0  12]  53-[2  12]  26-[6  12]  58-[-0  14]  42-[-0  1]  23-[-0  3]  32-[-0  3]  2-[-0  3]  27-[13  16]  8-[-0  3]  2-[-0  5]  1-[-0  12]  50-[-0  13]  38-[-0  12]  57-[-0  4]  53-[1  7]  45-[3  12]  17-[-0  16] -> 1
 13-[8  16]  34-[-0  9]  18-[9  14]  47-[-0  8]  16-[-0  9]  60-[3  9]  13-[15  16]  12-[3  15]  62-[3  15]  62-[3  12]  40-[-0  13]  15-[-0  4]  45-[6  16]  34-[-0  4]  32-[-0  12]  63-[-0  4]  7-[-0  9]  43-[-0  14]  56-[-0  12]  39-[-0  15]  13-[15  16]  7-[-0  3] -> 1
 8-[-0  7]  21-[9  13]  17-[-0  5]  27-[2  16]  43-[15  16]  31-[-0  12]  63-[-0  12]  51-[1  16]  6-[-0  7]  47-[-0  11]  36-[10  16]  1-[-0  5]  18-[4  12]  60-[3  16]  15-[-0  6]  7-[-0  11]  7-[-0  11]  26-[5  16]  34-[1  6]  59-[4  11]  44-[12  16]  42-[-0  13] -> 1
 49-[-0  6]  49-[-0  8]  40-[-0  3]  11-[2  16]  35-[15  16]  9-[-0  15]  30-[-0  7]  25-[-0  7]  28-[2  16]  48-[-0  13]  10-[4  14]  44-[7  16]  37-[4  15]  17-[-0  16]  62-[-0  14]  39-[-0  6]  51-[7  16]  44-[3  16]  24-[-0  15]  55-[-0  6]  45-[6  15]  32-[-0  14] -> 1
 35-[7  16]  23-[-0  8]  14-[2  11]  26-[4  16]  26-[3  15]  2-[1  6]  10-[1  14]  45-[-0  1]  28-[11  16]  23-[-0  16]  51-[3  16]  57-[-0  3]  40-[-0  5]  32-[-0  9]  8-[-0  15]  26-[6  16]  41-[1  10]  41-[1  11]  59-[2  10]  44-[2  10]  51-[4  16]  63-[-0  7] -> 1
 43-[3  16]  49-[-0  12]  49-[-0  10]  33-[-0  10]  63-[-0  15]  43-[6  16]  59-[11  16]  3-[2  16]  45-[2  16]  17-[-0  5]  24-[-0  6]  34-[11  15]  9-[-0  9]  53-[1  12]  12-[12  16]  43-[3  16]  35-[-0  13]  42-[6  15]  3-[5  16]  45-[4  8]  9-[-0  10]  43-[4  16] -> 1
 48-[-0  14]  21-[2  14]  11-[5  15]  31-[-0  3]  16-[-0  3]  45-[-0  8]  15-[-0  1]  59-[-0  14]  2-[-0  2]  30-[-0  16]  19-[12  16]  5-[2  11]  5-[3  11]  9-[-0  3]  37-[-0  16]  52-[15  16]  48-[-0  8]  12-[14  16]  3-[0  13]  8-[-0  1]  6-[-0  13]  13-[4  14] -> 1
 56-[-0  15]  52-[14  16]  9-[-0  3]  36-[13  16]  58-[-0  7]  44-[6  16]  49-[-0  3]  28-[13  16]  18-[-0  10]  46-[-0  7]  56-[-0  15]  51-[10  16]  38-[3  15]  9-[-0  9]  38-[2  15]  24-[-0  14]  52-[3  16]  38-[-0  16]  57-[-0  15]  29-[10  16]  46-[-0  9]  57-[-0  6] -> 1
 15-[-0  3]  41-[-0  13]  1-[-0  -0]  26-[6  10]  23-[-0  14]  15-[-0  4]  31-[-0  3]  58-[6  13]  58-[10  16]  62-[-0  5]  23-[-0  1]  23-[-0  6]  20-[15  16]  23-[-0  14]  53-[1  12]  24-[-0  6]  19-[6  16]  6-[-0  3]  31-[-0  5]  34-[1  12]  52-[4  16]  61-[-0  8] -> 1
 47-[-0  14]  9-[-0  13]  15-[-0  9]  61-[11  16]  24-[-0  3]  17-[-0  1]  17-[-0  11]  56-[-0  16]  52-[4  16]  59-[-0  1]  4-[1  16]  61-[9  16]  25-[1  13]  42-[-0  13]  56-[-0  13]  36-[11  16]  12-[4  16]  25-[1  9]  40-[-0  12]  47-[-0  13]  37-[-0  5]  25-[4  16] -> 1
 29-[4  15]  39-[-0  9]  28-[7  16]  28-[2  16]  30-[-0  12]  29-[11  14]  57-[-0  9]  61-[2  12]  20-[8  16]  22-[-0  3]  22-[-0  7]  8-[-0  9]  36-[4  16]  40-[-0  3]  44-[1  16]  43-[1  11]  34-[3  8]  54-[1  4]  36-[10  16]  24-[-0  16]  51-[2  10]  56-[-0  10] -> 1
 26-[0  6]  1-[-0  15]  60-[7  16]  49-[0  3]  24-[-0  7]  15-[-0  11]  14-[0  3]  38-[-0  3]  47-[-0  13]  49-[0  3]  8-[-0  2]  12-[3  16]  16-[-0  5]  35-[2  16]  30-[-0  7]  52-[6  16]  46-[-0  1]  25-[-0  15]  31-[-0  11]  35-[11  16]  23-[-0  15]  18-[1  9] -> 1
 63-[-0  5]  14-[-0  7]  23-[-0  15]  48-[-0  6]  23-[-0  15]  13-[7  16]  7-[-0  13]  58-[-0  15]  39-[-0  16]  2-[-0  13]  32-[-0  11]  62-[2  8]  46-[0  8]  31-[-0  15]  14-[-0  10]  20-[4  16]  29-[7  14]  21-[7  16]  20-[5  16]  6-[0  15]  16-[-0  13]  21-[10  14] -> 1
 48-[-0  12]  41-[-0  6]  7-[-0  7]  43-[15  16]  49-[-0  12]  58-[-0  11]  57-[-0  8]  52-[2  12]  36-[4  16]  9-[-0  13]  38-[-0  3]  39-[-0  1]  44-[6  15]  33-[-0  16]  40-[-0  10]  53-[-0  12]  42-[0  15]  39-[-0  13]  12-[11  16]  26-[3  12]  8-[-0  3]  54-[-0  15] -> 1
 26-[13  16]  12-[13  16]  59-[6  16]  36-[11  15]  2-[5  15]  35-[10  16]  35-[5  16]  57-[-0  16]  18-[8  16]  5-[5  16]  18-[5  16]  28-[11  16]  42-[8  16]  40-[-0  14]  16-[-0  11]  21-[7  9]  29-[1  10]  62-[-0  12]  53-[0  7]  5-[11  15]  59-[7  16]  46-[-0  13] -> 1
 35-[8  16]  23-[-0  1]  31-[-0  14]  42-[4  15]  51-[10  16]  15-[-0  13]  46-[-0  1]  9-[-0  6]  58-[0  2]  61-[-0  16]  54-[-0  3]  45-[-0  14]  22-[1  14]  58-[0  16]  58-[0  10]  20-[5  16]  50-[7  14]  4-[7  16]  13-[15  16]  15-[-0  7]  7-[-0  5]  8-[-0  1] -> 1
 45-[1  13]  49-[-0  9]  33-[-0  11]  30-[-0  5]  33-[-0  2]  30-[-0  15]  10-[12  16]  5-[1  11]  5-[4  6]  9-[-0  5]  50-[4  15]  52-[14  16]  30-[-0  4]  47-[-0  14]  26-[9  15]  63-[-0  4]  36-[12  16]  15-[-0  10]  26-[12  15]  39-[-0  14]  23-[-0  8]  7-[-0  14] -> 1
 36-[10  16]  59-[1  15]  47-[-0  -0]  54-[-0  14]  36-[10  16]  9-[-0  10]  24-[-0  11]  14-[1  3]  44-[15  16]  56-[-0  6]  19-[5  16]  21-[11  16]  11-[9  14]  28-[14  16]  8-[-0  10]  27-[-0  16]  30-[-0  12]  24-[-0  4]  60-[12  16]  42-[-0  3]  57-[-0  8]  33-[-0  4] -> 1
 24-[-0  13]  36-[4  16]  8-[-0  11]  43-[9  16]  29-[-0  5]  22-[-0  4]  13-[1  16]  27-[8  16]  43-[8  16]  6-[-0  13]  45-[-0  2]  8-[-0  2]  54-[-0  16]  35-[4  16]  31-[-0  13]  22-[-0  14]  14-[-0  10]  42-[7  13]  48-[-0  12]  39-[-0  8]  63-[-0  4]  32-[-0  14] -> 1
 52-[2  11]  60-[1  6]  23-[-0  14]  23-[-0  10]  25-[2  5]  12-[14  16]  63-[-0  15]  22-[-0  3]  52-[1  9]  15-[-0  5]  3-[5  16]  31-[-0  4]  42-[9  16]  62-[-0  16]  4-[2  16]  37-[-0  3]  49-[-0  3]  10-[11  16]  54-[-0  10]  17-[-0  6]  27-[13  16]  57-[-0  5] -> 1
 51-[14  16]  9-[-0  9]  40-[-0  5]  12-[3  16]  31-[-0  13]  29-[1  6]  16-[-0  -0]  4-[14  16]  59-[1  16]  25-[-0  2]  20-[1  16]  11-[8  16]  3-[8  16]  46-[-0  4]  13-[3  13]  47-[-0  14]  18-[3  16]  54-[5  12]  50-[1  16]  27-[13  16]  12-[4  16]  34-[2  15] -> 1
 6-[-0  6]  56-[-0  11]  52-[4  16]  26-[1  13]  33-[-0  6]  62-[-0  6]  57-[-0  14]  12-[2  16]  59-[1  13]  9-[-0  11]  36-[11  16]  39-[-0  2]  33-[-0  8]  44-[3  16]  19-[1  16]  23-[-0  4]  52-[2  16]  37-[3  6]  61-[5  9]  21-[2  10]  34-[7  11]  30-[-0  12] -> 1
 20-[2  10]  49-[-0  12]  37-[-0  12]  2-[1  16]  36-[5  16]  45-[1  8]  5-[-0  14]  28-[6  16]  31-[-0  5]  41-[-0  13]  60-[8  16]  20-[2  9]  23-[-0  3]  31-[-0  7]  53-[2  16]  43-[0  15]  40-[-0  1]  57-[-0  5]  19-[3  16]  45-[8  16]  33-[-0  9]  7-[-0  14] -> 1
 38-[-0  6]  46-[-0  14]  43-[2  16]  34-[5  14]  45-[0  12]  63-[-0  15]  3-[1  16]  28-[7  16]  15-[-0  11]  17-[-0  16]  33-[-0  15]  34-[6  14]  24-[-0  2]  53-[2  7]  37-[-0  5]  20-[1  16]  40-[-0  13]  38-[-0  16]  39-[-0  4]  43-[7  16]  50-[1  14]  20-[3  16] -> 1
 52-[3  15]  9-[4  16]  58-[3  15]  13-[10  16]  35-[7  15]  43-[4  16]  55-[0  13]  53-[5  9]  46-[-0  6]  2-[12  15]  6-[-0  12]  57-[1  6]  10-[4  13]  38-[-0  13]  33-[-0  13]  46-[-0  13]  18-[0  3]  27-[2  11]  32-[-0  11]  8-[1  4]  46-[-0  16]  60-[12  16] -> 2
 34-[0  6]  55-[-0  10]  53-[3  5]  44-[-0  11]  19-[4  9]  42-[14  16]  47-[-0  4]  50-[15  16]  34-[0  7]  33-[-0  1]  18-[1  11]  37-[-0  13]  6-[-0  14]  45-[-0  2]  42-[13  16]  7-[-0  15]  30-[-0  3]  12-[4  16]  45-[-0  2]  22-[-0  1]  42-[9  16]  45-[-0  16] -> 2
 37-[-0  5]  52-[2  14]  30-[-0  13]  47-[-0  15]  23-[-0  15]  37-[-0  15]  20-[3  16]  61-[4  9]  8-[-0  16]  57-[2  7]  30-[-0  5]  46-[-0  16]  58-[13  16]  9-[3  16]  3-[13  16]  2-[10  16]  50-[1  16]  1-[-0  8]  53-[4  16]  23-[-0  15]  10-[5  16]  1-[1  13] -> 2
 13-[-0  15]  40-[-0  9]  14-[-0  6]  39-[-0  2]  48-[-0  9]  56-[-0  4]  56-[-0  11]  26-[-0  4]  63-[1  7]  31-[-0  -0]  19-[1  6]  9-[1  11]  46-[-0  3]  14-[-0  4]  7-[-0  3]  3-[10  15]  48-[-0  6]  6-[-0  9]  20-[3  16]  22-[-0  5]  41-[-0  -0]  48-[-0  5] -> 2
 49-[2  16]  33-[-0  12]  20-[6  15]  50-[3  16]  36-[9  16]  46-[-0  6]  41-[-0  16]  14-[-0  8]  56-[-0  6]  38-[-0  16]  36-[9  15]  29-[-0  6]  19-[5  14]  63-[-0  14]  4-[0  16]  60-[4  16]  22-[-0  1]  11-[14  16]  47-[-0  9]  31-[-0  13]  3-[3  15]  56-[-0  5] -> 2
 3-[14  16]  33-[-0  15]  40-[-0  11]  13-[2  14]  11-[4  8]  29-[3  12]  46-[-0  15]  35-[12  16]  49-[4  12]  27-[2  7]  46-[-0  11]  6-[-0  13]  35-[7  15]  13-[5  14]  43-[10  16]  27-[1  8]  10-[4  15]  61-[3  16]  36-[1  15]  26-[-0  13]  46-[-0  8]  21-[4  15] -> 2
 33-[-0  16]  26-[0  11]  32-[-0  9]  34-[-0  12]  13-[7  9]  44-[3  14]  52-[4  13]  58-[-0  14]  36-[4  16]  32-[-0  1]  21-[2  16]  54-[1  11]  16-[-0  1]  36-[8  16]  44-[3  15]  55-[-0  4]  26-[0  7]  16-[-0  11]  31-[-0  14]  10-[8  16]  35-[2  11]  34-[-0  3] -> 2
 42-[-0  7]  22-[-0  9]  14-[-0  3]  26-[4  14]  20-[5  16]  33-[-0  8]  61-[11  16]  62-[1  13]  34-[-0  8]  57-[-0  13]  6-[-0  6]  58-[0  7]  40-[-0  6]  10-[13  16]  3-[10  14]  24-[-0  1]  22-[-0  10]  30-[-0  16]  23-[-0  3]  21-[-0  14]  18-[9  12]  6-[-0  13] -> 2
 8-[-0  12]  18-[13  16]  42-[-0  3]  61-[9  16]  34-[-0  9]  32-[-0  3]  15-[-0  11]  17-[4  9]  60-[12  16]  50-[8  16]  54-[-0  11]  59-[9  16]  43-[2  7]  4-[9  16]  3-[4  16]  43-[2  14]  14-[-0  1]  38-[-0  2]  36-[9  16]  24-[-0  13]  49-[2  7]  25-[-0  13] -> 2
 43-[2  15]  31-[-0  4]  18-[10  16]  9-[1  6]  41-[-0  4]  33-[-0  12]  63-[1  10]  26-[1  13]  22-[-0  16]  57-[-0  6]  46-[-0  4]  44-[8  12]  21-[3  12]  36-[8  16]  42-[-0  1]  8-[-0  9]  1-[0  15]  29-[3  16]  40-[-0  1]  31-[-0  3]  27-[2  13]  33-[-0  10] -> 2
 12-[3  14]  7-[-0  9]  24-[-0  16]  10-[13  16]  45-[-0  1]  54-[0  6]  40-[-0  2]  46-[-0  1]  28-[2  13]  41-[-0  7]  35-[6  12]  44-[1  8]  51-[6  14]  7-[-0  3]  29-[8  15]  28-[5  16]  26-[-0  16]  22-[5  10]  31-[-0  1]  11-[5  14]  12-[2  15]  54-[0  7] -> 2
 2-[5  16]  26-[-0  8]  43-[4  16]  33-[-0  4]  11-[8  16]  17-[0  9]  50-[1  16]  16-[-0  16]  55-[-0  10]  8-[-0  15]  34-[-0  15]  25-[-0  9]  37-[-0  6]  32-[-0  10]  50-[10  16]  24-[-0  12]  56-[-0  11]  15-[-0  7]  4-[0  16]  38-[-0  11]  22-[-0  10]  5-[-0  9] -> 2
 8-[-0  11]  47-[-0  4]  44-[11  16]  26-[6  15]  4-[9  14]  39-[-0  4]  21-[8  16]  61-[14  16]  10-[5  16]  25-[1  11]  21-[11  14]  25-[2  11]  37-[4  12]  47-[-0  16]  58-[6  14]  30-[-0  5]  24-[-0  6]  22-[-0  12]  33-[-0  3]  35-[0  16]  30-[-0  10]  8-[-0  6] -> 2
 54-[11  16]  9-[2  5]  29-[1  13]  52-[12  16]  12-[7  16]  59-[5  15]  31-[-0  14]  13-[-0  10]  45-[-0  8]  43-[1  15]  32-[-0  4]  1-[-0  16]  58-[8  15]  34-[-0  1]  23-[-0  10]  31-[-0  10]  36-[5  16]  56-[-0  10]  56-[-0  16]  14-[-0  3]  43-[2  15]  11-[8  15] -> 2
 35-[6  11]  4-[5  14]  27-[1  10]  8-[-0  10]  50-[2  16]  38-[-0  15]  63-[-0  6]  51-[9  16]  13-[-0  3]  62-[1  7]  21-[1  16]  4-[5  12]  9-[-0  4]  51-[10  16]  11-[1  15]  53-[8  16]  17-[1  16]  24-[-0  7]  38-[-0  9]  56-[-0  7]  23-[-0  15]  56-[-0  16] -> 2
 47-[-0  12]  13-[-0  12]  63-[-0  7]  44-[2  8]  8-[-0  12]  13-[-0  13]  49-[2  12]  41-[-0  7]  29-[1  8]  26-[-0  10]  43-[1  16]  6-[-0  3]  23-[-0  2]  38-[-0  2]  31-[-0  6]  10-[4  16]  44-[2  15]  9-[3  11]  22-[-0  2]  3-[11  16]  52-[15  16]  11-[7  16] -> 2
 12-[6  16]  21-[3  10]  21-[3  8]  45-[-0  16]  31-[-0  12]  29-[3  12]  59-[3  16]  23-[-0  2]  41-[-0  3]  31-[-0  2]  61-[1  14]  20-[7  16]  29-[3  11]  39-[-0  6]  21-[2  14]  52-[8  14]  58-[11  16]  20-[7  16]  34-[-0  3]  31-[-0  9]  44-[6  10]  11-[4  16] -> 2
 47-[-0  16]  54-[2  11]  8-[-0  13]  58-[11  16]  11-[7  12]  34-[4  15]  58-[1  16]  44-[-0  2]  54-[2  11]  47-[-0  13]  4-[4  10]  28-[2  16]  7-[-0  3]  54-[1  10]  53-[6  15]  21-[-0  4]  2-[12  16]  26-[1  11]  40-[-0  11]  36-[1  13]  42-[11  15]  23-[-0  10] -> 2
 59-[2  16]  45-[-0  14]  36-[9  16]  12-[14  16]  28-[5  16]  43-[4  16]  17-[-0  8]  21-[4  15]  54-[2  14]  57-[5  8]  13-[0  9]  26-[-0  9]  2-[8  16]  28-[1  16]  7-[-0  2]  56-[-0  12]  40-[-0  15]  49-[-0  8]  44-[4  9]  56-[-0  9]  46-[-0  1]  22-[-0  13] -> 2
 12-[3  16]  16-[-0  10]  5-[-0  1]  56-[-0  5]  30-[-0  16]  28-[4  9]  11-[10  16]  49-[1  6]  12-[3  11]  44-[-0  13]  12-[1  7]  37-[-0  4]  30-[-0  10]  60-[12  16]  18-[4  11]  55-[-0  16]  57-[4  12]  30-[-0  16]  15-[-0  6]  22-[-0  7]  28-[2  15]  55-[-0  -0] -> 2
 37-[-0  13]  42-[1  13]  59-[4  14]  11-[8  16]  39-[-0  13]  43-[1  14]  11-[9  16]  15-[-0  4]  9-[6  10]  27-[10  14]  17-[1  13]  29-[-0  10]  43-[7  8]  27-[10  14]  55-[-0  5]  6-[-0  5]  60-[12  15]  53-[9  13]  17-[1  15]  16-[-0  9]  16-[-0  16]  17-[1  4] -> 2
 16-[-0  6]  48-[-0  6]  42-[0  6]  30-[-0  3]  27-[2  7]  53-[6  16]  15-[-0  16]  33-[-0  9]  57-[2  4]  39-[-0  16]  1-[1  12]  56-[-0  15]  10-[1  16]  21-[-0  16]  29-[-0  4]  38-[-0  2]  20-[6  16]  57-[2  11]  57-[2  12]  3-[5  16]  58-[11  16]  43-[1  16] -> 2
 9-[-0  8]  38-[-0  11]  20-[3  14]  61-[6  16]  5-[-0  9]  54-[7  13]  21-[8  16]  55-[0  14]  5-[-0  4]  37-[11  13]  53-[11  14]  6-[-0  4]  4-[6  8]  63-[1  11]  23-[-0  14]  37-[9  16]  23-[-0  13]  32-[-0  9]  23-[-0  10]  18-[5  16]  40-[-0  10]  57-[-0  8] -> 2
 39-[-0  16]  9-[1  11]  63-[-0  2]  7-[-0  9]  61-[14  16]  56-[-0  7]  40-[-0  14]  5-[-0  7]  25-[-0  1]  44-[5  10]  39-[-0  6]  37-[-0  12]  6-[-0  1]  56-[-0  5]  21-[-0  15]  52-[6  16]  6-[-0  3]  5-[-0  4]  40-[-0  9]  12-[2  13]  34-[-0  8]  6-[-0  15] -> 2
 43-[3  16]  23-[-0  5]  54-[0  14]  18-[4  11]  21-[10  14]  21-[6  16]  42-[2  7]  32-[-0  13]  50-[1  16]  26-[1  16]  58-[6  16]  38-[-0  8]  44-[0  16]  54-[0  5]  51-[3  12]  25-[4  13]  15-[-0  13]  10-[10  16]  15-[-0  12]  29-[3  8]  58-[2  6]  39-[-0  14] -> 2
 39-[-0  11]  58-[5  16]  7-[-0  15]  58-[6  15]  7-[-0  14]  51-[6  16]  46-[0  5]  45-[4  6]  15-[-0  12]  2-[4  13]  33-[-0  6]  39-[-0  -0]  53-[2  16]  48-[-0  6]  50-[9  13]  27-[-0  1]  17-[6  13]  60-[1  13]  62-[11  14]  46-[0  6]  31-[-0  4]  31-[-0  3] -> 2
 50-[1  16]  24-[-0  2]  48-[-0  3]  37-[-0  15]  17-[-0  4]  49-[2  15]  21-[1  9]  19-[8  14]  55-[-0  9]  4-[8  12]  18-[3  11]  58-[1  16]  50-[9  16]  50-[5  16]  50-[1  16]  13-[2  12]  37-[-0  8]  55-[-0  7]  7-[-0  13]  59-[7  16]  6-[-0  6]  54-[3  9] -> 2
 41-[-0  12]  3-[2  16]  7-[-0  15]  40-[-0  15]  13-[1  16]  3-[4  14]  27-[4  11]  18-[1  7]  31-[-0  12]  50-[2  16]  9-[5  16]  25-[-0  3]  32-[-0  13]  59-[15  16]  4-[2  15]  15-[-0  3]  36-[7  16]  22-[-0  11]  9-[8  11]  15-[-0  14]  9-[1  10]  31-[-0  6] -> 3
 36-[1  11]  51-[3  14]  40-[-0  5]  37-[-0  6]  34-[1  12]  3-[10  16]  42-[-0  13]  40-[-0  15]  42-[-0  10]  11-[3  13]  43-[6  11]  39-[-0  16]  19-[1  13]  50-[-0  11]  17-[2  15]  8-[-0  8]  4-[3  16]  29-[0  9]  49-[2  13]  10-[4  16]  34-[1  15]  35-[4  16] -> 3
 15-[-0  8]  44-[0  9]  39-[-0  4]  59-[7  16]  35-[0  10]  24-[-0  5]  60-[3  14]  12-[3  16]  28-[14  16]  16-[-0  13]  6-[1  13]  38-[4  12]  46-[8  16]  37-[5  16]  42-[-0  8]  41-[-0  11]  21-[2  9]  31-[-0  5]  42-[-0  6]  22-[-0  16]  61-[2  10]  45-[1  16] -> 3
 29-[-0  14]  46-[1  13]  50-[-0  2]  51-[3  12]  40-[-0  6]  45-[11  16]  20-[5  13]  29-[-0  1]  4-[8  16]  7-[-0  15]  26-[9  16]  33-[-0  13]  44-[10  16]  7-[-0  13]  47-[-0  7]  20-[4  13]  13-[2  15]  55-[-0  2]  57-[-0  -0]  14-[-0  4]  44-[7  16]  5-[5  14] -> 3
 18-[3  15]  45-[12  15]  52-[3  5]  55-[-0  5]  55-[-0  11]  46-[1  13]  35-[6  13]  49-[-0  9]  25-[-0  4]  54-[7  13]  41-[-0  3]  22-[-0  2]  49-[-0  9]  53-[3  16]  33-[-0  15]  31-[-0  8]  4-[1  11]  59-[7  16]  46-[6  12]  54-[1  14]  51-[4  13]  4-[1  5] -> 3
 13-[0  7]  42-[2  6]  44-[2  16]  1-[0  2]  29-[6  16]  13-[0  7]  51-[2  12]  49-[-0  8]  48-[-0  13]  39-[-0  9]  43-[1  13]  59-[9  16]  50-[1  8]  48-[-0  4]  29-[2  16]  1-[0  1]  23-[-0  2]  53-[1  16]  61-[7  16]  28-[8  16]  29-[5  10]  31-[-0  4] -> 3
 56-[-0  5]  18-[-0  6]  43-[-0  1]  54-[2  10]  32-[-0  7]  55-[-0  8]  24-[-0  16]  15-[-0  11]  63-[-0  11]  47-[-0  16]  15-[-0  9]  55-[-0  7]  8-[-0  5]  8-[-0  16]  8-[-0  2]  62-[-0  3]  55-[-0  6]  36-[2  16]  28-[6  16]  36-[1  16]  15-[-0  3]  30-[-0  6] -> 3
 24-[-0  7]  1-[-0  4]  36-[4  15]  32-[-0  15]  31-[-0  16]  27-[15  16]  10-[9  15]  37-[1  14]  62-[-0  4]  19-[-0  13]  23-[-0  2]  14-[-0  16]  15-[-0  10]  37-[9  13]  49-[-0  15]  29-[1  6]  18-[1  14]  7-[-0  2]  61-[7  11]  33-[-0  14]  14-[-0  8]  2-[4  7] -> 3
 36-[4  16]  35-[3  7]  47-[-0  7]  32-[-0  13]  9-[-0  12]  43-[-0  5]  30-[-0  10]  6-[-0  8]  4-[6  16]  35-[-0  6]  35-[4  9]  58-[5  9]  26-[-0  13]  34-[-0  1]  41-[-0  2]  13-[1  16]  35-[1  7]  45-[7  13]  49-[1  13]  50-[10  16]  47-[-0  11]  10-[2  14] -> 3
 25-[-0  10]  13-[11  15]  42-[-0  10]  26-[0  11]  55-[-0  3]  34-[0  14]  41-[-0  8]  36-[4  15]  3-[11  15]  63-[-0  9]  62-[-0  14]  51-[10  16]  6-[-0  1]  42-[-0  -0]  40-[-0  5]  4-[9  16]  1-[-0  9]  43-[0  8]  33-[-0  1]  46-[3  13]  48-[-0  16]  20-[14  15] -> 3
 7-[-0  4]  17-[-0  15]  32-[-0  -0]  24-[-0  5]  45-[7  13]  11-[5  12]  48-[-0  6]  2-[8  16]  26-[-0  3]  2-[8  16]  36-[10  16]  18-[-0  10]  36-[9  16]  2-[5  16]  35-[3  11]  3-[7  16]  43-[0  16]  55-[-0  16]  33-[-0  16]  13-[10  16]  59-[11  16]  31-[-0  9] -> 3
 55-[-0  16]  27-[6  12]  15-[-0  4]  57-[-0  3]  44-[5  16]  42-[1  4]  61-[2  5]  45-[3  14]  32-[-0  4]  25-[-0  7]  38-[-0  15]  47-[-0  2]  16-[-0  15]  6-[-0  15]  2-[5  10]  60-[2  15]  1-[-0  3]  36-[4  16]  2-[3  8]  39-[-0  16]  30-[-0  7]  3-[9  16] -> 3
 25-[1  8]  57-[-0  12]  28-[3  16]  49-[-0  8]  1-[-0  5]  24-[-0  7]  51-[10  16]  9-[1  7]  35-[6  11]  23-[-0  13]  20-[1  9]  7-[-0  3]  48-[-0  5]  29-[5  13]  6-[0  9]  17-[2  16]  17-[3  15]  31-[-0  16]  62-[5  12]  46-[2  13]  36-[5  16]  28-[12  16] -> 3
 4-[6  16]  1-[-0  4]  41-[-0  9]  20-[-0  8]  34-[2  5]  25-[-0  1]  10-[3  13]  31-[-0  6]  36-[8  16]  46-[0  9]  33-[-0  4]  11-[1  10]  46-[0  3]  35-[14  16]  50-[7  15]  43-[6  15]  7-[-0  8]  38-[0  2]  48-[-0  11]  37-[1  4]  51-[6  13]  41-[-0  9] -> 3
 5-[2  16]  16-[-0  14]  22-[-0  14]  43-[-0  4]  12-[8  16]  18-[2  8]  53-[4  14]  61-[-0  9]  58-[2  15]  43-[-0  16]  35-[2  11]  61-[-0  2]  53-[1  12]  37-[1  14]  43-[-0  5]  25-[-0  12]  3-[3  15]  49-[-0  1]  62-[-0  3]  41-[-0  10]  31-[-0  1]  9-[5  16] -> 3
 7-[-0  16]  4-[-0  9]  55-[-0  13]  32-[-0  12]  41-[-0  5]  50-[1  16]  52-[6  13]  11-[4  16]  41-[-0  16]  10-[4  16]  18-[-0  6]  60-[5  16]  25-[-0  16]  39-[-0  13]  7-[-0  2]  39-[-0  15]  7-[-0  11]  51-[2  12]  31-[-0  11]  17-[-0  14]  10-[9  16]  48-[-0  9] -> 3
 34-[7  11]  38-[1  7]  21-[1  5]  2-[1  15]  45-[4  14]  50-[5  13]  17-[-0  9]  56-[-0  16]  45-[10  16]  38-[1  6]  18-[-0  15]  27-[5  16]  33-[0  4]  32-[-0  11]  62-[-0  8]  30-[-0  13]  26-[6  16]  10-[5  13]  58-[5  11]  13-[1  13]  9-[0  14]  30-[-0  15] -> 3
 22-[-0  8]  48-[-0  7]  37-[11  16]  43-[0  8]  51-[1  14]  57-[-0  3]  54-[0  15]  16-[-0  15]  15-[-0  12]  16-[-0  6]  39-[-0  4]  14-[-0  14]  59-[3  16]  2-[2  5]  29-[7  16]  1-[-0  4]  58-[2  9]  53-[9  16]  58-[1  12]  55-[-0  11]  13-[14  16]  6-[-0  11] -> 3
 14-[-0  7]  17-[-0  13]  25-[-0  10]  4-[10  16]  7-[-0  1]  39-[-0  14]  40-[-0  11]  2-[5  16]  51-[1  12]  46-[3  9]  32-[-0  4]  3-[2  16]  59-[8  15]  31-[-0  11]  19-[1  4]  9-[1  11]  48-[-0  9]  57-[-0  2]  59-[10  14]  17-[-0  2]  59-[5  14]  40-[-0  7] -> 3
 54-[10  12]  34-[-0  10]  42-[-0  4]  26-[-0  7]  44-[1  15]  62-[-0  7]  48-[-0  15]  9-[2  13]  12-[1  16]  30-[-0  6]  56-[-0  14]  44-[2  13]  62-[-0  5]  6-[-0  5]  12-[13  16]  43-[-0  3]  46-[9  15]  6-[-0  4]  38-[1  16]  23-[-0  16]  49-[-0  3]  13-[-0  3] -> 3
 34-[-0  12]  61-[0  7]  30-[-0  1]  46-[7  15]  12-[9  15]  12-[4  16]  55-[-0  14]  61-[0  7]  50-[2  10]  59-[11  16]  21-[10  16]  3-[5  16]  54-[2  5]  22-[1  6]  21-[11  16]  19-[-0  8]  24-[-0  2]  6-[-0  9]  32-[-0  14]  45-[7  16]  3-[5  16]  22-[2  7] -> 3
 48-[-0  11]  53-[5  16]  12-[4  12]  13-[14  16]  29-[-0  13]  27-[1  9]  16-[-0  12]  55-[-0  7]  39-[-0  6]  63-[-0  5]  9-[4  15]  61-[-0  3]  47-[-0  6]  15-[-0  15]  28-[2  16]  9-[1  14]  44-[1  14]  54-[-0  13]  31-[-0  1]  4-[13  16]  39-[-0  11]  18-[1  6] -> 3
 62-[-0  2]  24-[-0  9]  35-[4  15]  39-[-0  15]  55-[-0  14]  6-[-0  9]  18-[-0  11]  19-[0  8]  12-[1  15]  40-[-0  2]  55-[-0  14]  46-[-0  13]  26-[-0  14]  10-[8  16]  50-[7  16]  17-[-0  2]  58-[6  15]  26-[-0  15]  63-[-0  3]  20-[2  15]  38-[-0  8]  1-[-0  7] -> 3
 56-[-0  12]  19-[1  11]  56-[-0  10]  42-[0  11]  22-[-0  10]  55-[-0  3]  36-[10  16]  51-[3  7]  18-[2  12]  48-[-0  16]  21-[-0  5]  52-[2  16]  45-[6  16]  32-[-0  3]  51-[1  15]  32-[-0  14]  20-[6  16]  45-[6  15]  14-[-0  8]  61-[-0  10]  23-[-0  5]  21-[-0  2] -> 3
 16-[-0  7]  7-[-0  12]  30-[0  12]  30-[0  4]  31-[-0  3]  21-[5  8]  38-[1  16]  55-[-0  3]  4-[9  16]  42-[3  15]  27-[5  16]  34-[1  6]  21-[2  13]  42-[4  15]  20-[1  16]  11-[2  13]  38-[-0  13]  26-[7  14]  51-[2  11]  37-[12  14]  53-[8  16]  53-[9  16] -> 3
 37-[11  16]  25-[-0  1]  50-[2  16]  48-[-0  9]  63-[-0  7]  53-[2  16]  10-[1  16]  23-[-0  8]  39-[-0  11]  51-[5  16]  14-[-0  9]  53-[3  14]  62-[3  16]  20-[2  16]  28-[3  16]  42-[5  16]  47-[-0  12]  40-[-0  12]  27-[9  16]  29-[1  16]  49-[2  15]  47-[-0  5] -> 3
 62-[-0  11]  37-[13  16]  22-[-0  11]  28-[3  14]  22-[-0  1]  31-[-0  13]  56-[-0  7]  19-[-0  1]  9-[2  9]  2-[9  13]  14-[-0  8]  34-[-0  3]  13-[1  16]  12-[6  15]  11-[9  16]  56-[-0  13]  13-[4  14]  34-[-0  16]  60-[10  16]  43-[-0  6]  37-[6  16]  19-[-0  15] -> 3
 34-[12  16]  48-[-0  16]  16-[-0  10]  17-[-0  14]  18-[4  12]  45-[10  16]  51-[4  16]  25-[0  15]  31-[-0  9]  58-[-0  9]  34-[1  16]  47-[-0  3]  55-[-0  12]  3-[2  10]  8-[-0  13]  33-[3  13]  12-[1  14]  33-[4  16]  43-[8  12]  32-[-0  6]  53-[5  15]  24-[-0  8] -> 4
 10-[-0  16]  10-[-0  15]  61-[-0  9]  15-[-0  3]  13-[-0  16]  51-[0  10]  46-[3  5]  61-[-0  3]  43-[11  13]  35-[9  16]  3-[1  6]  57-[-0  14]  53-[1  12]  53-[3  13]  35-[5  16]  40-[-0  6]  40-[-0  14]  37-[10  16]  52-[10  16]  46-[-0  13]  10-[-0  16]  7-[-0  16] -> 4
 58-[-0  3]  42-[-0  10]  35-[14  16]  30-[6  16]  25-[3  16]  1-[-0  15]  52-[5  13]  63-[-0  14]  62-[-0  15]  33-[2  13]  61-[-0  11]  49-[-0  9]  25-[4  14]  20-[10  13]  56-[-0  2]  10-[4  11]  1-[-0  6]  20-[7  14]  47-[-0  10]  41-[-0  12]  26-[6  16]  37-[9  15] -> 4
 34-[9  15]  16-[-0  13]  42-[2  16]  30-[-0  15]  9-[-0  12]  45-[7  16]  43-[7  15]  43-[11  14]  61-[-0  15]  56-[-0  14]  48-[-0  1]  44-[1  16]  45-[7  16]  2-[-0  12]  60-[1  15]  13-[-0  11]  24-[-0  16]  29-[11  15]  23-[-0  12]  20-[1  12]  7-[-0  6]  27-[5  15] -> 4
 29-[5  16]  8-[-0  1]  8-[-0  6]  11-[4  14]  49-[-0  13]  15-[-0  7]  55-[-0  16]  28-[1  11]  6-[-0  7]  19-[13  16]  50-[-0  1]  44-[9  14]  10-[0  6]  61-[4  16]  8-[-0  10]  52-[14  16]  5-[5  12]  21-[-0  2]  33-[1  11]  51-[-0  15]  18-[0  9]  3-[0  2] -> 4
 49-[-0  11]  61-[-0  12]  57-[-0  15]  55-[-0  10]  40-[-0  3]  17-[0  8]  40-[-0  2]  55-[-0  9]  19-[5  14]  11-[7  16]  16-[-0  13]  62-[-0  11]  15-[-0  9]  9-[-0  9]  2-[-0  14]  57-[-0  7]  44-[6  16]  2-[-0  16]  61-[-0  12]  7-[-0  3]  29-[6  16]  5-[-0  4] -> 4
 6-[-0  5]  60-[10  14]  24-[-0  5]  62-[-0  16]  27-[7  14]  23-[-0  3]  29-[2  15]  35-[2  8]  55-[-0  16]  61-[3  7]  46-[0  10]  46-[0  10]  21-[-0  9]  32-[-0  14]  19-[7  16]  4-[10  15]  2-[-0  -0]  39-[-0  7]  16-[-0  1]  36-[1  6]  53-[5  10]  10-[-0  5] -> 4
 26-[6  14]  15-[-0  7]  54-[-0  8]  25-[-0  7]  2-[-0  16]  4-[6  16]  21-[4  13]  4-[6  16]  53-[5  16]  59-[-0  13]  28-[-0  6]  31-[-0  12]  58-[-0  13]  15-[-0  5]  51-[3  9]  8-[-0  1]  44-[12  14]  58-[-0  9]  2-[-0  9]  56-[-0  5]  19-[3  16]  46-[2  8] -> 4
 49-[0  13]  15-[-0  1]  40-[-0  16]  40-[-0  13]  52-[9  16]  39-[-0  11]  44-[10  16]  16-[-0  3]  57-[-0  7]  16-[-0  16]  47-[-0  6]  58-[-0  6]  8-[-0  12]  25-[2  9]  38-[2  6]  19-[1  15]  3-[1  4]  55-[-0  13]  15-[-0  16]  43-[-0  15]  63-[-0  3]  53-[1  6] -> 4
 25-[3  16]  49-[-0  2]  23-[-0  7]  49-[-0  11]  9-[-0  8]  39-[-0  5]  60-[6  11]  62-[-0  6]  21-[8  16]  48-[-0  11]  24-[-0  14]  26-[2  16]  38-[2  11]  53-[0  12]  44-[6  14]  8-[-0  9]  23-[-0  12]  5-[3  15]  4-[5  15]  42-[-0  3]  45-[2  10]  62-[-0  6] -> 4
 4-[6  14]  48-[-0  12]  4-[5  9]  39-[-0  3]  17-[6  14]  17-[3  15]  57-[-0  9]  17-[2  14]  29-[15  16]  4-[3  8]  43-[7  15]  38-[-0  13]  4-[5  9]  21-[7  15]  60-[1  10]  60-[3  16]  61-[-0  1]  53-[-0  12]  45-[1  8]  5-[-0  8]  63-[-0  4]  46-[-0  12] -> 4
 61-[1  16]  28-[2  4]  43-[4  16]  5-[3  13]  6-[-0  2]  12-[2  14]  3-[1  14]  9-[-0  3]  14-[2  10]  37-[8  16]  7-[-0  16]  1-[-0  8]  13-[2  16]  5-[2  16]  51-[4  12]  23-[-0  4]  9-[-0  11]  45-[1  16]  8-[-0  14]  45-[8  15]  2-[-0  10]  40-[-0  10] -> 4
 59-[2  8]  60-[4  16]  35-[1  16]  28-[-0  5]  48-[-0  4]  32-[-0  14]  17-[-0  15]  15-[-0  4]  61-[8  10]  7-[-0  11]  22-[-0  10]  25-[3  12]  46-[3  10]  26-[3  16]  32-[-0  4]  43-[3  15]  62-[-0  5]  39-[-0  4]  47-[-0  12]  20-[-0  3]  56-[-0  10]  19-[2  15] -> 4
 34-[12  16]  15-[-0  6]  8-[-0  1]  63-[-0  4]  63-[-0  8]  63-[-0  10]  46-[-0  12]  30-[-0  6]  11-[6  12]  39-[-0  7]  39-[-0  11]  37-[4  13]  39-[-0  14]  34-[12  16]  57-[-0  3]  3-[-0  14]  12-[7  16]  45-[1  16]  28-[1  13]  21-[3  16]  2-[-0  4]  14-[-0  5] -> 4
 51-[0  11]  5-[-0  8]  43-[1  13]  38-[1  15]  33-[3  5]  12-[2  14]  5-[-0  13]  19-[7  16]  33-[1  14]  8-[-0  13]  12-[2  11]  40-[-0  4]  34-[13  16]  42-[8  16]  51-[11  16]  62-[-0  2]  7-[-0  4]  48-[-0  9]  6-[2  7]  45-[11  13]  22-[11  14]  2-[-0  15] -> 4
 21-[-0  14]  14-[-0  15]  3-[1  16]  26-[7  16]  42-[12  16]  6-[-0  4]  54-[-0  10]  5-[-0  8]  40-[-0  4]  13-[-0  10]  11-[5  16]  63-[-0  6]  47-[-0  3]  13-[-0  14]  11-[14  16]  48-[-0  5]  2-[-0  11]  28-[-0  13]  21-[-0  10]  33-[9  16]  20-[0  12]  11-[4  16] -> 4
 26-[14  16]  40-[-0  3]  34-[3  16]  36-[7  14]  51-[2  11]  8-[-0  8]  52-[4  16]  62-[-0  16]  23-[-0  -0]  36-[1  16]  15-[-0  7]  59-[4  13]  8-[-0  3]  35-[3  11]  13-[2  9]  30-[1  12]  26-[4  16]  30-[2  13]  55-[-0  1]  53-[1  16]  27-[1  14]  51-[5  9] -> 4
 9-[-0  10]  55-[-0  9]  26-[2  13]  16-[-0  7]  11-[5  12]  43-[4  16]  38-[1  16]  41-[2  12]  63-[-0  15]  20-[2  16]  55-[-0  2]  28-[-0  5]  17-[-0  5]  14-[-0  12]  53-[2  12]  13-[-0  4]  40-[-0  1]  10-[-0  15]  30-[5  16]  7-[-0  6]  45-[8  16]  21-[1  9] -> 4
 52-[4  16]  43-[5  11]  57-[-0  8]  52-[14  16]  9-[-0  1]  34-[8  16]  1-[-0  10]  30-[-0  2]  7-[-0  9]  31-[-0  12]  28-[-0  2]  1-[-0  4]  57-[-0  11]  7-[-0  6]  23-[-0  4]  57-[-0  1]  46-[-0  8]  29-[1  12]  15-[-0  6]  15-[-0  13]  13-[1  6]  16-[-0  11] -> 4
 15-[-0  15]  60-[8  15]  8-[-0  12]  29-[1  5]  20-[7  16]  7-[-0  13]  24-[-0  15]  31-[-0  10]  3-[0  11]  23-[-0  12]  49-[-0  7]  36-[4  16]  23-[-0  13]  11-[7  14]  2-[-0  1]  19-[14  16]  42-[8  16]  61-[1  10]  44-[5  16]  62-[-0  13]  30-[-0  2]  47-[-0  6] -> 4
 11-[9  15]  30-[3  16]  27-[3  12]  17-[-0  13]  54-[-0  16]  60-[4  16]  33-[1  16]  45-[4  15]  52-[3  16]  3-[0  8]  5-[1  12]  30-[2  12]  43-[10  12]  40-[-0  16]  61-[5  16]  35-[5  16]  27-[4  14]  37-[2  16]  46-[0  12]  63-[-0  7]  53-[1  13]  55-[-0  15] -> 4
 7-[-0  13]  46-[1  6]  62-[-0  13]  36-[11  15]  32-[-0  15]  34-[5  15]  55-[-0  7]  43-[9  16]  19-[7  14]  2-[-0  4]  11-[10  16]  18-[3  6]  41-[14  16]  26-[4  14]  19-[12  14]  25-[1  14]  21-[2  16]  30-[1  10]  52-[4  16]  21-[5  16]  32-[-0  3]  6-[-0  14] -> 4
 30-[12  15]  57-[-0  6]  45-[-0  3]  20-[9  15]  13-[4  16]  54-[-0  16]  39-[-0  9]  26-[4  16]  54-[-0  8]  59-[11  16]  54-[-0  11]  28-[14  16]  62-[-0  10]  42-[2  5]  62-[-0  3]  17-[2  14]  37-[4  13]  41-[-0  14]  3-[12  15]  38-[2  15]  30-[11  15]  49-[-0  6] -> 4
 15-[-0  11]  58-[-0  16]  61-[2  9]  40-[-0  6]  56-[-0  1]  43-[4  13]  2-[-0  11]  1-[-0  3]  62-[-0  1]  13-[4  16]  55-[-0  5]  52-[4  15]  49-[-0  5]  28-[1  13]  46-[-0  16]  63-[-0  14]  2-[-0  1]  34-[14  16]  36-[4  16]  63-[-0  12]  59-[1  11]  11-[5  12] -> 4
 33-[2  7]  1-[-0  -0]  18-[3  14]  50-[-0  2]  31-[-0  8]  3-[2  11]  4-[10  15]  56-[-0  9]  28-[11  14]  49-[-0  2]  8-[-0  10]  29-[4  16]  33-[1  9]  54-[-0  1]  62-[-0  5]  14-[1  7]  45-[2  15]  15-[-0  1]  28-[2  16]  61-[2  8]  9-[-0  4]  18-[1  15] -> 4
 37-[9  11]  17-[-0  16]  24-[-0  10]  61-[-0  10]  20-[0  14]  9-[-0  1]  51-[2  14]  20-[0  7]  62-[-0  12]  50-[-0  12]  28-[11  15]  38-[1  12]  41-[-0  4]  47-[-0  2]  57-[-0  1]  20-[0  15]  14-[1  13]  63-[-0  9]  26-[4  15]  34-[5  10]  9-[-0  13]  43-[0  15] -> 4
 29-[12  15]  47-[-0  13]  28-[3  8]  21-[1  16]  48-[-0  4]  53-[3  8]  27-[9  14]  62-[-0  16]  38-[-0  8]  29-[2  14]  53-[3  11]  38-[-0  9]  55-[-0  11]  17-[-0  13]  31-[-0  7]  31-[-0  9]  7-[-0  10]  5-[-0  7]  26-[3  10]  58-[-0  11]  62-[-0  15]  55-[-0  12] -> 4
 50-[8  15]  62-[-0  4]  5-[3  10]  56-[-0  10]  27-[11  16]  25-[3  8]  51-[5  16]  8-[-0  12]  11-[9  16]  33-[1  7]  47-[-0  7]  56-[-0  10]  19-[1  14]  47-[-0  16]  1-[-0  1]  17-[1  12]  11-[8  16]  23-[-0  10]  9-[1  3]  63-[-0  7]  21-[-0  15]  14-[-0  11] -> 5
 38-[-0  9]  33-[1  9]  58-[1  16]  4-[9  16]  45-[7  16]  9-[2  8]  60-[7  11]  40-[-0  6]  42-[-0  5]  34-[11  16]  58-[3  16]  40-[-0  5]  1-[-0  5]  26-[7  16]  30-[-0  14]  48-[-0  7]  12-[3  7]  8-[-0  9]  14-[1  10]  9-[6  15]  40-[-0  7]  55-[-0  9] -> 5
 47-[-0  2]  62-[-0  3]  49-[-0  16]  58-[2  10]  11-[4  14]  17-[2  10]  4-[14  16]  39-[-0  8]  26-[1  16]  6-[7  12]  40-[-0  4]  1-[-0  4]  40-[-0  10]  46-[-0  3]  59-[15  16]  51-[2  15]  45-[-0  7]  43-[6  16]  59-[10  16]  56-[-0  16]  63-[-0  3]  7-[-0  9] -> 5
 21-[0  16]  49-[-0  15]  60-[8  14]  56-[-0  15]  38-[1  6]  58-[2  15]  6-[2  12]  9-[-0  16]  45-[14  16]  58-[5  13]  25-[2  13]  9-[-0  6]  44-[1  12]  7-[-0  8]  14-[-0  2]  25-[1  8]  40-[-0  14]  51-[5  11]  39-[-0  6]  1-[-0  10]  25-[2  7]  30-[-0  7] -> 5
 31-[-0  16]  44-[-0  8]  27-[-0  5]  26-[8  15]  48-[-0  11]  62-[-0  14]  31-[-0  5]  25-[5  16]  34-[8  16]  18-[5  13]  38-[-0  2]  22-[-0  9]  47-[-0  9]  27-[-0  10]  30-[-0  1]  40-[-0  9]  35-[2  13]  62-[-0  14]  58-[9  16]  18-[9  15]  45-[-0  2]  33-[2  11] -> 5
 52-[8  12]  47-[-0  14]  52-[8  14]  51-[0  15]  44-[-0  15]  39-[-0  15]  30-[-0  16]  49-[1  13]  18-[12  16]  22-[-0  13]  45-[2  16]  9-[1  11]  5-[10  15]  8-[-0  13]  11-[6  11]  13-[3  11]  58-[4  14]  39-[-0  7]  57-[0  11]  39-[-0  7]  22-[-0  5]  41-[-0  15] -> 5
 21-[-0  5]  33-[-0  12]  16-[-0  15]  34-[-0  11]  58-[9  16]  28-[9  16]  6-[1  7]  5-[9  16]  25-[1  10]  29-[1  6]  35-[0  12]  13-[1  11]  13-[3  5]  63-[-0  14]  42-[-0  1]  36-[5  15]  4-[7  16]  62-[-0  9]  26-[15  16]  62-[-0  7]  22-[-0  7]  52-[10  16] -> 5
 14-[-0  7]  57-[-0  12]  49-[-0  12]  41-[-0  13]  56-[-0  7]  22-[-0  3]  51-[4  9]  57-[-0  6]  21-[-0  16]  20-[-0  9]  47-[-0  8]  10-[1  16]  36-[6  15]  30-[-0  14]  7-[-0  2]  16-[-0  3]  4-[12  16]  39-[-0  10]  9-[-0  14]  13-[1  6]  18-[2  16]  54-[-0  13] -> 5
 48-[-0  6]  40-[-0  9]  17-[8  12]  39-[-0  5]  57-[-0  12]  4-[1  16]  36-[10  16]  46-[-0  12]  56-[-0  2]  58-[2  15]  38-[-0  5]  32-[-0  2]  53-[3  14]  37-[3  16]  62-[-0  6]  40-[-0  14]  51-[-0  2]  48-[-0  6]  27-[7  16]  23-[-0  4]  43-[-0  3]  7-[-0  13] -> 5
 33-[-0  2]  1-[-0  10]  1-[-0  15]  47-[-0  3]  15-[-0  6]  9-[1  11]  8-[-0  10]  55-[-0  11]  63-[-0  12]  13-[8  15]  59-[5  16]  15-[-0  11]  1-[-0  9]  58-[3  14]  51-[11  15]  2-[3  16]  21-[-0  15]  60-[4  14]  61-[-0  1]  32-[-0  5]  27-[5  11]  51-[4  15] -> 5
 17-[-0  16]  33-[-0  15]  10-[13  16]  24-[-0  10]  38-[-0  7]  31-[-0  13]  59-[13  16]  24-[-0  5]  30-[-0  4]  43-[3  16]  60-[2  11]  42-[-0  3]  18-[8  11]  18-[5  16]  32-[-0  11]  44-[11  16]  28-[7  13]  8-[-0  3]  48-[-0  11]  50-[1  9]  10-[8  16]  18-[8  14] -> 5
 48-[-0  9]  10-[10  16]  33-[-0  13]  44-[2  8]  48-[-0  5]  9-[7  15]  27-[7  16]  23-[-0  12]  56-[-0  12]  22-[-0  13]  24-[-0  6]  61-[2  13]  11-[3  12]  35-[6  14]  28-[0  9]  1-[-0  11]  36-[3  15]  30-[-0  10]  44-[3  11]  42-[-0  3]  8-[-0  14]  23-[-0  3] -> 5
 42-[-0  7]  11-[10  16]  17-[-0  11]  1-[-0  5]  24-[-0  4]  16-[-0  6]  14-[-0  8]  59-[1  16]  3-[11  13]  9-[-0  16]  36-[8  16]  36-[1  15]  61-[2  7]  34-[4  15]  1-[-0  12]  19-[13  16]  12-[7  14]  26-[1  11]  21-[-0  14]  57-[-0  14]  2-[3  11]  44-[0  12] -> 5
 62-[-0  8]  21-[-0  14]  46-[1  8]  61-[2  14]  57-[-0  10]  37-[14  16]  49-[0  12]  26-[3  16]  13-[4  14]  62-[-0  4]  23-[-0  10]  59-[7  16]  6-[1  5]  13-[-0  15]  36-[1  15]  19-[6  16]  26-[11  13]  51-[4  11]  53-[5  12]  37-[12  15]  18-[7  16]  63-[-0  1] -> 5
 7-[-0  6]  54-[-0  6]  5-[7  16]  33-[-0  8]  51-[4  13]  43-[-0  10]  52-[2  16]  14-[-0  10]  23-[-0  1]  32-[-0  15]  6-[-0  12]  51-[1  16]  11-[4  16]  41-[-0  8]  29-[0  10]  61-[2  16]  29-[0  11]  29-[0  5]  60-[12  16]  10-[13  16]  35-[2  16]  51-[2  12] -> 5
 35-[0  13]  18-[11  15]  49-[1  16]  13-[-0  12]  23-[-0  10]  35-[0  6]  57-[-0  14]  59-[6  16]  59-[1  16]  27-[2  16]  58-[4  11]  4-[11  16]  14-[-0  10]  55-[2  5]  23-[-0  2]  16-[-0  4]  44-[-0  11]  18-[1  15]  40-[-0  9]  39-[-0  16]  27-[6  16]  25-[-0  4] -> 5
 53-[-0  8]  28-[1  12]  1-[-0  16]  13-[11  14]  26-[6  11]  27-[2  12]  50-[-0  6]  19-[3  9]  8-[-0  3]  1-[-0  5]  44-[8  16]  39-[-0  15]  35-[5  16]  15-[-0  7]  6-[1  15]  20-[-0  1]  63-[-0  3]  42-[0  3]  59-[8  15]  48-[-0  12]  55-[-0  7]  45-[-0  4] -> 5
 4-[10  16]  22-[-0  16]  48-[-0  2]  28-[-0  10]  19-[8  13]  52-[1  16]  18-[9  16]  11-[8  16]  61-[-0  14]  34-[7  15]  63-[-0  1]  23-[-0  7]  27-[1  9]  22-[-0  1]  46-[-0  10]  15-[-0  -0]  58-[1  4]  53-[1  9]  38-[-0  6]  48-[-0  5]  11-[6  16]  18-[2  16] -> 5
 6-[1  15]  20-[-0  9]  29-[-0  1]  31-[-0  9]  45-[4  12]  60-[3  11]  32-[-0  2]  54-[-0  1]  36-[6  16]  29-[-0  10]  1-[-0  16]  11-[5  16]  24-[-0  1]  62-[-0  8]  15-[-0  15]  30-[-0  9]  20-[-0  7]  42-[0  11]  10-[8  16]  59-[15  16]  40-[-0  12]  32-[-0  6] -> 5
 13-[-0  6]  53-[2  15]  19-[1  15]  57-[-0  14]  34-[2  15]  50-[-0  1]  9-[1  11]  20-[-0  6]  31-[-0  15]  25-[4  16]  34-[5  16]  43-[1  14]  9-[1  4]  49-[-0  8]  63-[-0  15]  56-[-0  7]  21-[-0  2]  55-[-0  3]  25-[1  12]  22-[-0  6]  35-[1  8]  63-[-0  13] -> 5
 61-[-0  7]  16-[-0  1]  14-[0  10]  61-[-0  12]  47-[-0  1]  57-[4  11]  12-[2  15]  45-[2  9]  30-[-0  12]  9-[2  8]  28-[7  13]  50-[2  13]  42-[-0  1]  15-[-0  2]  33-[-0  4]  49-[1  4]  36-[5  16]  15-[-0  1]  46-[-0  6]  28-[4  11]  14-[0  2]  23-[-0  11] -> 5
 4-[3  16]  46-[-0  14]  31-[-0  2]  26-[6  16]  7-[-0  3]  45-[5  12]  13-[2  12]  4-[13  16]  60-[8  15]  21-[-0  14]  6-[0  7]  40-[-0  2]  21-[-0  12]  44-[5  14]  22-[-0  5]  40-[-0  7]  15-[-0  14]  45-[2  14]  38-[-0  9]  26-[1  16]  53-[5  13]  34-[4  16] -> 5
 1-[-0  5]  63-[-0  4]  60-[6  15]  42-[-0  2]  36-[8  12]  13-[5  14]  48-[-0  6]  40-[-0  14]  8-[-0  6]  46-[4  10]  45-[4  13]  10-[9  13]  31-[-0  15]  62-[-0  9]  21-[-0  9]  15-[-0  4]  8-[-0  15]  56-[-0  5]  55-[-0  2]  56-[-0  2]  16-[-0  11]  55-[-0  4] -> 5
 42-[-0  6]  5-[4  16]  15-[-0  9]  48-[-0  14]  17-[-0  10]  60-[6  13]  4-[3  16]  49-[0  13]  6-[2  16]  16-[-0  10]  46-[-0  3]  42-[-0  4]  5-[9  16]  46-[-0  11]  35-[7  15]  27-[8  16]  9-[2  7]  12-[8  13]  49-[2  10]  38-[-0  7]  45-[3  6]  49-[1  11] -> 5
 45-[1  12]  4-[4  15]  51-[3  7]  11-[6  16]  45-[1  8]  42-[-0  9]  49-[1  8]  27-[4  16]  52-[3  11]  10-[8  16]  53-[3  12]  28-[13  15]  15-[-0  1]  16-[-0  12]  33-[-0  6]  6-[-0  5]  42-[-0  6]  7-[-0  12]  53-[1  10]  15-[-0  12]  13-[-0  8]  47-[0  3] -> 5
 5-[14  16]  16-[-0  13]  34-[9  16]  16-[-0  2]  17-[4  10]  36-[0  4]  48-[-0  10]  37-[-0  8]  45-[-0  12]  15-[-0  7]  60-[5  14]  61-[-0  14]  6-[2  12]  21-[-0  10]  6-[1  13]  46-[-0  3]  52-[9  15]  23-[-0  4]  20-[-0  10]  34-[13  16]  55-[-0  5]  26-[3  14] -> 5
 16-[-0  10]  63-[-0  12]  5-[1  5]  54-[-0  9]  25-[0  13]  59-[1  16]  5-[2  4]  29-[3  8]  38-[-0  16]  40-[-0  1]  43-[-0  12]  54-[-0  16]  1-[-0  3]  7-[-0  7]  44-[7  15]  44-[11  15]  18-[10  16]  60-[9  16]  6-[-0  3]  3-[15  16]  33-[-0  16]  23-[-0  14] -> 5
 9-[-0  8]  55-[-0  10]  30-[-0  6]  5-[-0  12]  24-[-0  8]  17-[-0  16]  16-[-0  6]  43-[0  5]  51-[2  13]  33-[4  12]  14-[-0  16]  28-[3  12]  62-[0  6]  17-[0  15]  14-[-0  9]  25-[3  14]  48-[-0  11]  59-[6  16]  52-[2  15]  14-[-0  6]  29-[1  8]  53-[2  14] -> 6
 6-[-0  1]  27-[-0  8]  58-[-0  3]  25-[4  13]  27-[-0  10]  37-[13  16]  45-[4  7]  35-[12  15]  32-[-0  9]  26-[2  16]  63-[-0  11]  55-[-0  16]  35-[3  15]  3-[6  10]  21-[-0  2]  56-[-0  10]  36-[8  16]  46-[7  13]  20-[-0  11]  52-[0  11]  41-[-0  11]  53-[4  13] -> 6
 63-[-0  8]  40-[-0  10]  10-[-0  5]  18-[1  13]  47-[-0  3]  52-[4  13]  56-[-0  9]  63-[-0  13]  20-[3  15]  38-[2  9]  13-[-0  13]  54-[9  16]  29-[1  5]  56-[-0  3]  39-[-0  16]  27-[15  16]  56-[-0  7]  1-[-0  10]  3-[0  9]  24-[-0  15]  47-[-0  6]  60-[2  15] -> 6
 18-[13  15]  2-[-0  2]  28-[-0  16]  39-[-0  6]  42-[4  16]  58-[-0  14]  25-[1  7]  60-[12  16]  55-[-0  2]  20-[-0  9]  22-[-0  15]  55-[0  3]  43-[7  16]  53-[6  10]  40-[-0  -0]  3-[3  14]  27-[-0  10]  7-[-0  15]  25-[1  15]  39-[-0  10]  61-[9  16]  14-[-0  10] -> 6
 27-[6  12]  14-[-0  16]  14-[-0  10]  26-[6  16]  41-[-0  3]  38-[3  15]  14-[-0  3]  52-[6  11]  17-[-0  14]  17-[-0  13]  10-[9  12]  16-[-0  3]  3-[10  16]  39-[-0  16]  1-[-0  3]  51-[2  16]  41-[-0  12]  4-[5  10]  4-[5  15]  1-[-0  12]  52-[3  10]  17-[-0  9] -> 6
 34-[1  16]  8-[-0  7]  38-[0  1]  16-[-0  14]  37-[2  15]  29-[-0  15]  31-[-0  11]  58-[-0  5]  7-[-0  9]  56-[-0  7]  22-[-0  12]  19-[7  16]  58-[0  9]  44-[0  2]  10-[1  4]  2-[-0  12]  35-[6  16]  8-[-0  15]  45-[3  11]  54-[8  15]  11-[11  16]  40-[-0  6] -> 6
 6-[-0  5]  62-[0  10]  20-[-0  12]  7-[-0  6]  53-[9  12]  22-[-0  1]  14-[-0  14]  25-[3  10]  59-[12  15]  10-[8  16]  54-[9  16]  17-[0  10]  48-[-0  8]  57-[-0  3]  47-[-0  5]  2-[0  9]  18-[8  16]  33-[1  16]  41-[2  12]  48-[-0  12]  18-[10  16]  14-[-0  1] -> 6
 23-[-0  14]  10-[4  13]  41-[-0  5]  30-[-0  11]  57-[-0  3]  40-[-0  3]  26-[13  16]  63-[-0  6]  50-[5  16]  42-[4  14]  25-[1  4]  2-[0  11]  5-[1  10]  39-[-0  11]  2-[0  9]  43-[6  15]  30-[-0  7]  22-[-0  1]  16-[-0  7]  31-[-0  13]  7-[-0  15]  43-[4  12] -> 6
 45-[2  8]  43-[2  11]  57-[-0  10]  56-[-0  6]  55-[0  3]  29-[4  10]  35-[10  14]  62-[5  16]  1-[-0  5]  59-[5  13]  6-[-0  1]  5-[1  15]  29-[1  12]  29-[1  16]  62-[3  10]  2-[0  5]  1-[-0  10]  29-[3  13]  61-[8  16]  62-[5  8]  3-[10  14]  8-[-0  11] -> 6
 59-[6  13]  12-[4  12]  23-[-0  3]  20-[0  16]  45-[2  11]  62-[3  15]  62-[11  15]  32-[-0  8]  17-[-0  1]  23-[-0  9]  40-[-0  9]  48-[-0  10]  52-[1  16]  45-[4  13]  13-[-0  15]  56-[-0  8]  63-[2  12]  46-[9  16]  18-[3  9]  60-[1  16]  9-[-0  14]  44-[2  16] -> 6
 30-[-0  8]  6-[-0  3]  20-[-0  4]  48-[-0  10]  4-[2  15]  25-[4  11]  28-[-0  3]  18-[5  15]  27-[-0  12]  38-[-0  8]  12-[4  15]  43-[1  16]  60-[3  16]  58-[0  8]  22-[-0  16]  63-[-0  11]  46-[5  12]  59-[9  15]  34-[8  16]  28-[-0  11]  49-[-0  13]  59-[6  16] -> 6
 15-[-0  5]  10-[-0  14]  3-[0  6]  52-[6  9]  63-[-0  11]  1-[-0  16]  49-[-0  15]  53-[1  10]  18-[10  15]  46-[6  16]  22-[-0  9]  45-[1  8]  35-[13  16]  29-[1  9]  6-[-0  13]  8-[-0  15]  13-[-0  15]  51-[13  16]  62-[9  15]  43-[1  16]  46-[13  16]  41-[-0  7] -> 6
 53-[3  16]  16-[-0  16]  1-[-0  13]  45-[12  15]  24-[-0  16]  17-[-0  1]  29-[-0  7]  24-[-0  14]  61-[4  16]  39-[-0  4]  3-[1  13]  63-[-0  5]  14-[-0  14]  41-[1  8]  6-[-0  2]  57-[-0  9]  16-[-0  7]  63-[-0  1]  32-[-0  9]  18-[11  15]  54-[7  10]  60-[9  16] -> 6
 27-[4  14]  45-[2  13]  10-[4  14]  48-[-0  8]  57-[-0  5]  20-[-0  7]  45-[2  13]  55-[-0  16]  35-[5  16]  42-[12  16]  57-[-0  3]  55-[-0  5]  8-[-0  15]  37-[4  16]  28-[2  7]  62-[0  8]  26-[5  16]  27-[5  12]  40-[-0  13]  53-[10  16]  26-[9  16]  13-[-0  4] -> 6
 55-[1  15]  38-[-0  2]  45-[13  16]  17-[0  16]  60-[8  14]  55-[1  3]  32-[-0  10]  9-[-0  8]  22-[-0  12]  28-[-0  5]  48-[-0  16]  22-[-0  15]  48-[-0  -0]  12-[2  15]  61-[4  14]  34-[11  16]  53-[4  13]  15-[-0  12]  26-[9  16]  46-[2  14]  62-[6  14]  3-[6  14] -> 6
 26-[10  14]  14-[-0  9]  31-[-0  2]  8-[-0  14]  46-[4  16]  49-[-0  16]  57-[-0  16]  21-[-0  5]  28-[-0  15]  24-[-0  11]  33-[-0  5]  15-[-0  11]  61-[3  16]  33-[-0  4]  31-[-0  2]  20-[-0  7]  21-[-0  11]  35-[4  14]  63-[-0  13]  13-[-0  9]  16-[-0  14]  24-[-0  10] -> 6
 15-[-0  3]  9-[-0  7]  36-[10  16]  29-[-0  11]  45-[10  15]  25-[4  13]  56-[-0  7]  43-[2  12]  24-[-0  15]  27-[-0  3]  2-[1  8]  9-[0  7]  59-[4  13]  1-[-0  6]  34-[3  16]  16-[-0  15]  4-[2  12]  58-[-0  11]  46-[1  15]  37-[6  10]  31-[-0  10]  34-[7  16] -> 6
 27-[1  16]  6-[-0  3]  45-[4  14]  39-[-0  6]  2-[1  7]  24-[-0  8]  19-[2  10]  40-[-0  14]  17-[1  11]  57-[-0  15]  28-[2  9]  58-[3  7]  44-[7  9]  24-[-0  8]  40-[-0  1]  17-[1  10]  57-[-0  1]  59-[10  15]  29-[0  15]  10-[14  16]  63-[-0  5]  39-[-0  15] -> 6
 3-[2  16]  57-[-0  1]  29-[-0  5]  20-[0  13]  13-[1  6]  12-[12  15]  37-[2  12]  27-[3  15]  9-[-0  15]  39-[-0  11]  12-[1  16]  5-[2  9]  4-[9  16]  24-[-0  4]  45-[3  15]  8-[-0  11]  42-[2  16]  46-[2  12]  19-[10  15]  50-[6  13]  45-[12  16]  6-[-0  13] -> 6
 12-[8  14]  38-[4  8]  21-[-0  7]  41-[1  14]  3-[11  16]  31-[-0  6]  17-[-0  2]  62-[11  15]  6-[-0  8]  26-[10  16]  12-[1  15]  39-[-0  3]  34-[13  16]  26-[13  16]  55-[2  10]  16-[-0  6]  9-[-0  3]  22-[-0  6]  49-[-0  1]  18-[8  13]  34-[8  16]  35-[9  16] -> 6
 50-[8  15]  40-[-0  15]  42-[8  16]  23-[-0  11]  22-[-0  2]  31-[-0  7]  45-[1  15]  57-[-0  10]  40-[-0  5]  29-[-0  10]  20-[-0  14]  20-[-0  8]  34-[7  16]  1-[-0  7]  46-[8  16]  32-[-0  16]  40-[-0  16]  57-[-0  5]  33-[-0  16]  20-[-0  15]  44-[2  16]  23-[-0  10] -> 6
 20-[-0  11]  29-[-0  5]  37-[2  15]  41-[0  8]  15-[-0  16]  47-[0  5]  46-[9  15]  24-[-0  13]  9-[-0  16]  63-[-0  10]  60-[8  16]  8-[-0  16]  39-[-0  3]  34-[12  16]  49-[-0  5]  8-[-0  9]  45-[1  13]  47-[-0  2]  14-[-0  1]  56-[-0  3]  23-[-0  1]  36-[5  16] -> 6
 27-[3  7]  36-[3  16]  11-[9  16]  38-[1  7]  48-[-0  3]  31-[-0  6]  60-[3  16]  52-[3  15]  51-[1  12]  18-[7  13]  4-[7  14]  27-[2  8]  22-[-0  7]  58-[2  4]  45-[1  16]  33-[-0  15]  14-[-0  15]  37-[6  15]  11-[3  15]  6-[-0  4]  20-[-0  3]  2-[1  9] -> 6
 63-[-0  12]  22-[-0  14]  62-[1  13]  56-[-0  9]  48-[-0  2]  15-[-0  10]  20-[-0  16]  22-[-0  7]  15-[-0  13]  33-[2  7]  25-[3  14]  29-[-0  11]  59-[14  16]  13-[1  13]  15-[-0  9]  26-[11  16]  33-[1  9]  32-[-0  11]  49-[-0  3]  27-[3  13]  52-[0  10]  41-[0  11] -> 6
 30-[-0  3]  60-[3  14]  8-[-0  14]  12-[5  15]  45-[5  14]  40-[-0  9]  38-[4  9]  45-[2  7]  42-[2  14]  21-[-0  7]  28-[0  3]  9-[-0  16]  2-[-0  11]  61-[6  15]  49-[-0  4]  35-[6  16]  9-[-0  1]  45-[3  15]  3-[5  13]  21-[-0  3]  28-[0  15]  51-[4  16] -> 6
 24-[-0  13]  40-[-0  4]  10-[2  15]  40-[-0  8]  49-[-0  8]  6-[-0  7]  47-[-0  2]  2-[0  14]  33-[-0  14]  11-[10  16]  46-[4  14]  37-[5  11]  51-[4  16]  31-[-0  8]  22-[-0  12]  16-[-0  9]  12-[1  9]  31-[-0  8]  4-[-0  7]  61-[2  15]  26-[1  16]  47-[-0  9] -> 6
 52-[4  12]  19-[1  16]  32-[-0  8]  33-[-0  7]  31-[-0  6]  27-[7  11]  9-[-0  16]  21-[-0  4]  8-[-0  4]  61-[2  14]  31-[-0  6]  21-[-0  16]  31-[-0  6]  24-[-0  4]  22-[-0  11]  57-[-0  10]  60-[7  16]  12-[-0  9]  26-[5  15]  47-[-0  2]  13-[-0  11]  20-[-0  1] -> 6
 30-[3  15]  33-[-0  14]  20-[5  11]  42-[4  6]  16-[-0  9]  26-[0  15]  52-[-0  13]  45-[-0  5]  21-[2  11]  2-[1  13]  25-[-0  7]  44-[2  12]  39-[-0  10]  47-[-0  7]  12-[6  16]  1-[-0  9]  52-[-0  11]  35-[15  16]  43-[13  16]  46-[-0  5]  14-[-0  13]  9-[-0  10] -> 7
 23-[-0  13]  46-[-0  12]  40-[-0  5]  10-[6  16]  37-[-0  12]  34-[0  6]  2-[3  15]  60-[-0  11]  12-[4  14]  59-[4  14]  31-[-0  5]  50-[1  15]  24-[-0  5]  53-[-0  7]  40-[-0  8]  8-[-0  6]  50-[6  15]  50-[13  16]  44-[1  4]  54-[-0  6]  15-[-0  11]  63-[-0  8] -> 7
 58-[3  14]  40-[-0  9]  27-[15  16]  26-[6  14]  63-[-0  12]  40-[-0  3]  23-[-0  10]  6-[-0  4]  7-[-0  16]  36-[2  16]  52-[0  5]  24-[-0  16]  17-[-0  12]  51-[7  16]  29-[8  16]  63-[-0  12]  8-[-0  13]  2-[9  11]  46-[-0  1]  1-[0  14]  10-[3  16]  30-[5  16] -> 7
 59-[4  14]  26-[-0  10]  30-[3  14]  41-[-0  3]  56-[-0  3]  19-[-0  16]  27-[1  10]  41-[-0  8]  15-[3  14]  40-[-0  12]  31-[-0  8]  33-[-0  6]  4-[8  16]  51-[12  16]  15-[5  11]  27-[3  8]  8-[-0  1]  17-[-0  10]  15-[5  15]  48-[-0  3]  61-[-0  1]  35-[9  16] -> 7
 5-[4  12]  42-[0  6]  17-[-0  8]  3-[1  16]  17-[-0  13]  51-[13  16]  61-[-0  12]  14-[-0  11]  43-[10  15]  12-[4  16]  51-[9  16]  41-[-0  3]  41-[-0  14]  41-[-0  4]  42-[0  9]  55-[-0  11]  46-[-0  14]  14-[-0  14]  10-[4  13]  24-[-0  5]  8-[-0  9]  41-[-0  11] -> 7
 18-[5  16]  55-[-0  16]  27-[3  14]  32-[-0  1]  14-[11  16]  5-[5  16]  18-[3  14]  41-[-0  10]  60-[1  11]  29-[1  16]  22-[10  13]  53-[-0  7]  46-[-0  6]  58-[-0  9]  30-[3  11]  38-[-0  16]  36-[1  11]  56-[-0  15]  29-[3  16]  28-[0  2]  51-[9  13]  24-[-0  9] -> 7
 34-[14  16]  32-[-0  3]  14-[12  16]  20-[-0  15]  11-[5  12]  13-[4  8]  58-[5  10]  38-[0  9]  63-[-0  6]  39-[-0  7]  49-[-0  8]  36-[9  16]  8-[-0  4]  24-[-0  2]  11-[7  15]  46-[-0  5]  51-[1  16]  54-[-0  15]  57-[-0  15]  25-[-0  3]  16-[-0  11]  33-[4  8] -> 7
 40-[-0  5]  62-[-0  7]  56-[-0  3]  16-[-0  10]  54-[-0  7]  37-[2  12]  59-[5  13]  41-[-0  14]  31-[-0  10]  34-[13  16]  50-[3  15]  5-[9  15]  39-[-0  4]  27-[6  12]  59-[3  11]  5-[6  16]  57-[-0  3]  9-[-0  3]  26-[-0  7]  19-[-0  12]  9-[-0  14]  41-[-0  8] -> 7
 61-[-0  15]  4-[7  16]  20-[2  7]  18-[-0  9]  7-[-0  1]  36-[13  16]  56-[-0  3]  52-[0  16]  62-[-0  16]  21-[6  16]  40-[-0  7]  12-[2  16]  27-[5  12]  10-[3  15]  56-[-0  12]  25-[0  13]  24-[-0  12]  19-[-0  11]  42-[-0  8]  13-[1  16]  28-[13  15]  31-[-0  6] -> 7
 14-[-0  3]  30-[3  14]  40-[-0  9]  17-[-0  8]  61-[-0  14]  27-[4  16]  37-[2  6]  10-[3  12]  29-[3  16]  17-[-0  1]  22-[-0  5]  58-[1  13]  5-[1  7]  25-[1  8]  38-[0  12]  9-[2  6]  61-[-0  6]  44-[-0  11]  61-[-0  12]  40-[-0  10]  11-[1  13]  21-[1  11] -> 7
 16-[-0  13]  10-[2  16]  22-[-0  8]  62-[-0  12]  13-[3  16]  3-[5  16]  51-[6  16]  55-[-0  8]  45-[-0  10]  19-[-0  2]  58-[1  16]  60-[0  15]  61-[-0  16]  2-[2  13]  58-[4  13]  31-[-0  16]  31-[-0  16]  47-[-0  11]  38-[3  15]  60-[0  7]  32-[-0  8]  57-[-0  6] -> 7
 54-[-0  11]  30-[10  16]  29-[1  10]  18-[-0  11]  45-[-0  14]  11-[7  9]  34-[2  16]  47-[-0  3]  14-[-0  -0]  4-[4  16]  24-[-0  9]  32-[-0  5]  52-[-0  11]  40-[-0  15]  24-[-0  9]  46-[-0  15]  59-[7  11]  3-[10  16]  26-[4  9]  6-[-0  6]  7-[-0  4]  17-[-0  7] -> 7
 52-[5  11]  57-[-0  8]  46-[-0  16]  26-[1  13]  58-[1  13]  19-[-0  4]  4-[12  16]  35-[8  16]  33-[0  8]  11-[3  10]  49-[-0  4]  3-[4  15]  5-[6  16]  52-[4  14]  27-[1  14]  4-[9  16]  49-[-0  10]  14-[2  7]  48-[-0  10]  20-[5  10]  6-[0  11]  12-[2  14] -> 7
 47-[-0  3]  18-[-0  9]  28-[9  16]  44-[12  16]  9-[-0  5]  40-[-0  16]  54-[-0  16]  39-[-0  3]  45-[1  7]  61-[-0  8]  27-[-0  13]  61-[-0  16]  32-[-0  4]  41-[-0  1]  41-[-0  13]  40-[-0  7]  42-[-0  2]  26-[-0  14]  39-[-0  2]  25-[-0  11]  4-[9  16]  22-[11  15] -> 7
 10-[2  16]  40-[-0  13]  9-[-0  3]  55-[-0  3]  35-[9  16]  42-[-0  13]  61-[-0  8]  46-[-0  5]  55-[-0  7]  33-[-0  15]  11-[3  14]  9-[-0  7]  55-[-0  14]  61-[-0  12]  25-[-0  5]  9-[-0  1]  25-[-0  3]  1-[-0  14]  35-[5  16]  40-[-0  12]  41-[-0  8]  43-[6  16] -> 7
 24-[-0  7]  22-[-0  16]  49-[-0  10]  54-[-0  11]  16-[-0  8]  30-[9  12]  54-[-0  2]  44-[3  8]  30-[5  15]  1-[-0  12]  46-[-0  10]  39-[-0  9]  7-[-0  13]  60-[-0  13]  29-[1  16]  25-[-0  13]  58-[1  16]  41-[-0  13]  47-[-0  8]  17-[-0  15]  35-[14  16]  33-[-0  7] -> 7
 21-[2  16]  59-[1  16]  26-[-0  3]  50-[1  7]  26-[-0  9]  43-[5  14]  3-[10  16]  16-[-0  14]  3-[7  16]  25-[-0  10]  57-[-0  10]  43-[3  14]  22-[7  14]  31-[-0  16]  56-[-0  13]  30-[1  15]  47-[-0  11]  18-[-0  11]  50-[1  13]  33-[-0  15]  61-[-0  9]  63-[-0  14] -> 7
 57-[-0  7]  29-[8  15]  26-[-0  12]  11-[2  12]  63-[-0  16]  9-[-0  1]  8-[-0  3]  39-[-0  14]  50-[-0  12]  17-[-0  3]  34-[6  16]  10-[11  14]  59-[1  14]  51-[6  16]  24-[-0  4]  11-[1  12]  10-[2  15]  13-[4  15]  22-[2  13]  49-[-0  6]  53-[-0  16]  60-[-0  16] -> 7
 7-[-0  14]  48-[-0  12]  17-[-0  1]  32-[-0  16]  31-[-0  11]  4-[12  16]  9-[-0  11]  7-[-0  14]  30-[-0  11]  44-[11  15]  61-[-0  9]  6-[-0  14]  44-[1  14]  59-[1  14]  50-[5  14]  15-[-0  3]  54-[-0  5]  46-[1  11]  41-[-0  10]  61-[-0  5]  59-[8  13]  2-[7  15] -> 7
 50-[-0  10]  14-[5  16]  2-[4  9]  27-[4  13]  17-[-0  16]  1-[-0  8]  55-[-0  2]  47-[-0  3]  59-[5  16]  39-[-0  8]  19-[1  12]  16-[-0  16]  46-[-0  3]  43-[9  11]  25-[-0  11]  43-[9  13]  43-[5  16]  57-[-0  13]  57-[-0  10]  58-[1  6]  23-[-0  9]  51-[2  16] -> 7
 54-[-0  2]  33-[2  12]  20-[4  16]  42-[7  12]  40-[-0  7]  2-[7  16]  3-[10  16]  47-[-0  10]  60-[-0  11]  56-[-0  16]  37-[4  16]  28-[13  16]  42-[2  11]  42-[1  10]  50-[6  16]  54-[-0  3]  40-[-0  9]  33-[3  12]  54-[-0  10]  55-[-0  13]  60-[-0  2]  7-[-0  15] -> 7
 48-[-0  6]  51-[15  16]  22-[1  10]  18-[-0  14]  60-[-0  10]  19-[-0  15]  63-[-0  14]  43-[6  16]  63-[-0  2]  6-[2  13]  45-[-0  16]  8-[-0  1]  38-[-0  9]  33-[-0  4]  4-[7  16]  58-[5  12]  51-[11  16]  38-[-0  12]  32-[-0  16]  17-[-0  7]  44-[3  16]  51-[6  16] -> 7
 23-[-0  12]  8-[-0  9]  14-[-0  3]  9-[-0  9]  19-[0  3]  45-[3  15]  6-[-0  -0]  38-[5  15]  61-[-0  16]  23-[-0  8]  4-[12  16]  24-[-0  7]  34-[1  14]  12-[6  16]  63-[-0  6]  8-[-0  5]  22-[-0  12]  39-[-0  9]  57-[-0  6]  25-[-0  10]  46-[0  12]  34-[15  16] -> 7
 34-[2  16]  10-[8  14]  46-[4  6]  25-[-0  11]  32-[-0  9]  37-[12  15]  43-[15  16]  33-[-0  11]  47-[-0  2]  23-[-0  7]  1-[2  9]  50-[8  14]  35-[11  14]  7-[-0  12]  25-[-0  15]  47-[-0  7]  48-[-0  11]  37-[2  15]  18-[-0  6]  17-[-0  8]  19-[0  11]  7-[-0  11] -> 7
 38-[6  13]  2-[3  12]  57-[-0  13]  15-[-0  5]  12-[10  12]  21-[11  15]  49-[-0  16]  59-[2  15]  55-[-0  16]  15-[-0  1]  48-[-0  6]  32-[-0  3]  7-[-0  16]  61-[-0  13]  42-[1  15]  7-[-0  4]  53-[-0  9]  14-[0  10]  63-[-0  11]  50-[1  8]  42-[8  16]  2-[4  15] -> 7
 43-[2  14]  54-[-0  16]  60-[-0  15]  60-[-0  6]  19-[-0  9]  25-[-0  10]  28-[0  15]  53-[-0  12]  50-[3  12]  31-[-0  3]  63-[-0  8]  41-[-0  9]  56-[-0  15]  56-[-0  16]  58-[3  13]  58-[7  16]  40-[-0  10]  35-[13  16]  57-[-0  10]  51-[6  15]  13-[7  12]  31-[-0  5] -> 7
 53-[-0  7]  38-[0  11]  10-[8  16]  37-[4  11]  15-[-0  6]  59-[10  16]  54-[-0  2]  20-[0  15]  48-[-0  5]  48-[-0  12]  7-[-0  13]  53-[-0  9]  15-[-0  12]  28-[9  16]  14-[3  13]  36-[1  16]  6-[1  12]  9-[-0  1]  29-[8  16]  10-[8  12]  17-[-0  2]  47-[-0  9] -> 7
 15-[-0  16]  41-[-0  2]  28-[9  16]  18-[11  16]  56-[-0  14]  51-[3  16]  32-[-0  7]  48-[-0  8]  45-[1  16]  28-[14  16]  36-[4  16]  44-[4  16]  51-[1  16]  18-[11  16]  49-[-0  7]  3-[11  15]  38-[-0  14]  22-[1  12]  32-[-0  1]  43-[8  16]  26-[4  16]  38-[-0  3] -> 8
 31-[-0  2]  17-[-0  10]  55-[-0  8]  28-[3  16]  59-[14  16]  62-[-0  15]  60-[9  13]  24-[-0  12]  22-[1  14]  56-[-0  7]  35-[1  12]  38-[-0  10]  14-[-0  4]  58-[5  12]  57-[-0  13]  38-[-0  10]  18-[3  7]  59-[14  16]  43-[10  16]  24-[-0  14]  8-[-0  4]  44-[5  15] -> 8
 1-[-0  9]  55-[-0  8]  32-[-0  3]  3-[15  16]  28-[8  16]  53-[1  15]  56-[-0  10]  44-[-0  15]  13-[12  16]  46-[4  12]  52-[-0  12]  56-[-0  10]  63-[1  3]  55-[-0  13]  29-[2  13]  4-[3  16]  50-[15  16]  40-[-0  2]  10-[1  13]  50-[3  16]  34-[1  9]  39-[-0  8] -> 8
 19-[3  16]  50-[6  16]  25-[-0  16]  35-[9  16]  16-[-0  12]  20-[0  11]  45-[7  16]  21-[6  15]  32-[-0  15]  6-[-0  13]  6-[-0  5]  4-[6  15]  37-[1  10]  51-[1  9]  31-[-0  4]  46-[6  13]  14-[0  2]  3-[5  11]  2-[-0  8]  27-[5  16]  32-[-0  9]  17-[-0  1] -> 8
 46-[-0  11]  59-[7  16]  1-[-0  13]  56-[-0  5]  41-[-0  14]  25-[2  8]  3-[2  14]  49-[-0  16]  13-[9  13]  35-[2  15]  36-[5  16]  63-[-0  5]  18-[5  9]  21-[7  15]  50-[2  16]  45-[2  11]  10-[6  15]  17-[-0  12]  47-[-0  15]  12-[2  11]  18-[2  6]  12-[7  16] -> 8
 48-[-0  13]  2-[3  16]  23-[-0  13]  16-[-0  5]  54-[-0  9]  39-[-0  15]  10-[7  16]  17-[-0  3]  61-[-0  9]  52-[3  10]  31-[-0  1]  18-[8  16]  50-[2  9]  39-[-0  13]  39-[-0  9]  20-[13  16]  28-[1  6]  37-[-0  14]  6-[3  15]  27-[4  16]  18-[3  15]  53-[11  16] -> 8
 59-[7  16]  60-[8  16]  36-[12  15]  52-[4  15]  10-[15  16]  60-[4  16]  12-[3  14]  61-[7  15]  39-[-0  16]  18-[7  14]  29-[2  16]  13-[15  16]  35-[13  16]  36-[8  15]  17-[-0  6]  27-[5  16]  45-[-0  10]  25-[-0  12]  22-[4  14]  12-[5  9]  49-[1  5]  17-[-0  15] -> 8
 40-[-0  2]  18-[4  12]  7-[-0  5]  22-[-0  1]  23-[-0  15]  63-[-0  14]  55-[-0  3]  52-[1  10]  22-[-0  16]  9-[-0  15]  11-[9  12]  35-[10  16]  10-[5  7]  30-[-0  15]  40-[-0  16]  16-[-0  9]  19-[8  16]  15-[-0  8]  45-[6  15]  59-[11  16]  12-[1  16]  43-[2  13] -> 8
 5-[4  10]  32-[-0  5]  49-[1  9]  41-[1  16]  6-[-0  15]  60-[3  16]  16-[-0  4]  5-[4  8]  45-[3  16]  10-[6  16]  27-[3  16]  55-[-0  3]  49-[1  12]  47-[-0  3]  45-[12  16]  40-[-0  2]  58-[2  10]  62-[-0  14]  47-[-0  13]  2-[3  14]  19-[8  16]  10-[4  16] -> 8
 62-[-0  14]  61-[1  13]  21-[3  16]  53-[4  14]  27-[5  16]  20-[8  11]  32-[-0  2]  13-[11  16]  63-[-0  1]  43-[11  16]  22-[-0  3]  35-[8  16]  14-[-0  16]  39-[-0  7]  1-[-0  1]  30-[-0  13]  36-[3  15]  8-[-0  14]  37-[0  13]  53-[3  13]  28-[11  16]  11-[2  16] -> 8
 14-[3  8]  44-[11  13]  12-[6  14]  4-[1  16]  27-[9  16]  57-[-0  3]  53-[1  16]  21-[3  16]  50-[10  15]  19-[13  15]  42-[9  15]  13-[6  16]  46-[0  7]  13-[11  16]  37-[1  11]  59-[11  14]  42-[4  16]  47-[-0  4]  52-[3  14]  45-[12  16]  41-[5  12]  15-[-0  6] -> 8
 61-[10  13]  31-[-0  8]  58-[-0  -0]  36-[9  16]  21-[7  16]  23-[-0  8]  31-[-0  14]  22-[1  8]  18-[8  16]  22-[2  6]  18-[8  16]  42-[-0  7]  47-[-0  14]  22-[2  11]  17-[4  8]  7-[-0  16]  41-[-0  15]  56-[-0  8]  13-[7  16]  23-[-0  2]  8-[-0  5]  58-[-0  5] -> 8
 62-[-0  16]  37-[2  14]  30-[-0  16]  29-[5  15]  45-[3  16]  14-[4  16]  20-[7  11]  31-[-0  10]  38-[1  9]  39-[-0  13]  37-[2  15]  19-[1  15]  62-[-0  1]  23-[-0  14]  34-[5  16]  17-[-0  15]  49-[-0  9]  17-[1  7]  1-[-0  15]  54-[-0  12]  56-[-0  8]  34-[7  16] -> 8
 3-[5  16]  7-[-0  15]  32-[-0  5]  1-[-0  16]  52-[6  16]  44-[3  16]  62-[-0  2]  58-[1  12]  43-[12  16]  18-[8  15]  47-[-0  12]  5-[0  5]  1-[-0  2]  44-[4  16]  31-[-0  6]  26-[6  15]  51-[2  13]  30-[-0  8]  53-[4  10]  57-[-0  12]  49-[-0  12]  53-[3  15] -> 8
 55-[-0  5]  56-[-0  11]  10-[2  13]  38-[-0  4]  49-[-0  1]  25-[1  12]  31-[-0  11]  36-[11  16]  1-[-0  15]  8-[-0  12]  38-[-0  15]  30-[-0  14]  10-[8  14]  17-[5  8]  3-[2  12]  34-[1  5]  47-[-0  14]  51-[5  15]  21-[12  16]  41-[-0  3]  42-[7  10]  15-[-0  11] -> 8
 36-[-0  10]  45-[-0  16]  50-[10  16]  11-[3  14]  12-[6  16]  18-[1  16]  28-[3  11]  4-[5  12]  21-[9  16]  10-[6  12]  7-[-0  10]  60-[2  8]  46-[-0  7]  42-[3  15]  48-[-0  4]  33-[-0  15]  41-[0  16]  50-[11  16]  5-[6  16]  26-[3  11]  5-[3  12]  47-[-0  15] -> 8
 22-[-0  8]  29-[-0  15]  48-[-0  6]  47-[-0  13]  16-[-0  15]  3-[2  16]  3-[7  15]  39-[-0  1]  14-[1  8]  55-[-0  8]  60-[3  10]  14-[3  9]  26-[9  12]  42-[1  7]  48-[-0  3]  23-[-0  4]  25-[-0  2]  53-[-0  16]  54-[-0  5]  30-[-0  11]  5-[14  15]  35-[3  16] -> 8
 51-[3  14]  3-[4  13]  8-[-0  11]  34-[1  13]  54-[4  8]  52-[1  12]  8-[-0  3]  1-[-0  14]  18-[12  16]  56-[-0  2]  8-[-0  13]  7-[-0  14]  14-[2  7]  31-[-0  8]  47-[-0  8]  36-[1  14]  22-[3  15]  2-[0  5]  61-[3  10]  62-[-0  7]  11-[10  14]  55-[-0  8] -> 8
 30-[-0  8]  54-[1  14]  22-[0  12]  47-[-0  13]  9-[1  8]  57-[-0  8]  61-[7  16]  58-[-0  15]  31-[-0  7]  63-[-0  13]  11-[7  14]  38-[-0  14]  24-[-0  5]  35-[6  16]  38-[-0  10]  35-[11  16]  21-[12  16]  19-[-0  7]  49-[-0  15]  17-[3  15]  33-[-0  16]  23-[-0  3] -> 8
 28-[2  16]  56-[-0  11]  14-[3  9]  52-[2  7]  33-[-0  13]  27-[10  16]  25-[-0  10]  23-[-0  7]  10-[6  16]  54-[1  11]  29-[3  13]  15-[-0  14]  63-[-0  7]  33-[-0  6]  17-[4  11]  28-[14  16]  49-[-0  1]  60-[6  16]  2-[1  6]  53-[12  16]  30-[-0  11]  30-[-0  9] -> 8
 33-[-0  8]  60-[11  16]  58-[1  5]  37-[12  15]  40-[-0  12]  37-[10  15]  43-[1  13]  61-[12  16]  57-[-0  6]  37-[12  14]  39-[-0  12]  46-[5  13]  39-[-0  12]  45-[5  11]  63-[-0  9]  49-[-0  7]  5-[6  14]  3-[2  12]  14-[1  11]  20-[1  6]  35-[2  16]  25-[-0  11] -> 8
 11-[3  16]  1-[-0  10]  22-[-0  11]  16-[-0  4]  52-[11  16]  30-[-0  12]  8-[-0  15]  63-[-0  12]  29-[0  4]  22-[0  8]  48-[-0  14]  55-[-0  9]  41-[-0  11]  31-[-0  7]  11-[6  13]  62-[-0  7]  56-[-0  11]  16-[-0  2]  11-[8  14]  55-[-0  13]  45-[0  5]  21-[7  16] -> 8
 5-[1  3]  10-[8  16]  36-[6  16]  12-[3  10]  56-[-0  2]  15-[-0  5]  8-[-0  14]  11-[8  15]  59-[3  16]  23-[-0  11]  22-[1  12]  52-[1  10]  43-[7  15]  18-[6  15]  60-[3  16]  35-[8  16]  21-[3  15]  49-[-0  3]  4-[7  12]  29-[7  14]  38-[-0  4]  8-[-0  8] -> 8
 45-[-0  7]  4-[1  13]  23-[-0  12]  38-[-0  4]  28-[12  16]  22-[0  7]  55-[-0  15]  38-[-0  8]  41-[1  16]  18-[8  14]  16-[-0  10]  40-[-0  14]  11-[2  16]  61-[1  6]  5-[-0  4]  44-[3  7]  3-[14  15]  12-[6  16]  10-[6  15]  18-[2  14]  32-[-0  6]  61-[1  10] -> 8
 20-[0  5]  23-[-0  14]  14-[-0  9]  29-[9  12]  53-[7  14]  9-[3  16]  48-[-0  13]  10-[9  16]  9-[1  15]  43-[5  14]  6-[-0  15]  6-[-0  7]  12-[3  11]  10-[9  15]  16-[-0  9]  26-[1  13]  4-[6  15]  44-[4  11]  55-[-0  13]  40-[-0  1]  4-[9  16]  60-[10  16] -> 8
 39-[-0  3]  3-[1  16]  35-[12  16]  55-[-0  9]  21-[8  16]  48-[-0  13]  2-[8  13]  21-[7  16]  10-[13  16]  3-[12  16]  44-[3  12]  48-[-0  6]  13-[1  16]  61-[-0  12]  3-[5  16]  42-[1  16]  56-[-0  3]  12-[2  14]  49-[1  3]  43-[9  16]  30-[-0  6]  10-[11  16] -> 8
 19-[6  13]  44-[-0  12]  31-[-0  10]  21-[12  16]  25-[-0  12]  30-[-0  11]  49-[-0  15]  11-[7  11]  61-[1  13]  15-[-0  4]  17-[-0  12]  2-[3  7]  46-[3  12]  44-[-0  10]  32-[-0  7]  46-[6  8]  42-[6  10]  47-[-0  4]  43-[2  13]  14-[1  16]  41-[-0  15]  35-[11  16] -> 8
 60-[-0  4]  38-[-0  11]  42-[-0  -0]  6-[3  11]  59-[5  16]  46-[-0  11]  35-[3  16]  18-[3  16]  4-[9  14]  26-[12  16]  14-[4  13]  24-[-0  4]  6-[4  6]  5-[10  15]  40-[-0  7]  55-[-0  7]  47-[-0  10]  41-[-0  2]  41-[-0  12]  1-[-0  10]  6-[-0  5]  38-[-0  9] -> 9
 35-[1  14]  44-[-0  2]  5-[-0  10]  29-[4  16]  53-[3  13]  29-[7  16]  31-[-0  1]  23-[-0  11]  22-[0  15]  20-[1  8]  48-[-0  7]  17-[-0  4]  54-[8  16]  30-[3  10]  16-[-0  9]  27-[3  13]  31-[-0  16]  50-[-0  12]  39-[-0  3]  52-[0  9]  59-[7  16]  46-[6  16] -> 9
 50-[-0  16]  14-[7  15]  36-[3  16]  47-[-0  12]  8-[-0  5]  29-[15  16]  46-[-0  7]  31-[-0  14]  52-[9  16]  51-[1  13]  13-[6  12]  62-[-0  15]  46-[-0  14]  17-[3  10]  8-[-0  11]  22-[7  16]  2-[0  12]  33-[-0  8]  46-[-0  10]  60-[3  14]  29-[9  16]  32-[-0  13] -> 9
 37-[9  15]  51-[0  8]  7-[-0  11]  12-[5  10]  8-[-0  2]  52-[6  14]  24-[-0  10]  52-[4  16]  58-[-0  15]  30-[3  9]  42-[-0  4]  31-[-0  14]  27-[1  16]  20-[2  7]  32-[-0  9]  52-[0  12]  5-[2  14]  63-[-0  5]  8-[-0  6]  51-[0  3]  4-[2  12]  16-[-0  9] -> 9
 53-[4  9]  28-[9  16]  39-[-0  11]  41-[-0  4]  37-[14  16]  54-[1  7]  5-[15  16]  16-[-0  5]  9-[0  10]  36-[8  13]  50-[-0  6]  51-[4  15]  44-[2  16]  58-[-0  2]  60-[11  16]  42-[-0  15]  5-[4  16]  51-[3  12]  32-[-0  6]  5-[4  16]  11-[11  16]  18-[1  15] -> 9
 49-[-0  16]  32-[-0  6]  44-[-0  13]  37-[2  14]  1-[-0  10]  1-[-0  7]  36-[-0  4]  1-[-0  6]  19-[6  16]  36-[-0  12]  58-[2  12]  50-[-0  15]  48-[-0  16]  6-[-0  14]  21-[3  15]  12-[13  15]  1-[-0  15]  33-[-0  7]  16-[-0  11]  45-[6  12]  11-[5  16]  25-[-0  3] -> 9
 35-[-0  11]  2-[-0  5]  57-[-0  2]  25-[-0  1]  6-[11  15]  49-[-0  11]  38-[0  4]  7-[-0  13]  26-[-0  11]  34-[-0  3]  61-[-0  11]  61-[-0  10]  25-[-0  14]  12-[2  15]  40-[-0  14]  55-[-0  9]  4-[2  16]  43-[-0  15]  55-[-0  -0]  9-[-0  -0]  12-[4  14]  45-[5  11] -> 9
 11-[9  16]  26-[3  14]  18-[2  16]  8-[-0  11]  56-[-0  7]  38-[5  10]  5-[10  16]  17-[0  6]  60-[6  10]  42-[-0  16]  28-[3  15]  43-[-0  5]  60-[2  10]  53-[1  12]  58-[-0  16]  32-[-0  2]  31-[-0  14]  16-[-0  3]  19-[1  15]  43-[-0  11]  25-[-0  4]  25-[-0  1] -> 9
 13-[5  16]  6-[0  15]  43-[-0  4]  56-[-0  1]  57-[-0  10]  30-[2  7]  58-[7  16]  14-[-0  15]  38-[1  15]  23-[-0  7]  2-[6  16]  57-[-0  9]  58-[5  10]  7-[-0  4]  42-[-0  2]  23-[-0  13]  32-[-0  14]  15-[-0  1]  34-[-0  12]  23-[-0  5]  49-[-0  5]  53-[1  15] -> 9
 30-[4  16]  19-[-0  10]  15-[-0  2]  51-[7  14]  9-[3  9]  40-[-0  8]  9-[4  11]  15-[-0  1]  33-[-0  10]  16-[-0  8]  40-[-0  14]  30-[1  10]  63-[-0  2]  48-[-0  3]  51-[9  15]  29-[15  16]  34-[2  10]  42-[-0  10]  31-[-0  3]  47-[-0  14]  58-[1  14]  7-[-0  9] -> 9
 26-[13  16]  27-[1  13]  8-[-0  10]  57-[-0  2]  18-[11  14]  56-[-0  15]  21-[3  16]  20-[1  11]  56-[-0  10]  25-[1  13]  21-[4  16]  50-[-0  16]  31-[-0  4]  31-[-0  3]  46-[-0  6]  36-[9  16]  42-[-0  13]  61-[-0  8]  17-[2  10]  2-[1  13]  51-[3  7]  15-[-0  13] -> 9
 8-[-0  5]  49-[-0  6]  59-[3  15]  62-[-0  14]  44-[2  15]  9-[0  9]  19-[3  12]  50-[-0  7]  31-[-0  4]  16-[-0  5]  29-[5  16]  7-[-0  2]  51-[-0  14]  57-[-0  7]  39-[-0  13]  20-[1  14]  58-[-0  16]  52-[2  16]  9-[-0  6]  32-[-0  11]  45-[6  13]  38-[-0  1] -> 9
 24-[-0  16]  20-[4  10]  22-[-0  11]  11-[2  16]  57-[0  10]  14-[-0  9]  40-[-0  10]  18-[5  15]  33-[-0  12]  34-[0  11]  58-[3  10]  55-[-0  16]  40-[-0  13]  62-[0  13]  51-[1  12]  39-[-0  11]  32-[-0  2]  23-[-0  10]  51-[2  16]  13-[7  12]  55-[-0  16]  33-[-0  4] -> 9
 38-[5  16]  3-[3  15]  57-[-0  7]  35-[-0  1]  40-[-0  2]  20-[3  12]  45-[2  16]  3-[1  16]  4-[9  16]  2-[0  10]  15-[-0  4]  17-[-0  4]  32-[-0  4]  25-[-0  15]  12-[0  2]  28-[10  13]  25-[-0  5]  30-[2  8]  16-[-0  6]  51-[9  16]  20-[4  8]  5-[7  14] -> 9
 56-[-0  7]  38-[0  5]  34-[5  16]  14-[3  16]  47-[-0  7]  37-[12  16]  63-[-0  6]  42-[2  9]  16-[-0  13]  58-[-0  1]  38-[0  14]  37-[13  16]  11-[12  16]  35-[12  16]  45-[4  13]  59-[0  5]  24-[-0  8]  5-[5  16]  59-[0  13]  52-[12  16]  47-[-0  15]  59-[0  14] -> 9
 63-[-0  4]  37-[7  16]  54-[-0  13]  3-[4  14]  8-[-0  13]  30-[4  15]  13-[1  12]  25-[2  6]  27-[11  16]  4-[2  15]  24-[-0  9]  23-[-0  6]  57-[-0  12]  7-[-0  12]  36-[2  6]  36-[2  9]  36-[1  10]  57-[-0  1]  50-[-0  9]  55-[-0  13]  12-[2  14]  24-[-0  5] -> 9
 30-[0  5]  35-[-0  12]  42-[-0  13]  22-[-0  15]  56-[-0  12]  38-[1  7]  33-[-0  4]  10-[1  16]  43-[-0  14]  47-[-0  16]  9-[1  6]  46-[2  10]  37-[11  16]  46-[2  13]  60-[13  16]  13-[11  16]  50-[-0  8]  42-[-0  10]  26-[7  16]  62-[-0  12]  6-[2  14]  59-[0  16] -> 9
 17-[0  9]  10-[3  16]  60-[15  16]  27-[15  16]  58-[0  13]  19-[1  16]  55-[-0  1]  51-[8  11]  42-[-0  6]  34-[-0  10]  53-[10  16]  12-[2  9]  35-[-0  4]  39-[-0  11]  20-[4  8]  44-[-0  14]  62-[-0  3]  38-[5  9]  57-[-0  16]  21-[10  16]  33-[-0  4]  53-[3  16] -> 9
 59-[7  13]  8-[-0  4]  51-[5  12]  10-[1  14]  21-[7  16]  47-[-0  16]  36-[-0  14]  10-[1  16]  28-[4  16]  58-[1  10]  6-[-0  15]  23-[-0  9]  1-[-0  11]  59-[8  16]  41-[-0  6]  63-[-0  9]  53-[7  14]  50-[5  10]  50-[2  13]  42-[-0  12]  31-[-0  4]  26-[1  8] -> 9
 30-[-0  13]  4-[7  16]  7-[-0  15]  43-[-0  2]  41-[-0  12]  35-[5  16]  49-[-0  11]  18-[8  16]  34-[7  16]  54-[5  13]  13-[-0  5]  28-[4  16]  27-[5  13]  34-[3  16]  43-[-0  10]  11-[3  15]  55-[-0  13]  45-[10  15]  18-[2  16]  14-[-0  4]  20-[9  16]  47-[-0  14] -> 9
 38-[1  14]  44-[-0  2]  44-[-0  16]  24-[-0  14]  12-[4  15]  5-[1  15]  18-[10  16]  63-[-0  14]  63-[-0  9]  7-[-0  8]  24-[-0  13]  60-[12  16]  11-[4  14]  62-[1  12]  54-[6  15]  48-[-0  5]  24-[-0  4]  61-[5  15]  43-[-0  5]  9-[0  16]  57-[-0  8]  24-[-0  6] -> 9
 28-[3  14]  53-[-0  6]  10-[12  14]  26-[12  16]  28-[5  15]  2-[1  8]  60-[0  7]  31-[-0  10]  60-[0  6]  39-[-0  5]  46-[-0  7]  28-[10  15]  42-[-0  5]  20-[-0  9]  7-[-0  13]  55-[-0  6]  38-[-0  3]  13-[2  16]  38-[-0  10]  14-[3  12]  28-[7  15]  5-[1  13] -> 9
 39-[-0  12]  57-[-0  1]  21-[14  16]  57-[-0  10]  45-[6  16]  35-[-0  9]  3-[4  16]  54-[-0  15]  34-[-0  8]  33-[-0  14]  58-[1  14]  51-[1  9]  21-[6  16]  56-[-0  14]  42-[-0  3]  29-[11  16]  56-[-0  10]  56-[-0  11]  26-[3  13]  47-[-0  3]  29-[5  16]  18-[11  16] -> 9
 30-[6  13]  34-[-0  5]  63-[-0  6]  50-[3  12]  32-[-0  2]  63-[-0  12]  13-[12  16]  63-[-0  6]  24-[-0  5]  27-[3  16]  22-[1  16]  21-[4  16]  55-[-0  14]  35-[-0  11]  55-[-0  4]  56-[-0  4]  20-[3  15]  44-[0  13]  58-[2  12]  56-[-0  2]  42-[-0  5]  26-[0  4] -> 9
 21-[12  16]  6-[-0  14]  53-[10  16]  22-[4  13]  21-[1  16]  12-[9  12]  15-[-0  10]  28-[6  16]  53-[11  16]  39-[-0  12]  36-[3  8]  42-[-0  16]  25-[-0  8]  29-[5  16]  3-[8  16]  63-[-0  3]  33-[-0  16]  12-[6  12]  11-[10  15]  1-[-0  3]  28-[7  16]  20-[1  10] -> 9
 10-[4  16]  12-[3  12]  6-[-0  16]  1-[-0  4]  9-[3  10]  4-[6  11]  36-[-0  9]  39-[-0  12]  53-[2  5]  48-[-0  2]  38-[-0  14]  63-[-0  6]  27-[5  13]  55-[-0  3]  1-[-0  7]  27-[8  13]  6-[-0  1]  59-[3  16]  9-[3  12]  24-[-0  7]  31-[-0  1]  62-[-0  13] -> 9
 7-[-0  12]  53-[6  14]  32-[-0  5]  3-[5  16]  55-[0  11]  56-[-0  16]  7-[-0  1]  23-[-0  9]  8-[-0  1]  58-[6  12]  48-[-0  12]  37-[7  12]  8-[-0  4]  3-[15  16]  10-[11  16]  38-[7  16]  32-[-0  11]  43-[-0  6]  57-[-0  9]  13-[9  15]  24-[-0  3]  40-[-0  15] -> 9
ACCURACY on training set 64

TEST ACCURACY 40.4976
