\relax 
\providecommand\hyper@newdestlabel[2]{}
\providecommand\HyperFirstAtBeginDocument{\AtBeginDocument}
\HyperFirstAtBeginDocument{\ifx\hyper@anchor\@undefined
\global\let\oldcontentsline\contentsline
\gdef\contentsline#1#2#3#4{\oldcontentsline{#1}{#2}{#3}}
\global\let\oldnewlabel\newlabel
\gdef\newlabel#1#2{\newlabelxx{#1}#2}
\gdef\newlabelxx#1#2#3#4#5#6{\oldnewlabel{#1}{{#2}{#3}}}
\AtEndDocument{\ifx\hyper@anchor\@undefined
\let\contentsline\oldcontentsline
\let\newlabel\oldnewlabel
\fi}
\fi}
\global\let\hyper@last\relax 
\gdef\HyperFirstAtBeginDocument#1{#1}
\providecommand\HyField@AuxAddToFields[1]{}
\providecommand\HyField@AuxAddToCoFields[2]{}
\@writefile{toc}{\contentsline {section}{\numberline {1}Procedure}{1}{section.1}}
\@writefile{toc}{\contentsline {section}{\numberline {2}Results}{1}{section.2}}
\providecommand*\caption@xref[2]{\@setref\relax\@undefined{#1}}
\newlabel{fig:onea}{{1a}{1}{Training set\relax }{figure.caption.3}{}}
\newlabel{sub@fig:onea}{{a}{1}{Training set\relax }{figure.caption.3}{}}
\newlabel{fig:oneb}{{1b}{1}{Testing set\relax }{figure.caption.3}{}}
\newlabel{sub@fig:oneb}{{b}{1}{Testing set\relax }{figure.caption.3}{}}
\@writefile{lof}{\contentsline {figure}{\numberline {1}{\ignorespaces Performance charts for the \textbf  {original} datasets\relax }}{1}{figure.caption.3}}
\newlabel{fig:one}{{1}{1}{Performance charts for the \textbf {original} datasets\relax }{figure.caption.3}{}}
\newlabel{fig:twoa}{{2a}{1}{Training set\relax }{figure.caption.4}{}}
\newlabel{sub@fig:twoa}{{a}{1}{Training set\relax }{figure.caption.4}{}}
\newlabel{fig:twob}{{2b}{1}{Testing set\relax }{figure.caption.4}{}}
\newlabel{sub@fig:twob}{{b}{1}{Testing set\relax }{figure.caption.4}{}}
\@writefile{lof}{\contentsline {figure}{\numberline {2}{\ignorespaces Performance charts for the datasets for question \textbf  {4}\relax }}{1}{figure.caption.4}}
\newlabel{fig:two}{{2}{1}{Performance charts for the datasets for question \textbf {4}\relax }{figure.caption.4}{}}
\newlabel{fig:threea}{{3a}{2}{Training set\relax }{figure.caption.5}{}}
\newlabel{sub@fig:threea}{{a}{2}{Training set\relax }{figure.caption.5}{}}
\newlabel{fig:threeb}{{3b}{2}{Testing set\relax }{figure.caption.5}{}}
\newlabel{sub@fig:threeb}{{b}{2}{Testing set\relax }{figure.caption.5}{}}
\@writefile{lof}{\contentsline {figure}{\numberline {3}{\ignorespaces Performance charts for the datasets for question \textbf  {5}\relax }}{2}{figure.caption.5}}
\newlabel{fig:three}{{3}{2}{Performance charts for the datasets for question \textbf {5}\relax }{figure.caption.5}{}}
\@writefile{toc}{\contentsline {section}{\numberline {3}Analysis}{2}{section.6}}
\@writefile{toc}{\contentsline {subsection}{\numberline {3.1}Variation in performance with number of fields per rule}{2}{subsection.7}}
\newlabel{sec:fpr}{{3.1}{2}{Variation in performance with number of fields per rule}{subsection.7}{}}
\@writefile{toc}{\contentsline {subsection}{\numberline {3.2}Variation in performance with number of rules per class}{2}{subsection.8}}
\newlabel{sec:rpc}{{3.2}{2}{Variation in performance with number of rules per class}{subsection.8}{}}
\@writefile{toc}{\contentsline {subsection}{\numberline {3.3}Variation in performance with size of training set}{3}{subsection.9}}
\@writefile{toc}{\contentsline {subsection}{\numberline {3.4}Further Analysis}{3}{subsection.10}}
